t	P	Rf	HR	Cad	Target_O2	NN_O2
0	0.0	0.271	0.361	0.0	0.108	0.113
1	0.0	0.275	0.361	0.0	0.114	0.098
2	0.0	0.279	0.362	0.0	0.12	0.107
3	0.0	0.283	0.362	0.0	0.129	0.097
4	0.0	0.285	0.363	0.0	0.138	0.106
5	0.0	0.287	0.363	0.0	0.147	0.097
6	0.0	0.288	0.363	0.0	0.156	0.114
7	0.0	0.288	0.363	0.0	0.164	0.114
8	0.0	0.287	0.363	0.0	0.172	0.094
9	0.0	0.286	0.363	0.0	0.179	0.113
10	0.0	0.284	0.363	0.0	0.186	0.113
11	0.0	0.28	0.363	0.0	0.181	0.098
12	0.0	0.274	0.364	0.0	0.174	0.094
13	0.0	0.267	0.365	0.0	0.164	0.105
14	0.0	0.261	0.365	0.0	0.151	0.094
15	0.0	0.256	0.365	0.0	0.138	0.092
16	0.0	0.252	0.364	0.0	0.123	0.094
17	0.0	0.249	0.364	0.0	0.107	0.098
18	0.0	0.247	0.364	0.0	0.09	0.102
19	0.0	0.246	0.364	0.0	0.074	0.111
20	0.0	0.246	0.363	0.0	0.058	0.111
21	0.0	0.249	0.363	0.0	0.053	0.112
22	0.0	0.253	0.363	0.0	0.051	0.112
23	0.0	0.258	0.363	0.0	0.05	0.113
24	0.0	0.262	0.363	0.0	0.05	0.114
25	0.0	0.267	0.363	0.0	0.052	0.115
26	0.0	0.271	0.364	0.0	0.056	0.116
27	0.0	0.274	0.364	0.0	0.061	0.117
28	0.0	0.286	0.364	0.0	0.067	0.118
29	0.0	0.307	0.364	0.0	0.072	0.119
30	0.0	0.326	0.364	0.0	0.078	0.119
31	0.0	0.344	0.364	0.0	0.082	0.12
32	0.0	0.359	0.363	0.0	0.085	0.121
33	0.0	0.374	0.363	0.0	0.088	0.121
34	0.0	0.392	0.363	0.0	0.091	0.121
35	0.0	0.405	0.363	0.0	0.092	0.122
36	0.0	0.414	0.363	0.0	0.092	0.122
37	0.0	0.418	0.365	0.0	0.092	0.121
38	0.0	0.408	0.366	0.0	0.091	0.121
39	0.0	0.384	0.368	0.0	0.09	0.121
40	0.0	0.355	0.37	0.0	0.09	0.121
41	0.0	0.397	0.372	0.0	0.09	0.12
42	0.0	0.431	0.374	0.0	0.09	0.12
43	0.0	0.452	0.377	0.0	0.089	0.119
44	0.0	0.462	0.379	0.0	0.088	0.119
45	0.0	0.468	0.381	0.0	0.089	0.118
46	0.0	0.468	0.383	0.0	0.09	0.118
47	0.0	0.463	0.384	0.0	0.093	0.118
48	0.0	0.453	0.385	0.0	0.096	0.117
49	0.0	0.45	0.385	0.0	0.098	0.117
50	0.0	0.455	0.385	0.0	0.1	0.116
51	0.0	0.392	0.385	0.0	0.101	0.116
52	0.0	0.342	0.385	0.0	0.104	0.116
53	0.0	0.301	0.385	0.0	0.108	0.115
54	0.0	0.269	0.385	0.0	0.114	0.115
55	0.0	0.247	0.385	0.0	0.12	0.115
56	0.0	0.234	0.384	0.0	0.124	0.115
57	0.0	0.231	0.384	0.0	0.125	0.114
58	0.0	0.239	0.383	0.0	0.123	0.114
59	0.0	0.245	0.382	0.0	0.119	0.114
60	0.0	0.25	0.381	0.0	0.113	0.114
61	0.0	0.252	0.38	0.0	0.109	0.114
62	0.0	0.253	0.379	0.0	0.103	0.114
63	0.0	0.255	0.377	0.0	0.098	0.115
64	0.0	0.257	0.376	0.0	0.092	0.115
65	0.0	0.261	0.375	0.0	0.086	0.115
66	0.0	0.266	0.373	0.0	0.085	0.115
67	0.0	0.27	0.371	0.0	0.088	0.115
68	0.0	0.275	0.37	0.0	0.095	0.116
69	0.0	0.278	0.368	0.0	0.102	0.116
70	0.0	0.282	0.367	0.0	0.109	0.116
71	0.0	0.285	0.365	0.0	0.114	0.117
72	0.0	0.287	0.364	0.0	0.115	0.117
73	0.0	0.288	0.363	0.0	0.114	0.117
74	0.0	0.288	0.363	0.0	0.114	0.118
75	0.0	0.288	0.363	0.0	0.113	0.118
76	0.0	0.288	0.362	0.0	0.111	0.119
77	0.0	0.287	0.362	0.0	0.108	0.119
78	0.0	0.287	0.361	0.0	0.104	0.12
79	0.0	0.286	0.361	0.0	0.102	0.121
80	0.0	0.285	0.36	0.0	0.103	0.121
81	0.0	0.284	0.36	0.0	0.105	0.122
82	0.0	0.282	0.36	0.0	0.108	0.122
83	0.0	0.282	0.359	0.0	0.112	0.123
84	0.0	0.282	0.359	0.0	0.115	0.123
85	0.0	0.281	0.359	0.0	0.118	0.124
86	0.0	0.28	0.36	0.0	0.121	0.124
87	0.0	0.278	0.36	0.0	0.126	0.124
88	0.0	0.276	0.361	0.0	0.133	0.124
89	0.0	0.273	0.362	0.0	0.141	0.123
90	0.0	0.271	0.363	0.0	0.146	0.123
91	0.0	0.269	0.364	0.0	0.147	0.123
92	0.0	0.266	0.365	0.0	0.146	0.122
93	0.0	0.263	0.366	0.0	0.143	0.122
94	0.0	0.259	0.366	0.0	0.141	0.121
95	0.0	0.256	0.366	0.0	0.137	0.121
96	0.0	0.253	0.367	0.0	0.131	0.12
97	0.0	0.25	0.367	0.0	0.124	0.12
98	0.0	0.248	0.368	0.0	0.116	0.119
99	0.0	0.245	0.37	0.0	0.106	0.119
100	0.0	0.243	0.371	0.0	0.101	0.119
101	0.0	0.241	0.374	0.0	0.1	0.118
102	0.0	0.238	0.376	0.0	0.103	0.118
103	0.0	0.236	0.379	0.0	0.109	0.118
104	0.0	0.236	0.382	0.0	0.114	0.118
105	0.0	0.238	0.385	0.0	0.119	0.118
106	0.0	0.241	0.388	0.0	0.124	0.118
107	0.0	0.245	0.39	0.0	0.129	0.118
108	0.0	0.248	0.392	0.0	0.134	0.118
109	0.0	0.252	0.392	0.0	0.138	0.118
110	0.0	0.256	0.392	0.0	0.141	0.117
111	0.0	0.26	0.391	0.0	0.142	0.117
112	0.0	0.264	0.389	0.0	0.142	0.117
113	0.0	0.268	0.386	0.0	0.143	0.117
114	0.0	0.27	0.382	0.0	0.145	0.117
115	0.0	0.269	0.379	0.0	0.147	0.116
116	0.0	0.267	0.375	0.0	0.15	0.116
117	0.0	0.264	0.371	0.0	0.15	0.116
118	0.0	0.261	0.368	0.0	0.148	0.116
119	0.0	0.258	0.366	0.0	0.145	0.116
120	0.0	0.254	0.364	0.0	0.141	0.116
121	0.0	0.25	0.364	0.0	0.138	0.116
122	0.0	0.246	0.364	0.0	0.137	0.116
123	0.0	0.242	0.365	0.0	0.136	0.116
124	0.0	0.239	0.366	0.0	0.135	0.116
125	0.0	0.236	0.367	0.0	0.132	0.116
126	0.0	0.233	0.368	0.0	0.129	0.116
127	0.0	0.231	0.369	0.0	0.127	0.116
128	0.0	0.228	0.369	0.0	0.125	0.116
129	0.0	0.228	0.37	0.0	0.125	0.115
130	0.0	0.231	0.37	0.0	0.126	0.115
131	0.0	0.235	0.369	0.0	0.127	0.115
132	0.0	0.24	0.369	0.0	0.127	0.114
133	0.0	0.246	0.367	0.0	0.126	0.114
134	0.0	0.253	0.366	0.0	0.127	0.114
135	0.0	0.259	0.365	0.0	0.128	0.114
136	0.0	0.266	0.364	0.0	0.129	0.114
137	0.0	0.273	0.364	0.0	0.131	0.113
138	0.0	0.28	0.363	0.0	0.134	0.113
139	0.0	0.285	0.363	0.0	0.136	0.113
140	0.0	0.288	0.362	0.0	0.139	0.113
141	0.0	0.289	0.362	0.0	0.141	0.113
142	0.0	0.288	0.362	0.0	0.142	0.113
143	0.0	0.287	0.363	0.0	0.142	0.114
144	0.0	0.285	0.363	0.0	0.141	0.115
145	0.0	0.282	0.364	0.0	0.143	0.118
146	0.0	0.278	0.365	0.0	0.149	0.122
147	0.0	0.276	0.366	0.0	0.159	0.129
148	0.0	0.274	0.367	0.0	0.166	0.139
149	0.0	0.273	0.367	0.0	0.171	0.151
150	0.0	0.274	0.368	0.0	0.173	0.166
151	0.0	0.277	0.368	0.0	0.173	0.185
152	0.0	0.282	0.368	0.0	0.173	0.205
153	0.0	0.289	0.369	0.0	0.175	0.228
154	0.0	0.304	0.369	0.0	0.177	0.251
155	0.0	0.326	0.368	0.0	0.177	0.274
156	0.0	0.344	0.368	0.0	0.173	0.296
157	0.0	0.356	0.367	0.0	0.165	0.315
158	0.0	0.362	0.366	0.0	0.163	0.331
159	0.0	0.363	0.365	0.0	0.166	0.345
160	0.0	0.363	0.364	0.0	0.172	0.357
161	0.0	0.361	0.363	0.0	0.182	0.366
162	0.0	0.358	0.363	0.0	0.192	0.373
163	0.0	0.354	0.362	0.0	0.203	0.378
164	0.0	0.344	0.361	0.0	0.213	0.382
165	0.0	0.328	0.36	0.0	0.222	0.384
166	0.0	0.315	0.36	0.0	0.232	0.385
167	0.0	0.305	0.36	0.0	0.241	0.386
168	0.0	0.297	0.36	0.0	0.249	0.387
169	0.0	0.291	0.361	0.0	0.254	0.387
170	0.0	0.283	0.361	0.0	0.258	0.387
171	0.0	0.272	0.361	0.0	0.261	0.388
172	0.011	0.267	0.361	0.033	0.262	0.388
173	0.033	0.266	0.361	0.1	0.263	0.39
174	0.067	0.269	0.361	0.2	0.263	0.392
175	0.1	0.271	0.362	0.3	0.272	0.394
176	0.133	0.275	0.362	0.4	0.287	0.397
177	0.167	0.281	0.361	0.5	0.302	0.4
178	0.2	0.288	0.362	0.6	0.316	0.404
179	0.233	0.295	0.364	0.7	0.33	0.408
180	0.267	0.303	0.367	0.8	0.347	0.412
181	0.3	0.312	0.371	0.9	0.367	0.416
182	0.322	0.318	0.376	0.967	0.389	0.42
183	0.333	0.321	0.382	1.0	0.412	0.425
184	0.333	0.321	0.39	1.0	0.436	0.429
185	0.333	0.321	0.399	1.0	0.452	0.433
186	0.333	0.322	0.408	1.0	0.458	0.437
187	0.333	0.324	0.419	1.0	0.462	0.441
188	0.333	0.328	0.43	1.0	0.475	0.445
189	0.333	0.335	0.441	1.0	0.495	0.449
190	0.333	0.344	0.452	1.0	0.515	0.453
191	0.333	0.354	0.462	1.0	0.536	0.457
192	0.333	0.362	0.471	1.0	0.554	0.46
193	0.333	0.368	0.48	1.0	0.57	0.463
194	0.333	0.372	0.488	1.0	0.583	0.466
195	0.333	0.374	0.497	1.0	0.59	0.469
196	0.333	0.377	0.506	1.0	0.589	0.472
197	0.333	0.378	0.514	1.0	0.593	0.474
198	0.333	0.38	0.522	1.0	0.591	0.476
199	0.333	0.381	0.528	1.0	0.584	0.478
200	0.333	0.383	0.534	1.0	0.57	0.48
201	0.333	0.381	0.54	1.0	0.55	0.481
202	0.333	0.376	0.546	1.0	0.533	0.483
203	0.333	0.367	0.551	1.0	0.519	0.485
204	0.333	0.355	0.557	1.0	0.508	0.486
205	0.333	0.352	0.563	1.0	0.506	0.488
206	0.333	0.357	0.57	1.0	0.514	0.49
207	0.333	0.362	0.576	1.0	0.52	0.492
208	0.333	0.367	0.582	1.0	0.525	0.494
209	0.333	0.371	0.588	1.0	0.528	0.495
210	0.333	0.37	0.594	1.0	0.534	0.497
211	0.333	0.368	0.601	1.0	0.542	0.498
212	0.333	0.372	0.607	1.0	0.549	0.499
213	0.333	0.382	0.614	1.0	0.554	0.501
214	0.333	0.397	0.621	1.0	0.554	0.502
215	0.333	0.401	0.626	1.0	0.551	0.504
216	0.333	0.394	0.63	1.0	0.543	0.505
217	0.333	0.384	0.633	1.0	0.531	0.507
218	0.333	0.381	0.636	1.0	0.518	0.508
219	0.333	0.386	0.64	1.0	0.503	0.509
220	0.333	0.396	0.642	1.0	0.489	0.51
221	0.333	0.409	0.644	1.0	0.474	0.511
222	0.333	0.421	0.646	1.0	0.459	0.511
223	0.333	0.43	0.647	1.0	0.445	0.512
224	0.333	0.437	0.648	1.0	0.433	0.512
225	0.333	0.443	0.649	1.0	0.429	0.512
226	0.333	0.449	0.651	1.0	0.434	0.511
227	0.333	0.458	0.652	1.0	0.446	0.511
228	0.333	0.459	0.653	1.0	0.458	0.511
229	0.333	0.452	0.654	1.0	0.468	0.51
230	0.333	0.446	0.656	1.0	0.48	0.51
231	0.333	0.441	0.657	1.0	0.492	0.509
232	0.333	0.434	0.658	1.0	0.504	0.509
233	0.333	0.428	0.66	1.0	0.517	0.509
234	0.333	0.422	0.661	1.0	0.531	0.508
235	0.333	0.421	0.662	1.0	0.542	0.508
236	0.333	0.424	0.663	1.0	0.545	0.507
237	0.333	0.428	0.664	1.0	0.541	0.506
238	0.333	0.434	0.665	1.0	0.536	0.506
239	0.333	0.434	0.666	1.0	0.533	0.505
240	0.333	0.429	0.666	1.0	0.528	0.505
241	0.333	0.418	0.667	1.0	0.523	0.505
242	0.333	0.403	0.667	1.0	0.519	0.504
243	0.333	0.384	0.668	1.0	0.515	0.504
244	0.333	0.375	0.668	1.0	0.51	0.504
245	0.333	0.376	0.667	1.0	0.505	0.504
246	0.333	0.376	0.666	1.0	0.503	0.503
247	0.333	0.375	0.665	1.0	0.505	0.503
248	0.333	0.371	0.664	1.0	0.509	0.503
249	0.333	0.369	0.662	1.0	0.515	0.503
250	0.333	0.371	0.661	1.0	0.523	0.503
251	0.333	0.373	0.66	1.0	0.526	0.503
252	0.333	0.378	0.658	1.0	0.524	0.503
253	0.333	0.384	0.657	1.0	0.521	0.503
254	0.333	0.377	0.656	1.0	0.518	0.503
255	0.333	0.362	0.655	1.0	0.515	0.503
256	0.333	0.353	0.655	1.0	0.512	0.503
257	0.333	0.347	0.654	1.0	0.509	0.503
258	0.333	0.344	0.654	1.0	0.506	0.502
259	0.333	0.341	0.654	1.0	0.503	0.502
260	0.333	0.341	0.655	1.0	0.5	0.502
261	0.333	0.344	0.655	1.0	0.501	0.502
262	0.333	0.35	0.656	1.0	0.507	0.502
263	0.333	0.357	0.656	1.0	0.511	0.501
264	0.333	0.365	0.656	1.0	0.513	0.501
265	0.333	0.365	0.656	1.0	0.51	0.501
266	0.333	0.364	0.656	1.0	0.503	0.5
267	0.333	0.359	0.656	1.0	0.491	0.499
268	0.333	0.359	0.656	1.0	0.482	0.499
269	0.333	0.359	0.656	1.0	0.478	0.498
270	0.333	0.359	0.656	1.0	0.477	0.497
271	0.333	0.359	0.656	1.0	0.478	0.496
272	0.333	0.358	0.656	1.0	0.482	0.495
273	0.333	0.359	0.656	1.0	0.484	0.493
274	0.333	0.362	0.656	1.0	0.484	0.493
275	0.333	0.367	0.657	1.0	0.486	0.492
276	0.333	0.37	0.657	1.0	0.491	0.491
277	0.333	0.371	0.658	1.0	0.497	0.49
278	0.333	0.368	0.658	1.0	0.501	0.49
279	0.333	0.366	0.658	1.0	0.503	0.489
280	0.333	0.362	0.658	1.0	0.502	0.489
281	0.333	0.362	0.657	1.0	0.5	0.489
282	0.333	0.366	0.656	1.0	0.498	0.488
283	0.333	0.37	0.655	1.0	0.498	0.488
284	0.333	0.372	0.654	1.0	0.5	0.489
285	0.333	0.374	0.653	1.0	0.502	0.489
286	0.333	0.373	0.652	1.0	0.504	0.489
287	0.333	0.369	0.651	1.0	0.507	0.489
288	0.333	0.362	0.649	1.0	0.506	0.49
289	0.333	0.353	0.648	1.0	0.503	0.49
290	0.333	0.353	0.647	1.0	0.496	0.49
291	0.333	0.358	0.645	1.0	0.487	0.491
292	0.333	0.359	0.644	1.0	0.475	0.491
293	0.333	0.361	0.642	1.0	0.465	0.491
294	0.333	0.363	0.641	1.0	0.457	0.491
295	0.333	0.365	0.639	1.0	0.451	0.491
296	0.333	0.368	0.638	1.0	0.449	0.491
297	0.333	0.372	0.638	1.0	0.449	0.491
298	0.333	0.38	0.637	1.0	0.449	0.49
299	0.333	0.391	0.637	1.0	0.449	0.49
300	0.333	0.395	0.637	1.0	0.449	0.49
301	0.333	0.392	0.637	1.0	0.455	0.489
302	0.333	0.393	0.638	1.0	0.467	0.488
303	0.333	0.394	0.639	1.0	0.476	0.488
304	0.333	0.396	0.64	1.0	0.481	0.487
305	0.333	0.397	0.641	1.0	0.481	0.487
306	0.333	0.399	0.642	1.0	0.481	0.486
307	0.333	0.401	0.642	1.0	0.48	0.486
308	0.333	0.403	0.643	1.0	0.481	0.486
309	0.333	0.404	0.643	1.0	0.484	0.485
310	0.333	0.406	0.644	1.0	0.489	0.485
311	0.333	0.406	0.644	1.0	0.489	0.485
312	0.333	0.404	0.644	1.0	0.482	0.484
313	0.333	0.402	0.644	1.0	0.477	0.484
314	0.333	0.399	0.644	1.0	0.473	0.484
315	0.333	0.397	0.645	1.0	0.471	0.485
316	0.333	0.397	0.645	1.0	0.476	0.485
317	0.333	0.399	0.646	1.0	0.488	0.486
318	0.333	0.403	0.646	1.0	0.506	0.486
319	0.333	0.409	0.646	1.0	0.515	0.487
320	0.333	0.414	0.646	1.0	0.514	0.488
321	0.333	0.42	0.645	1.0	0.516	0.488
322	0.333	0.425	0.644	1.0	0.52	0.489
323	0.333	0.428	0.643	1.0	0.526	0.49
324	0.333	0.429	0.641	1.0	0.535	0.49
325	0.333	0.43	0.639	1.0	0.545	0.49
326	0.333	0.431	0.637	1.0	0.547	0.491
327	0.333	0.431	0.634	1.0	0.543	0.491
328	0.333	0.428	0.632	1.0	0.529	0.491
329	0.333	0.423	0.63	1.0	0.522	0.491
330	0.333	0.418	0.629	1.0	0.522	0.491
331	0.333	0.411	0.628	1.0	0.522	0.49
332	0.333	0.404	0.627	1.0	0.521	0.49
333	0.333	0.4	0.627	1.0	0.519	0.49
334	0.333	0.398	0.627	1.0	0.516	0.489
335	0.333	0.397	0.627	1.0	0.512	0.488
336	0.333	0.397	0.627	1.0	0.508	0.488
337	0.333	0.397	0.628	1.0	0.504	0.487
338	0.333	0.396	0.628	1.0	0.498	0.486
339	0.333	0.395	0.629	1.0	0.491	0.486
340	0.333	0.393	0.629	1.0	0.487	0.485
341	0.333	0.388	0.63	1.0	0.484	0.485
342	0.333	0.379	0.631	1.0	0.484	0.485
343	0.333	0.367	0.632	1.0	0.482	0.485
344	0.333	0.352	0.632	1.0	0.476	0.485
345	0.333	0.333	0.633	1.0	0.468	0.486
346	0.333	0.321	0.633	1.0	0.462	0.487
347	0.333	0.317	0.634	1.0	0.459	0.489
348	0.333	0.321	0.634	1.0	0.459	0.49
349	0.333	0.324	0.635	1.0	0.461	0.491
350	0.333	0.326	0.636	1.0	0.46	0.493
351	0.333	0.328	0.636	1.0	0.458	0.494
352	0.333	0.329	0.637	1.0	0.455	0.495
353	0.333	0.331	0.638	1.0	0.455	0.497
354	0.333	0.333	0.638	1.0	0.458	0.498
355	0.333	0.343	0.638	1.0	0.462	0.499
356	0.333	0.351	0.638	1.0	0.466	0.5
357	0.333	0.357	0.638	1.0	0.469	0.5
358	0.333	0.356	0.638	1.0	0.475	0.501
359	0.333	0.358	0.637	1.0	0.481	0.501
360	0.333	0.361	0.636	1.0	0.487	0.501
361	0.333	0.366	0.636	1.0	0.492	0.502
362	0.333	0.375	0.635	1.0	0.497	0.502
363	0.333	0.388	0.636	1.0	0.499	0.502
364	0.333	0.405	0.637	1.0	0.502	0.502
365	0.333	0.417	0.638	1.0	0.505	0.502
366	0.333	0.422	0.64	1.0	0.504	0.502
367	0.333	0.422	0.642	1.0	0.501	0.502
368	0.333	0.422	0.644	1.0	0.497	0.502
369	0.333	0.42	0.646	1.0	0.494	0.502
370	0.333	0.416	0.648	1.0	0.494	0.503
371	0.333	0.411	0.65	1.0	0.491	0.503
372	0.333	0.404	0.651	1.0	0.484	0.503
373	0.333	0.398	0.653	1.0	0.478	0.504
374	0.333	0.391	0.654	1.0	0.474	0.504
375	0.333	0.387	0.655	1.0	0.469	0.504
376	0.333	0.384	0.656	1.0	0.463	0.503
377	0.333	0.382	0.656	1.0	0.457	0.503
378	0.333	0.38	0.657	1.0	0.453	0.502
379	0.333	0.378	0.657	1.0	0.451	0.5
380	0.333	0.379	0.657	1.0	0.447	0.499
381	0.333	0.382	0.657	1.0	0.445	0.497
382	0.333	0.389	0.657	1.0	0.445	0.496
383	0.333	0.395	0.657	1.0	0.447	0.494
384	0.333	0.399	0.657	1.0	0.45	0.493
385	0.333	0.403	0.657	1.0	0.458	0.492
386	0.333	0.405	0.658	1.0	0.469	0.492
387	0.333	0.407	0.658	1.0	0.484	0.492
388	0.333	0.409	0.658	1.0	0.495	0.492
389	0.333	0.412	0.659	1.0	0.503	0.494
390	0.333	0.417	0.659	1.0	0.511	0.496
391	0.333	0.42	0.659	1.0	0.519	0.498
392	0.333	0.421	0.659	1.0	0.529	0.502
393	0.333	0.417	0.658	1.0	0.538	0.507
394	0.333	0.409	0.658	1.0	0.544	0.512
395	0.333	0.398	0.657	1.0	0.546	0.518
396	0.333	0.383	0.656	1.0	0.545	0.525
397	0.333	0.364	0.654	1.0	0.541	0.532
398	0.333	0.352	0.652	1.0	0.538	0.54
399	0.333	0.345	0.65	1.0	0.535	0.549
400	0.333	0.343	0.648	1.0	0.528	0.558
401	0.333	0.343	0.646	1.0	0.516	0.567
402	0.333	0.345	0.644	1.0	0.515	0.576
403	0.333	0.35	0.642	1.0	0.523	0.586
404	0.333	0.36	0.64	1.0	0.534	0.595
405	0.333	0.372	0.639	1.0	0.548	0.604
406	0.333	0.388	0.638	1.0	0.564	0.614
407	0.333	0.407	0.637	1.0	0.583	0.623
408	0.333	0.418	0.637	1.0	0.601	0.632
409	0.333	0.422	0.637	1.0	0.614	0.641
410	0.333	0.419	0.638	1.0	0.628	0.65
411	0.333	0.416	0.638	1.0	0.653	0.658
412	0.333	0.415	0.639	1.0	0.671	0.666
413	0.353	0.413	0.64	1.0	0.674	0.673
414	0.392	0.411	0.64	1.0	0.673	0.68
415	0.432	0.413	0.641	1.0	0.675	0.686
416	0.471	0.418	0.641	1.0	0.678	0.691
417	0.51	0.427	0.641	1.0	0.68	0.696
418	0.55	0.434	0.642	1.0	0.679	0.7
419	0.589	0.441	0.642	1.0	0.682	0.704
420	0.628	0.449	0.643	1.0	0.69	0.707
421	0.668	0.459	0.643	1.0	0.695	0.71
422	0.707	0.467	0.643	1.0	0.699	0.713
423	0.727	0.476	0.644	1.0	0.708	0.716
424	0.727	0.483	0.646	1.0	0.717	0.718
425	0.727	0.485	0.648	1.0	0.721	0.72
426	0.727	0.486	0.652	1.0	0.721	0.722
427	0.727	0.486	0.656	1.0	0.723	0.725
428	0.727	0.488	0.66	1.0	0.727	0.727
429	0.727	0.491	0.665	1.0	0.733	0.729
430	0.727	0.496	0.67	1.0	0.737	0.731
431	0.727	0.501	0.676	1.0	0.739	0.733
432	0.727	0.503	0.682	1.0	0.74	0.734
433	0.727	0.503	0.688	1.0	0.739	0.736
434	0.727	0.503	0.693	1.0	0.741	0.738
435	0.727	0.502	0.697	1.0	0.743	0.74
436	0.727	0.497	0.701	1.0	0.74	0.742
437	0.727	0.495	0.705	1.0	0.739	0.743
438	0.727	0.498	0.708	1.0	0.738	0.745
439	0.727	0.498	0.711	1.0	0.74	0.747
440	0.727	0.492	0.714	1.0	0.745	0.748
441	0.727	0.484	0.717	1.0	0.748	0.75
442	0.727	0.48	0.72	1.0	0.75	0.751
443	0.727	0.479	0.722	1.0	0.749	0.752
444	0.727	0.482	0.725	1.0	0.747	0.754
445	0.727	0.484	0.729	1.0	0.746	0.755
446	0.727	0.488	0.733	1.0	0.748	0.756
447	0.727	0.486	0.737	1.0	0.751	0.757
448	0.727	0.479	0.74	1.0	0.754	0.758
449	0.727	0.476	0.744	1.0	0.751	0.759
450	0.727	0.476	0.747	1.0	0.74	0.76
451	0.727	0.475	0.75	1.0	0.74	0.76
452	0.727	0.476	0.754	1.0	0.748	0.761
453	0.727	0.478	0.757	1.0	0.755	0.761
454	0.727	0.478	0.76	1.0	0.759	0.762
455	0.727	0.476	0.763	1.0	0.764	0.762
456	0.727	0.478	0.766	1.0	0.77	0.762
457	0.727	0.481	0.768	1.0	0.774	0.762
458	0.727	0.484	0.771	1.0	0.775	0.762
459	0.727	0.488	0.773	1.0	0.78	0.762
460	0.727	0.489	0.776	1.0	0.791	0.762
461	0.727	0.488	0.777	1.0	0.798	0.762
462	0.727	0.482	0.779	1.0	0.797	0.762
463	0.727	0.477	0.78	1.0	0.801	0.762
464	0.727	0.478	0.782	1.0	0.809	0.762
465	0.727	0.479	0.783	1.0	0.815	0.763
466	0.727	0.478	0.783	1.0	0.821	0.763
467	0.727	0.475	0.784	1.0	0.822	0.763
468	0.727	0.473	0.785	1.0	0.819	0.763
469	0.727	0.469	0.786	1.0	0.809	0.764
470	0.727	0.464	0.787	1.0	0.79	0.764
471	0.727	0.459	0.788	1.0	0.761	0.764
472	0.727	0.453	0.789	1.0	0.751	0.765
473	0.727	0.441	0.79	1.0	0.761	0.765
474	0.727	0.43	0.79	1.0	0.765	0.766
475	0.727	0.426	0.791	1.0	0.765	0.766
476	0.727	0.428	0.792	1.0	0.763	0.767
477	0.727	0.428	0.793	1.0	0.766	0.767
478	0.727	0.426	0.793	1.0	0.773	0.768
479	0.727	0.429	0.793	1.0	0.786	0.768
480	0.727	0.438	0.793	1.0	0.804	0.769
481	0.727	0.449	0.793	1.0	0.831	0.769
482	0.727	0.461	0.792	1.0	0.84	0.769
483	0.727	0.476	0.792	1.0	0.828	0.769
484	0.727	0.485	0.791	1.0	0.823	0.769
485	0.727	0.486	0.791	1.0	0.823	0.769
486	0.727	0.478	0.791	1.0	0.823	0.77
487	0.727	0.466	0.791	1.0	0.823	0.77
488	0.727	0.462	0.792	1.0	0.824	0.77
489	0.727	0.461	0.792	1.0	0.824	0.77
490	0.727	0.459	0.793	1.0	0.827	0.771
491	0.727	0.46	0.793	1.0	0.828	0.771
492	0.727	0.461	0.794	1.0	0.828	0.771
493	0.727	0.462	0.794	1.0	0.828	0.772
494	0.727	0.46	0.795	1.0	0.829	0.772
495	0.727	0.457	0.795	1.0	0.827	0.772
496	0.727	0.455	0.796	1.0	0.824	0.773
497	0.727	0.461	0.797	1.0	0.821	0.773
498	0.727	0.466	0.797	1.0	0.816	0.774
499	0.727	0.46	0.798	1.0	0.817	0.774
500	0.727	0.45	0.799	1.0	0.822	0.774
501	0.727	0.434	0.8	1.0	0.823	0.774
502	0.727	0.425	0.8	1.0	0.82	0.775
503	0.727	0.422	0.801	1.0	0.813	0.775
504	0.727	0.421	0.803	1.0	0.806	0.775
505	0.727	0.424	0.804	1.0	0.801	0.775
506	0.727	0.432	0.804	1.0	0.799	0.776
507	0.727	0.435	0.805	1.0	0.798	0.776
508	0.727	0.435	0.806	1.0	0.799	0.776
509	0.727	0.44	0.806	1.0	0.796	0.776
510	0.727	0.448	0.806	1.0	0.793	0.776
511	0.727	0.461	0.806	1.0	0.798	0.776
512	0.727	0.47	0.806	1.0	0.808	0.776
513	0.727	0.472	0.806	1.0	0.824	0.776
514	0.727	0.475	0.807	1.0	0.833	0.776
515	0.727	0.478	0.807	1.0	0.837	0.776
516	0.727	0.479	0.807	1.0	0.84	0.776
517	0.727	0.475	0.807	1.0	0.844	0.776
518	0.727	0.466	0.808	1.0	0.846	0.776
519	0.727	0.451	0.808	1.0	0.85	0.777
520	0.727	0.441	0.809	1.0	0.85	0.777
521	0.727	0.434	0.809	1.0	0.835	0.777
522	0.727	0.433	0.81	1.0	0.809	0.778
523	0.727	0.433	0.81	1.0	0.793	0.778
524	0.727	0.434	0.81	1.0	0.794	0.779
525	0.727	0.437	0.81	1.0	0.798	0.779
526	0.727	0.441	0.81	1.0	0.799	0.78
527	0.727	0.449	0.81	1.0	0.798	0.78
528	0.727	0.461	0.81	1.0	0.796	0.781
529	0.727	0.476	0.81	1.0	0.798	0.781
530	0.727	0.483	0.81	1.0	0.805	0.782
531	0.727	0.482	0.81	1.0	0.815	0.782
532	0.727	0.472	0.81	1.0	0.828	0.783
533	0.727	0.459	0.81	1.0	0.832	0.783
534	0.727	0.453	0.81	1.0	0.826	0.784
535	0.727	0.455	0.81	1.0	0.826	0.784
536	0.727	0.456	0.81	1.0	0.828	0.784
537	0.727	0.456	0.81	1.0	0.831	0.785
538	0.727	0.454	0.81	1.0	0.835	0.785
539	0.727	0.453	0.81	1.0	0.834	0.785
540	0.727	0.459	0.81	1.0	0.827	0.786
541	0.727	0.47	0.81	1.0	0.818	0.786
542	0.727	0.485	0.811	1.0	0.807	0.786
543	0.727	0.504	0.811	1.0	0.788	0.787
544	0.727	0.512	0.812	1.0	0.782	0.787
545	0.727	0.509	0.812	1.0	0.79	0.787
546	0.727	0.505	0.813	1.0	0.801	0.787
547	0.727	0.503	0.813	1.0	0.813	0.787
548	0.727	0.501	0.814	1.0	0.824	0.788
549	0.727	0.503	0.814	1.0	0.832	0.788
550	0.727	0.505	0.815	1.0	0.84	0.788
551	0.727	0.504	0.815	1.0	0.848	0.787
552	0.727	0.503	0.815	1.0	0.857	0.787
553	0.727	0.497	0.815	1.0	0.879	0.787
554	0.727	0.491	0.815	1.0	0.891	0.787
555	0.727	0.486	0.815	1.0	0.887	0.786
556	0.727	0.482	0.815	1.0	0.881	0.786
557	0.727	0.48	0.816	1.0	0.872	0.786
558	0.727	0.482	0.816	1.0	0.863	0.785
559	0.727	0.483	0.817	1.0	0.854	0.785
560	0.727	0.483	0.817	1.0	0.847	0.785
561	0.727	0.482	0.818	1.0	0.846	0.784
562	0.727	0.48	0.818	1.0	0.851	0.784
563	0.727	0.482	0.819	1.0	0.849	0.784
564	0.727	0.486	0.82	1.0	0.836	0.784
565	0.727	0.491	0.82	1.0	0.818	0.784
566	0.727	0.491	0.821	1.0	0.804	0.784
567	0.727	0.483	0.821	1.0	0.796	0.784
568	0.727	0.475	0.822	1.0	0.793	0.784
569	0.727	0.467	0.823	1.0	0.794	0.784
570	0.727	0.46	0.824	1.0	0.796	0.785
571	0.727	0.449	0.825	1.0	0.794	0.785
572	0.727	0.434	0.825	1.0	0.788	0.786
573	0.727	0.417	0.826	1.0	0.78	0.786
574	0.727	0.404	0.826	1.0	0.781	0.787
575	0.727	0.397	0.826	1.0	0.791	0.787
576	0.727	0.398	0.826	1.0	0.802	0.788
577	0.727	0.407	0.826	1.0	0.807	0.789
578	0.727	0.41	0.826	1.0	0.805	0.789
579	0.727	0.409	0.825	1.0	0.799	0.789
580	0.727	0.402	0.825	1.0	0.796	0.79
581	0.727	0.404	0.825	1.0	0.801	0.79
582	0.727	0.416	0.824	1.0	0.814	0.79
583	0.727	0.434	0.824	1.0	0.829	0.79
584	0.727	0.45	0.824	1.0	0.837	0.79
585	0.727	0.46	0.824	1.0	0.841	0.789
586	0.727	0.466	0.824	1.0	0.842	0.789
587	0.727	0.468	0.824	1.0	0.845	0.788
588	0.727	0.471	0.824	1.0	0.849	0.787
589	0.727	0.475	0.824	1.0	0.854	0.786
590	0.727	0.483	0.825	1.0	0.852	0.786
591	0.727	0.486	0.825	1.0	0.847	0.785
592	0.727	0.482	0.826	1.0	0.838	0.784
593	0.727	0.472	0.826	1.0	0.834	0.783
594	0.727	0.465	0.827	1.0	0.836	0.782
595	0.727	0.463	0.827	1.0	0.837	0.782
596	0.727	0.461	0.828	1.0	0.838	0.781
597	0.727	0.458	0.828	1.0	0.836	0.781
598	0.727	0.454	0.829	1.0	0.831	0.781
599	0.727	0.453	0.829	1.0	0.824	0.781
600	0.727	0.45	0.829	1.0	0.824	0.781
601	0.727	0.445	0.829	1.0	0.828	0.782
602	0.727	0.441	0.829	1.0	0.832	0.782
603	0.727	0.437	0.829	1.0	0.833	0.783
604	0.727	0.429	0.829	1.0	0.829	0.784
605	0.727	0.417	0.829	1.0	0.821	0.785
606	0.727	0.407	0.829	1.0	0.814	0.785
607	0.727	0.398	0.829	1.0	0.813	0.786
608	0.727	0.388	0.829	1.0	0.813	0.787
609	0.727	0.376	0.828	1.0	0.814	0.788
610	0.727	0.368	0.828	1.0	0.807	0.789
611	0.727	0.366	0.827	1.0	0.802	0.79
612	0.727	0.369	0.826	1.0	0.803	0.791
613	0.727	0.377	0.825	1.0	0.801	0.792
614	0.727	0.387	0.824	1.0	0.801	0.793
615	0.727	0.4	0.823	1.0	0.804	0.794
616	0.727	0.416	0.822	1.0	0.806	0.794
617	0.727	0.432	0.821	1.0	0.807	0.795
618	0.727	0.451	0.82	1.0	0.81	0.795
619	0.727	0.469	0.82	1.0	0.814	0.795
620	0.727	0.48	0.82	1.0	0.82	0.796
621	0.727	0.487	0.821	1.0	0.823	0.796
622	0.727	0.489	0.822	1.0	0.821	0.796
623	0.727	0.49	0.823	1.0	0.82	0.796
624	0.727	0.49	0.824	1.0	0.819	0.796
625	0.727	0.488	0.825	1.0	0.815	0.796
626	0.727	0.484	0.827	1.0	0.809	0.797
627	0.727	0.479	0.828	1.0	0.808	0.797
628	0.727	0.472	0.83	1.0	0.812	0.798
629	0.727	0.464	0.831	1.0	0.814	0.799
630	0.727	0.463	0.832	1.0	0.815	0.801
631	0.727	0.467	0.832	1.0	0.815	0.803
632	0.727	0.47	0.833	1.0	0.814	0.805
633	0.727	0.468	0.833	1.0	0.816	0.807
634	0.727	0.471	0.834	1.0	0.816	0.81
635	0.727	0.478	0.834	1.0	0.818	0.814
636	0.727	0.478	0.834	1.0	0.822	0.817
637	0.727	0.472	0.835	1.0	0.826	0.821
638	0.727	0.471	0.835	1.0	0.831	0.826
639	0.727	0.474	0.836	1.0	0.837	0.83
640	0.727	0.475	0.836	1.0	0.844	0.835
641	0.727	0.469	0.837	1.0	0.849	0.84
642	0.727	0.463	0.837	1.0	0.851	0.844
643	0.727	0.464	0.838	1.0	0.852	0.849
644	0.727	0.463	0.838	1.0	0.859	0.854
645	0.727	0.455	0.839	1.0	0.858	0.859
646	0.727	0.454	0.839	1.0	0.865	0.863
647	0.727	0.463	0.839	1.0	0.877	0.868
648	0.727	0.472	0.839	1.0	0.877	0.872
649	0.727	0.478	0.839	1.0	0.871	0.876
650	0.727	0.481	0.84	1.0	0.868	0.88
651	0.727	0.489	0.84	1.0	0.865	0.883
652	0.727	0.501	0.841	1.0	0.865	0.886
653	0.736	0.508	0.841	1.0	0.866	0.889
654	0.754	0.509	0.842	1.0	0.863	0.892
655	0.772	0.514	0.842	1.0	0.865	0.894
656	0.79	0.521	0.843	1.0	0.857	0.896
657	0.808	0.525	0.844	1.0	0.838	0.897
658	0.826	0.527	0.845	1.0	0.833	0.899
659	0.844	0.529	0.846	1.0	0.844	0.9
660	0.862	0.533	0.847	1.0	0.858	0.901
661	0.88	0.531	0.847	1.0	0.874	0.901
662	0.898	0.524	0.848	1.0	0.887	0.902
663	0.907	0.515	0.848	1.0	0.895	0.902
664	0.907	0.522	0.849	1.0	0.903	0.903
665	0.907	0.526	0.849	1.0	0.911	0.903
666	0.907	0.528	0.85	1.0	0.917	0.904
667	0.907	0.531	0.85	1.0	0.923	0.904
668	0.907	0.536	0.85	1.0	0.936	0.904
669	0.907	0.541	0.851	1.0	0.933	0.905
670	0.907	0.544	0.851	1.0	0.919	0.905
671	0.907	0.545	0.852	1.0	0.908	0.905
672	0.907	0.543	0.852	1.0	0.904	0.905
673	0.907	0.552	0.853	1.0	0.904	0.906
674	0.907	0.552	0.853	1.0	0.906	0.906
675	0.907	0.553	0.854	1.0	0.916	0.906
676	0.907	0.557	0.855	1.0	0.934	0.906
677	0.907	0.563	0.855	1.0	0.948	0.906
678	0.907	0.565	0.856	1.0	0.939	0.906
679	0.907	0.564	0.857	1.0	0.932	0.906
680	0.907	0.559	0.858	1.0	0.936	0.906
681	0.907	0.554	0.86	1.0	0.937	0.906
682	0.907	0.561	0.861	1.0	0.935	0.906
683	0.907	0.566	0.863	1.0	0.927	0.906
684	0.907	0.565	0.865	1.0	0.912	0.906
685	0.907	0.563	0.867	1.0	0.904	0.906
686	0.907	0.559	0.868	1.0	0.902	0.907
687	0.907	0.554	0.87	1.0	0.883	0.907
688	0.907	0.542	0.872	1.0	0.884	0.907
689	0.907	0.523	0.873	1.0	0.902	0.907
690	0.907	0.52	0.875	1.0	0.917	0.908
691	0.907	0.532	0.876	1.0	0.928	0.908
692	0.907	0.538	0.876	1.0	0.934	0.909
693	0.907	0.538	0.876	1.0	0.942	0.909
694	0.907	0.537	0.876	1.0	0.953	0.909
695	0.907	0.535	0.877	1.0	0.951	0.909
696	0.907	0.53	0.877	1.0	0.94	0.909
697	0.907	0.522	0.877	1.0	0.955	0.909
698	0.907	0.535	0.877	1.0	0.958	0.91
699	0.907	0.559	0.877	1.0	0.949	0.91
700	0.907	0.573	0.877	1.0	0.941	0.909
701	0.907	0.574	0.877	1.0	0.933	0.909
702	0.907	0.573	0.878	1.0	0.93	0.908
703	0.907	0.57	0.879	1.0	0.934	0.908
704	0.907	0.564	0.88	1.0	0.936	0.907
705	0.907	0.565	0.88	1.0	0.939	0.906
706	0.907	0.574	0.881	1.0	0.937	0.906
707	0.907	0.584	0.881	1.0	0.931	0.905
708	0.907	0.578	0.882	1.0	0.934	0.905
709	0.907	0.57	0.884	1.0	0.934	0.904
710	0.907	0.559	0.885	1.0	0.934	0.904
711	0.907	0.548	0.887	1.0	0.916	0.904
712	0.907	0.538	0.888	1.0	0.875	0.904
713	0.907	0.533	0.888	1.0	0.862	0.904
714	0.907	0.533	0.889	1.0	0.885	0.904
715	0.907	0.531	0.89	1.0	0.896	0.904
716	0.907	0.528	0.89	1.0	0.896	0.904
717	0.907	0.527	0.891	1.0	0.905	0.904
718	0.907	0.526	0.891	1.0	0.91	0.905
719	0.907	0.526	0.891	1.0	0.918	0.905
720	0.907	0.527	0.89	1.0	0.928	0.905
721	0.907	0.53	0.89	1.0	0.953	0.906
722	0.907	0.533	0.89	1.0	0.994	0.906
723	0.907	0.532	0.889	1.0	0.999	0.906
724	0.907	0.527	0.889	1.0	0.977	0.907
725	0.907	0.526	0.89	1.0	0.971	0.907
726	0.907	0.525	0.89	1.0	0.978	0.907
727	0.907	0.528	0.89	1.0	0.979	0.908
728	0.907	0.531	0.89	1.0	0.974	0.908
729	0.907	0.533	0.89	1.0	0.969	0.908
730	0.907	0.535	0.89	1.0	0.963	0.908
731	0.907	0.539	0.89	1.0	0.961	0.909
732	0.907	0.546	0.891	1.0	0.962	0.909
733	0.907	0.558	0.891	1.0	0.966	0.909
734	0.907	0.572	0.892	1.0	0.964	0.909
735	0.907	0.573	0.892	1.0	0.954	0.909
736	0.907	0.566	0.892	1.0	0.937	0.909
737	0.907	0.55	0.893	1.0	0.948	0.909
738	0.907	0.552	0.893	1.0	0.951	0.909
739	0.907	0.556	0.894	1.0	0.946	0.909
740	0.907	0.559	0.895	1.0	0.946	0.91
741	0.907	0.555	0.896	1.0	0.95	0.91
742	0.907	0.541	0.896	1.0	0.95	0.91
743	0.907	0.535	0.897	1.0	0.947	0.91
744	0.907	0.539	0.897	1.0	0.947	0.911
745	0.907	0.543	0.897	1.0	0.954	0.911
746	0.907	0.547	0.898	1.0	0.97	0.911
747	0.907	0.558	0.898	1.0	0.96	0.912
748	0.907	0.556	0.898	1.0	0.959	0.912
749	0.907	0.554	0.898	1.0	0.966	0.912
750	0.907	0.553	0.898	1.0	0.966	0.912
751	0.907	0.557	0.898	1.0	0.953	0.913
752	0.907	0.567	0.898	1.0	0.937	0.913
753	0.907	0.572	0.898	1.0	0.933	0.913
754	0.907	0.567	0.899	1.0	0.933	0.913
755	0.907	0.567	0.899	1.0	0.934	0.913
756	0.907	0.568	0.9	1.0	0.935	0.913
757	0.907	0.565	0.9	1.0	0.944	0.913
758	0.907	0.564	0.9	1.0	0.868	0.913
759	0.907	0.568	0.901	1.0	0.853	0.913
760	0.907	0.573	0.901	1.0	0.9	0.913
761	0.907	0.578	0.902	1.0	0.898	0.913
762	0.907	0.581	0.903	1.0	0.912	0.913
763	0.907	0.578	0.903	1.0	0.926	0.913
764	0.907	0.57	0.903	1.0	0.937	0.912
765	0.907	0.568	0.904	1.0	0.941	0.913
766	0.907	0.576	0.904	1.0	0.935	0.913
767	0.907	0.586	0.905	1.0	0.92	0.913
768	0.907	0.591	0.905	1.0	0.986	0.913
769	0.907	0.589	0.906	1.0	0.997	0.913
770	0.907	0.584	0.906	1.0	0.954	0.914
771	0.907	0.58	0.906	1.0	0.966	0.914
772	0.907	0.58	0.906	1.0	0.968	0.915
773	0.907	0.585	0.907	1.0	0.963	0.916
774	0.907	0.586	0.907	1.0	0.945	0.917
775	0.907	0.572	0.907	1.0	0.928	0.918
776	0.907	0.559	0.907	1.0	0.929	0.919
777	0.907	0.554	0.907	1.0	0.944	0.92
778	0.907	0.551	0.907	1.0	0.959	0.92
779	0.907	0.549	0.907	1.0	0.966	0.921
780	0.907	0.552	0.907	1.0	0.965	0.922
781	0.907	0.555	0.908	1.0	0.963	0.923
782	0.907	0.555	0.908	1.0	0.963	0.924
783	0.907	0.555	0.909	1.0	0.963	0.924
784	0.907	0.565	0.909	1.0	0.966	0.925
785	0.907	0.583	0.91	1.0	0.983	0.925
786	0.907	0.594	0.91	1.0	0.992	0.925
787	0.907	0.601	0.91	1.0	0.986	0.925
788	0.907	0.635	0.911	1.0	0.974	0.925
789	0.907	0.665	0.911	1.0	0.955	0.925
790	0.907	0.687	0.912	1.0	0.948	0.924
791	0.907	0.694	0.912	1.0	0.952	0.923
792	0.907	0.703	0.912	1.0	0.956	0.922
793	0.907	0.709	0.912	1.0	0.963	0.921
794	0.907	0.713	0.912	1.0	0.968	0.92
795	0.907	0.713	0.912	1.0	0.967	0.919
796	0.907	0.709	0.912	1.0	0.96	0.918
797	0.907	0.704	0.912	1.0	0.956	0.918
798	0.907	0.673	0.912	1.0	0.96	0.917
799	0.907	0.644	0.912	1.0	0.971	0.916
800	0.907	0.616	0.912	1.0	0.96	0.916
801	0.907	0.613	0.913	1.0	0.955	0.916
802	0.907	0.603	0.913	1.0	0.966	0.916
803	0.907	0.588	0.914	1.0	0.963	0.916
804	0.907	0.58	0.914	1.0	0.957	0.916
805	0.907	0.581	0.915	1.0	0.946	0.916
806	0.907	0.583	0.915	1.0	0.947	0.916
807	0.907	0.581	0.916	1.0	0.96	0.916
808	0.907	0.578	0.916	1.0	0.963	0.916
809	0.907	0.58	0.917	1.0	0.956	0.916
810	0.907	0.582	0.917	1.0	0.972	0.916
811	0.907	0.573	0.918	1.0	0.976	0.917
812	0.907	0.578	0.918	1.0	0.968	0.917
813	0.907	0.584	0.919	1.0	0.971	0.917
814	0.907	0.579	0.919	1.0	0.975	0.917
815	0.907	0.576	0.92	1.0	0.991	0.917
816	0.907	0.581	0.92	1.0	0.999	0.917
817	0.907	0.586	0.921	1.0	0.995	0.917
818	0.907	0.591	0.921	1.0	0.999	0.917
819	0.907	0.594	0.922	1.0	1.01	0.917
820	0.907	0.597	0.922	1.0	1.01	0.917
821	0.907	0.601	0.922	1.0	1.001	0.917
822	0.907	0.602	0.922	1.0	1.002	0.917
823	0.907	0.611	0.923	1.0	0.996	0.917
824	0.907	0.613	0.923	1.0	0.981	0.916
825	0.907	0.607	0.924	1.0	0.998	0.916
826	0.907	0.593	0.924	1.0	1.002	0.916
827	0.907	0.58	0.925	1.0	1.0	0.916
828	0.907	0.566	0.925	1.0	0.998	0.916
829	0.907	0.55	0.926	1.0	0.998	0.917
830	0.907	0.557	0.926	1.0	0.999	0.917
831	0.907	0.566	0.927	1.0	1.001	0.917
832	0.907	0.568	0.927	1.0	0.996	0.918
833	0.907	0.566	0.927	1.0	0.999	0.918
834	0.907	0.578	0.927	1.0	1.009	0.919
835	0.907	0.591	0.927	1.0	0.988	0.919
836	0.907	0.599	0.927	1.0	0.976	0.919
837	0.907	0.604	0.926	1.0	0.971	0.92
838	0.907	0.61	0.926	1.0	0.972	0.92
839	0.907	0.619	0.925	1.0	0.977	0.92
840	0.907	0.614	0.925	1.0	0.97	0.921
841	0.907	0.609	0.925	1.0	0.974	0.921
842	0.907	0.606	0.925	1.0	0.977	0.922
843	0.907	0.594	0.925	1.0	0.99	0.922
844	0.907	0.572	0.926	1.0	1.003	0.923
845	0.907	0.561	0.926	1.0	1.006	0.923
846	0.907	0.566	0.927	1.0	1.008	0.924
847	0.907	0.577	0.928	1.0	1.009	0.925
848	0.907	0.586	0.928	1.0	1.001	0.925
849	0.907	0.593	0.929	1.0	0.992	0.926
850	0.907	0.596	0.93	1.0	1.002	0.926
851	0.907	0.6	0.93	1.0	0.986	0.927
852	0.907	0.6	0.93	1.0	0.976	0.927
853	0.907	0.616	0.93	1.0	0.974	0.927
854	0.907	0.647	0.93	1.0	0.973	0.928
855	0.907	0.659	0.93	1.0	0.976	0.928
856	0.907	0.659	0.93	1.0	0.978	0.928
857	0.907	0.655	0.931	1.0	0.976	0.928
858	0.907	0.653	0.932	1.0	0.976	0.928
859	0.907	0.655	0.932	1.0	0.977	0.928
860	0.907	0.651	0.932	1.0	0.977	0.928
861	0.907	0.641	0.933	1.0	0.998	0.929
862	0.907	0.644	0.934	1.0	1.006	0.929
863	0.907	0.64	0.934	1.0	0.997	0.929
864	0.907	0.628	0.935	1.0	0.986	0.929
865	0.907	0.624	0.935	1.0	0.974	0.929
866	0.907	0.623	0.936	1.0	0.959	0.928
867	0.907	0.625	0.936	1.0	0.965	0.927
868	0.907	0.626	0.937	1.0	0.976	0.925
869	0.907	0.626	0.937	1.0	0.983	0.922
870	0.907	0.631	0.938	1.0	0.979	0.918
871	0.907	0.644	0.938	1.0	0.969	0.912
872	0.907	0.651	0.938	1.0	0.955	0.905
873	0.907	0.652	0.938	1.0	0.946	0.896
874	0.907	0.653	0.938	1.0	0.941	0.886
875	0.907	0.651	0.938	1.0	0.948	0.875
876	0.907	0.65	0.938	1.0	0.959	0.864
877	0.907	0.65	0.938	1.0	0.953	0.854
878	0.907	0.654	0.938	1.0	0.942	0.844
879	0.907	0.655	0.938	1.0	0.927	0.835
880	0.907	0.653	0.938	1.0	0.928	0.828
881	0.907	0.651	0.938	1.0	0.931	0.821
882	0.907	0.647	0.938	1.0	0.937	0.815
883	0.907	0.653	0.938	1.0	0.943	0.81
884	0.907	0.655	0.938	1.0	0.935	0.806
885	0.907	0.659	0.938	1.0	0.904	0.802
886	0.907	0.664	0.938	1.0	0.891	0.798
887	0.907	0.666	0.939	1.0	0.897	0.794
888	0.907	0.663	0.939	1.0	0.908	0.789
889	0.907	0.664	0.94	1.0	0.916	0.785
890	0.907	0.666	0.94	1.0	0.913	0.78
891	0.907	0.666	0.94	1.0	0.908	0.775
892	0.907	0.663	0.941	1.0	0.902	0.77
893	0.877	0.656	0.941	1.0	0.894	0.764
894	0.819	0.651	0.941	1.0	0.898	0.758
895	0.76	0.648	0.941	1.0	0.915	0.751
896	0.701	0.648	0.941	1.0	0.912	0.745
897	0.643	0.646	0.941	1.0	0.894	0.74
898	0.584	0.646	0.941	1.0	0.875	0.734
899	0.525	0.646	0.941	1.0	0.867	0.73
900	0.467	0.64	0.941	1.0	0.861	0.726
901	0.408	0.634	0.941	1.0	0.854	0.723
902	0.349	0.631	0.941	1.0	0.85	0.72
903	0.32	0.631	0.941	1.0	0.848	0.718
904	0.32	0.634	0.941	1.0	0.846	0.717
905	0.32	0.634	0.941	1.0	0.844	0.715
906	0.32	0.628	0.941	1.0	0.833	0.714
907	0.32	0.621	0.941	1.0	0.808	0.712
908	0.32	0.616	0.94	1.0	0.772	0.711
909	0.32	0.612	0.94	1.0	0.75	0.71
910	0.32	0.619	0.939	1.0	0.751	0.709
911	0.32	0.619	0.939	1.0	0.752	0.708
912	0.32	0.612	0.938	1.0	0.751	0.707
913	0.32	0.597	0.937	1.0	0.745	0.706
914	0.32	0.577	0.936	1.0	0.738	0.705
915	0.32	0.554	0.935	1.0	0.728	0.704
916	0.32	0.546	0.934	1.0	0.729	0.703
917	0.32	0.551	0.934	1.0	0.74	0.702
918	0.32	0.551	0.933	1.0	0.76	0.701
919	0.32	0.547	0.931	1.0	0.758	0.699
920	0.32	0.541	0.93	1.0	0.735	0.698
921	0.32	0.541	0.929	1.0	0.715	0.696
922	0.32	0.55	0.928	1.0	0.699	0.695
923	0.32	0.559	0.926	1.0	0.677	0.693
924	0.32	0.563	0.925	1.0	0.65	0.691
925	0.32	0.574	0.923	1.0	0.63	0.689
926	0.32	0.579	0.921	1.0	0.611	0.687
927	0.32	0.574	0.919	1.0	0.608	0.685
928	0.32	0.571	0.917	1.0	0.624	0.683
929	0.32	0.569	0.915	1.0	0.638	0.68
930	0.32	0.569	0.914	1.0	0.649	0.678
931	0.32	0.57	0.912	1.0	0.656	0.676
932	0.32	0.568	0.91	1.0	0.66	0.673
933	0.32	0.572	0.907	1.0	0.67	0.671
934	0.32	0.578	0.905	1.0	0.684	0.668
935	0.32	0.575	0.904	1.0	0.695	0.666
936	0.32	0.564	0.902	1.0	0.704	0.663
937	0.32	0.547	0.9	1.0	0.693	0.661
938	0.32	0.527	0.899	1.0	0.664	0.659
939	0.32	0.513	0.897	1.0	0.637	0.656
940	0.32	0.506	0.896	1.0	0.623	0.654
941	0.32	0.498	0.894	1.0	0.618	0.652
942	0.32	0.493	0.892	1.0	0.615	0.65
943	0.32	0.49	0.891	1.0	0.615	0.648
944	0.32	0.491	0.889	1.0	0.618	0.646
945	0.32	0.496	0.886	1.0	0.622	0.644
946	0.32	0.506	0.883	1.0	0.621	0.642
947	0.32	0.522	0.88	1.0	0.615	0.64
948	0.32	0.537	0.877	1.0	0.604	0.637
949	0.32	0.538	0.874	1.0	0.586	0.635
950	0.32	0.524	0.871	1.0	0.574	0.632
951	0.32	0.517	0.868	1.0	0.566	0.63
952	0.32	0.517	0.865	1.0	0.562	0.627
953	0.32	0.516	0.861	1.0	0.563	0.625
954	0.32	0.515	0.857	1.0	0.563	0.622
955	0.32	0.505	0.854	1.0	0.562	0.62
956	0.32	0.487	0.851	1.0	0.564	0.618
957	0.32	0.477	0.848	1.0	0.57	0.616
958	0.32	0.481	0.845	1.0	0.583	0.614
959	0.32	0.488	0.843	1.0	0.601	0.613
960	0.32	0.498	0.84	1.0	0.607	0.611
961	0.32	0.504	0.838	1.0	0.599	0.61
962	0.32	0.506	0.836	1.0	0.591	0.608
963	0.32	0.508	0.834	1.0	0.583	0.607
964	0.32	0.509	0.832	1.0	0.575	0.606
965	0.32	0.515	0.83	1.0	0.569	0.604
966	0.32	0.523	0.828	1.0	0.557	0.603
967	0.32	0.518	0.826	1.0	0.541	0.602
968	0.32	0.499	0.824	1.0	0.518	0.601
969	0.32	0.478	0.821	1.0	0.534	0.6
970	0.32	0.472	0.819	1.0	0.55	0.599
971	0.32	0.478	0.815	1.0	0.568	0.599
972	0.32	0.479	0.812	1.0	0.577	0.598
973	0.32	0.482	0.808	1.0	0.579	0.597
974	0.32	0.487	0.805	1.0	0.578	0.595
975	0.32	0.498	0.802	1.0	0.575	0.594
976	0.32	0.512	0.799	1.0	0.577	0.593
977	0.32	0.524	0.796	1.0	0.585	0.592
978	0.32	0.534	0.794	1.0	0.603	0.59
979	0.32	0.543	0.791	1.0	0.588	0.589
980	0.32	0.542	0.79	1.0	0.574	0.587
981	0.32	0.532	0.789	1.0	0.559	0.585
982	0.32	0.527	0.788	1.0	0.545	0.584
983	0.32	0.527	0.788	1.0	0.534	0.582
984	0.32	0.523	0.788	1.0	0.524	0.581
985	0.32	0.516	0.788	1.0	0.52	0.579
986	0.32	0.509	0.788	1.0	0.52	0.578
987	0.32	0.508	0.788	1.0	0.522	0.576
988	0.32	0.514	0.787	1.0	0.523	0.574
989	0.32	0.528	0.786	1.0	0.522	0.572
990	0.32	0.535	0.784	1.0	0.519	0.57
991	0.32	0.537	0.782	1.0	0.517	0.568
992	0.32	0.537	0.78	1.0	0.512	0.566
993	0.32	0.535	0.778	1.0	0.506	0.564
994	0.32	0.531	0.775	1.0	0.497	0.561
995	0.32	0.524	0.772	1.0	0.492	0.559
996	0.32	0.514	0.77	1.0	0.49	0.558
997	0.32	0.502	0.767	1.0	0.494	0.556
998	0.32	0.484	0.765	1.0	0.504	0.555
999	0.32	0.485	0.763	1.0	0.512	0.554
1000	0.32	0.492	0.761	1.0	0.52	0.553
1001	0.32	0.504	0.76	1.0	0.527	0.553
1002	0.32	0.505	0.759	1.0	0.535	0.552
1003	0.32	0.495	0.759	1.0	0.543	0.551
1004	0.32	0.492	0.758	1.0	0.553	0.55
1005	0.32	0.497	0.756	1.0	0.558	0.549
1006	0.32	0.509	0.755	1.0	0.558	0.548
1007	0.32	0.527	0.753	1.0	0.552	0.547
1008	0.32	0.541	0.751	1.0	0.537	0.545
1009	0.32	0.527	0.75	1.0	0.521	0.544
1010	0.32	0.501	0.748	1.0	0.508	0.543
1011	0.32	0.484	0.745	1.0	0.502	0.541
1012	0.32	0.486	0.742	1.0	0.498	0.54
1013	0.32	0.497	0.739	1.0	0.497	0.539
1014	0.32	0.506	0.736	1.0	0.499	0.537
1015	0.32	0.509	0.734	1.0	0.499	0.536
1016	0.32	0.509	0.732	1.0	0.499	0.535
1017	0.32	0.509	0.731	1.0	0.498	0.533
1018	0.32	0.519	0.729	1.0	0.5	0.532
1019	0.32	0.534	0.728	1.0	0.505	0.531
1020	0.32	0.554	0.726	1.0	0.509	0.53
1021	0.32	0.561	0.725	1.0	0.513	0.53
1022	0.32	0.551	0.723	1.0	0.517	0.529
1023	0.32	0.536	0.722	1.0	0.521	0.529
1024	0.32	0.516	0.721	1.0	0.524	0.528
1025	0.32	0.5	0.719	1.0	0.527	0.528
1026	0.32	0.49	0.718	1.0	0.527	0.528
1027	0.32	0.484	0.717	1.0	0.524	0.528
1028	0.32	0.484	0.716	1.0	0.519	0.529
1029	0.32	0.485	0.715	1.0	0.51	0.529
1030	0.32	0.485	0.716	1.0	0.499	0.529
1031	0.32	0.489	0.716	1.0	0.486	0.53
1032	0.32	0.499	0.716	1.0	0.491	0.53
1033	0.32	0.512	0.716	1.0	0.495	0.531
1034	0.32	0.529	0.715	1.0	0.498	0.532
1035	0.32	0.543	0.715	1.0	0.502	0.532
1036	0.32	0.553	0.714	1.0	0.508	0.533
1037	0.32	0.56	0.713	1.0	0.517	0.533
1038	0.32	0.56	0.711	1.0	0.529	0.533
1039	0.32	0.563	0.709	1.0	0.542	0.533
1040	0.32	0.566	0.707	1.0	0.552	0.533
1041	0.32	0.566	0.705	1.0	0.564	0.532
1042	0.32	0.564	0.703	1.0	0.558	0.532
1043	0.32	0.561	0.701	1.0	0.556	0.531
1044	0.32	0.562	0.7	1.0	0.546	0.53
1045	0.32	0.566	0.699	1.0	0.54	0.529
1046	0.32	0.565	0.698	1.0	0.537	0.528
1047	0.32	0.556	0.698	1.0	0.533	0.526
1048	0.32	0.546	0.698	1.0	0.527	0.525
1049	0.32	0.534	0.698	1.0	0.524	0.524
1050	0.32	0.528	0.698	1.0	0.526	0.523
1051	0.32	0.528	0.698	1.0	0.524	0.521
1052	0.32	0.528	0.698	1.0	0.519	0.52
1053	0.32	0.53	0.698	1.0	0.51	0.518
1054	0.32	0.529	0.698	1.0	0.505	0.516
1055	0.32	0.526	0.698	1.0	0.491	0.515
1056	0.32	0.52	0.699	1.0	0.468	0.514
1057	0.32	0.513	0.699	1.0	0.463	0.513
1058	0.32	0.5	0.699	1.0	0.476	0.512
1059	0.32	0.483	0.699	1.0	0.486	0.512
1060	0.32	0.469	0.699	1.0	0.494	0.512
1061	0.32	0.459	0.699	1.0	0.501	0.512
1062	0.32	0.457	0.699	1.0	0.508	0.512
1063	0.32	0.457	0.699	1.0	0.515	0.513
1064	0.32	0.459	0.699	1.0	0.526	0.514
1065	0.32	0.457	0.698	1.0	0.543	0.514
1066	0.32	0.458	0.698	1.0	0.566	0.515
1067	0.32	0.465	0.698	1.0	0.569	0.515
1068	0.32	0.478	0.698	1.0	0.554	0.515
1069	0.32	0.5	0.697	1.0	0.543	0.515
1070	0.32	0.518	0.697	1.0	0.538	0.515
1071	0.32	0.526	0.696	1.0	0.53	0.515
1072	0.32	0.523	0.695	1.0	0.521	0.515
1073	0.32	0.516	0.694	1.0	0.513	0.515
1074	0.32	0.513	0.693	1.0	0.51	0.514
1075	0.32	0.516	0.691	1.0	0.509	0.514
1076	0.32	0.527	0.69	1.0	0.507	0.514
1077	0.32	0.538	0.689	1.0	0.507	0.513
1078	0.32	0.55	0.687	1.0	0.508	0.513
1079	0.32	0.559	0.686	1.0	0.505	0.513
1080	0.32	0.566	0.684	1.0	0.496	0.513
1081	0.32	0.569	0.683	1.0	0.491	0.513
1082	0.32	0.575	0.682	1.0	0.488	0.513
1083	0.32	0.585	0.681	1.0	0.487	0.513
1084	0.32	0.582	0.681	1.0	0.483	0.513
1085	0.32	0.566	0.681	1.0	0.479	0.514
1086	0.32	0.539	0.68	1.0	0.478	0.513
1087	0.32	0.521	0.68	1.0	0.48	0.513
1088	0.32	0.512	0.68	1.0	0.485	0.513
1089	0.32	0.503	0.68	1.0	0.488	0.513
1090	0.32	0.492	0.68	1.0	0.488	0.512
1091	0.32	0.491	0.681	1.0	0.495	0.511
1092	0.32	0.491	0.682	1.0	0.507	0.51
1093	0.32	0.489	0.683	1.0	0.509	0.508
1094	0.32	0.494	0.684	1.0	0.503	0.507
1095	0.32	0.509	0.685	1.0	0.484	0.506
1096	0.32	0.533	0.686	1.0	0.48	0.505
1097	0.32	0.548	0.687	1.0	0.492	0.504
1098	0.32	0.555	0.688	1.0	0.502	0.504
1099	0.32	0.558	0.689	1.0	0.513	0.504
1100	0.32	0.556	0.689	1.0	0.522	0.504
1101	0.32	0.56	0.688	1.0	0.522	0.504
1102	0.32	0.56	0.687	1.0	0.515	0.504
1103	0.32	0.559	0.686	1.0	0.518	0.504
1104	0.32	0.561	0.685	1.0	0.532	0.505
1105	0.32	0.564	0.684	1.0	0.552	0.506
1106	0.32	0.558	0.683	1.0	0.551	0.506
1107	0.32	0.543	0.681	1.0	0.534	0.507
1108	0.32	0.52	0.68	1.0	0.52	0.509
1109	0.32	0.493	0.678	1.0	0.508	0.511
1110	0.32	0.485	0.676	1.0	0.503	0.514
1111	0.32	0.484	0.673	1.0	0.502	0.518
1112	0.32	0.485	0.671	1.0	0.502	0.522
1113	0.32	0.486	0.669	1.0	0.501	0.527
1114	0.32	0.483	0.667	1.0	0.512	0.533
1115	0.32	0.476	0.666	1.0	0.524	0.54
1116	0.32	0.475	0.665	1.0	0.538	0.548
1117	0.32	0.487	0.665	1.0	0.547	0.556
1118	0.32	0.512	0.665	1.0	0.551	0.565
1119	0.32	0.542	0.666	1.0	0.558	0.574
1120	0.32	0.555	0.667	1.0	0.569	0.583
1121	0.32	0.553	0.668	1.0	0.576	0.592
1122	0.32	0.55	0.67	1.0	0.58	0.602
1123	0.32	0.542	0.671	1.0	0.589	0.612
1124	0.32	0.528	0.672	1.0	0.589	0.622
1125	0.32	0.509	0.673	1.0	0.595	0.631
1126	0.32	0.505	0.674	1.0	0.608	0.641
1127	0.32	0.509	0.675	1.0	0.629	0.651
1128	0.32	0.504	0.676	1.0	0.649	0.66
1129	0.32	0.5	0.678	1.0	0.661	0.669
1130	0.32	0.502	0.68	1.0	0.667	0.678
1131	0.32	0.504	0.681	1.0	0.673	0.686
1132	0.32	0.508	0.683	1.0	0.685	0.693
1133	0.34	0.52	0.684	1.0	0.693	0.7
1134	0.381	0.542	0.684	1.0	0.697	0.706
1135	0.422	0.57	0.685	1.0	0.697	0.711
1136	0.462	0.583	0.685	1.0	0.694	0.715
1137	0.503	0.583	0.685	1.0	0.685	0.719
1138	0.544	0.584	0.685	1.0	0.68	0.722
1139	0.584	0.588	0.684	1.0	0.68	0.725
1140	0.625	0.589	0.683	1.0	0.689	0.728
1141	0.666	0.59	0.682	1.0	0.707	0.73
1142	0.706	0.589	0.681	1.0	0.72	0.733
1143	0.727	0.585	0.681	1.0	0.73	0.735
1144	0.727	0.587	0.682	1.0	0.745	0.738
1145	0.727	0.591	0.683	1.0	0.763	0.74
1146	0.727	0.596	0.684	1.0	0.778	0.743
1147	0.727	0.597	0.686	1.0	0.791	0.746
1148	0.727	0.594	0.689	1.0	0.804	0.748
1149	0.727	0.593	0.691	1.0	0.815	0.751
1150	0.727	0.592	0.693	1.0	0.819	0.754
1151	0.727	0.591	0.696	1.0	0.806	0.757
1152	0.727	0.59	0.699	1.0	0.785	0.76
1153	0.727	0.593	0.703	1.0	0.756	0.762
1154	0.727	0.584	0.706	1.0	0.746	0.765
1155	0.727	0.569	0.71	1.0	0.756	0.768
1156	0.727	0.548	0.712	1.0	0.764	0.771
1157	0.727	0.554	0.716	1.0	0.77	0.773
1158	0.727	0.562	0.719	1.0	0.772	0.776
1159	0.727	0.566	0.723	1.0	0.771	0.778
1160	0.727	0.571	0.727	1.0	0.774	0.78
1161	0.727	0.576	0.731	1.0	0.789	0.782
1162	0.727	0.584	0.735	1.0	0.817	0.783
1163	0.727	0.586	0.74	1.0	0.856	0.785
1164	0.727	0.59	0.744	1.0	0.871	0.786
1165	0.727	0.601	0.749	1.0	0.859	0.787
1166	0.727	0.618	0.753	1.0	0.849	0.788
1167	0.727	0.612	0.758	1.0	0.838	0.789
1168	0.727	0.608	0.762	1.0	0.838	0.789
1169	0.727	0.606	0.767	1.0	0.842	0.79
1170	0.727	0.605	0.772	1.0	0.843	0.791
1171	0.727	0.605	0.777	1.0	0.841	0.791
1172	0.727	0.599	0.78	1.0	0.836	0.792
1173	0.727	0.594	0.784	1.0	0.829	0.793
1174	0.727	0.591	0.787	1.0	0.825	0.793
1175	0.727	0.584	0.79	1.0	0.822	0.794
1176	0.727	0.584	0.793	1.0	0.821	0.795
1177	0.727	0.585	0.797	1.0	0.822	0.795
1178	0.727	0.587	0.8	1.0	0.819	0.796
1179	0.727	0.585	0.802	1.0	0.818	0.797
1180	0.727	0.578	0.804	1.0	0.82	0.798
1181	0.727	0.564	0.806	1.0	0.825	0.799
1182	0.727	0.547	0.808	1.0	0.83	0.8
1183	0.727	0.526	0.81	1.0	0.831	0.8
1184	0.727	0.516	0.812	1.0	0.833	0.801
1185	0.727	0.518	0.814	1.0	0.836	0.802
1186	0.727	0.515	0.817	1.0	0.84	0.803
1187	0.727	0.508	0.819	1.0	0.844	0.803
1188	0.727	0.497	0.821	1.0	0.843	0.803
1189	0.727	0.487	0.823	1.0	0.843	0.804
1190	0.727	0.484	0.824	1.0	0.844	0.804
1191	0.727	0.492	0.826	1.0	0.84	0.804
1192	0.727	0.505	0.828	1.0	0.838	0.804
1193	0.727	0.524	0.83	1.0	0.835	0.804
1194	0.727	0.528	0.832	1.0	0.829	0.805
1195	0.727	0.518	0.833	1.0	0.819	0.805
1196	0.727	0.513	0.834	1.0	0.812	0.805
1197	0.727	0.518	0.835	1.0	0.81	0.805
1198	0.727	0.525	0.836	1.0	0.812	0.806
1199	0.727	0.532	0.838	1.0	0.81	0.807
1200	0.727	0.531	0.839	1.0	0.804	0.807
1201	0.727	0.522	0.84	1.0	0.813	0.808
1202	0.727	0.526	0.841	1.0	0.818	0.809
1203	0.727	0.529	0.842	1.0	0.822	0.809
1204	0.727	0.538	0.842	1.0	0.799	0.81
1205	0.727	0.543	0.843	1.0	0.748	0.811
1206	0.727	0.533	0.843	1.0	0.74	0.812
1207	0.727	0.507	0.844	1.0	0.775	0.812
1208	0.727	0.494	0.844	1.0	0.797	0.813
1209	0.727	0.496	0.843	1.0	0.809	0.814
1210	0.727	0.502	0.843	1.0	0.82	0.815
1211	0.727	0.512	0.842	1.0	0.814	0.815
1212	0.727	0.51	0.842	1.0	0.805	0.816
1213	0.727	0.509	0.841	1.0	0.796	0.816
1214	0.727	0.509	0.841	1.0	0.824	0.817
1215	0.727	0.519	0.84	1.0	0.89	0.817
1216	0.727	0.54	0.84	1.0	0.909	0.817
1217	0.727	0.568	0.84	1.0	0.88	0.818
1218	0.727	0.584	0.84	1.0	0.862	0.818
1219	0.727	0.589	0.84	1.0	0.855	0.818
1220	0.727	0.591	0.841	1.0	0.848	0.817
1221	0.727	0.593	0.841	1.0	0.839	0.817
1222	0.727	0.595	0.842	1.0	0.833	0.817
1223	0.727	0.597	0.843	1.0	0.838	0.817
1224	0.727	0.592	0.844	1.0	0.838	0.817
1225	0.727	0.582	0.845	1.0	0.83	0.816
1226	0.727	0.568	0.847	1.0	0.824	0.816
1227	0.727	0.552	0.848	1.0	0.821	0.816
1228	0.727	0.534	0.849	1.0	0.816	0.816
1229	0.727	0.526	0.85	1.0	0.803	0.816
1230	0.727	0.526	0.852	1.0	0.795	0.816
1231	0.727	0.531	0.853	1.0	0.791	0.816
1232	0.727	0.533	0.855	1.0	0.792	0.816
1233	0.727	0.531	0.856	1.0	0.791	0.817
1234	0.727	0.529	0.856	1.0	0.791	0.817
1235	0.727	0.528	0.857	1.0	0.79	0.817
1236	0.727	0.535	0.857	1.0	0.79	0.818
1237	0.727	0.552	0.858	1.0	0.791	0.818
1238	0.727	0.562	0.858	1.0	0.79	0.818
1239	0.727	0.556	0.859	1.0	0.795	0.818
1240	0.727	0.549	0.859	1.0	0.798	0.819
1241	0.727	0.544	0.859	1.0	0.8	0.819
1242	0.727	0.536	0.858	1.0	0.804	0.819
1243	0.727	0.526	0.858	1.0	0.805	0.819
1244	0.727	0.522	0.857	1.0	0.801	0.819
1245	0.727	0.526	0.856	1.0	0.802	0.82
1246	0.727	0.526	0.855	1.0	0.806	0.82
1247	0.727	0.522	0.855	1.0	0.803	0.82
1248	0.727	0.527	0.854	1.0	0.795	0.82
1249	0.727	0.539	0.854	1.0	0.797	0.82
1250	0.727	0.546	0.853	1.0	0.806	0.821
1251	0.727	0.544	0.853	1.0	0.813	0.821
1252	0.727	0.547	0.853	1.0	0.817	0.821
1253	0.727	0.557	0.853	1.0	0.823	0.821
1254	0.727	0.566	0.854	1.0	0.83	0.821
1255	0.727	0.574	0.855	1.0	0.83	0.822
1256	0.727	0.579	0.855	1.0	0.823	0.822
1257	0.727	0.58	0.856	1.0	0.826	0.822
1258	0.727	0.581	0.856	1.0	0.84	0.822
1259	0.727	0.579	0.857	1.0	0.845	0.823
1260	0.727	0.571	0.857	1.0	0.84	0.823
1261	0.727	0.559	0.858	1.0	0.834	0.823
1262	0.727	0.543	0.858	1.0	0.819	0.823
1263	0.727	0.537	0.859	1.0	0.793	0.823
1264	0.727	0.541	0.859	1.0	0.77	0.824
1265	0.727	0.543	0.859	1.0	0.755	0.824
1266	0.727	0.545	0.859	1.0	0.747	0.824
1267	0.727	0.547	0.859	1.0	0.769	0.824
1268	0.727	0.548	0.858	1.0	0.784	0.824
1269	0.727	0.55	0.858	1.0	0.799	0.824
1270	0.727	0.559	0.857	1.0	0.814	0.824
1271	0.727	0.574	0.857	1.0	0.823	0.824
1272	0.727	0.6	0.857	1.0	0.839	0.824
1273	0.727	0.613	0.857	1.0	0.862	0.824
1274	0.727	0.613	0.857	1.0	0.878	0.823
1275	0.727	0.604	0.857	1.0	0.894	0.823
1276	0.727	0.587	0.858	1.0	0.91	0.823
1277	0.727	0.578	0.858	1.0	0.884	0.823
1278	0.727	0.581	0.858	1.0	0.863	0.823
1279	0.727	0.583	0.859	1.0	0.848	0.823
1280	0.727	0.579	0.86	1.0	0.831	0.822
1281	0.727	0.574	0.86	1.0	0.82	0.822
1282	0.727	0.564	0.86	1.0	0.812	0.822
1283	0.727	0.554	0.86	1.0	0.809	0.822
1284	0.727	0.546	0.86	1.0	0.819	0.822
1285	0.727	0.541	0.86	1.0	0.817	0.822
1286	0.727	0.539	0.86	1.0	0.801	0.822
1287	0.727	0.537	0.861	1.0	0.793	0.822
1288	0.727	0.535	0.861	1.0	0.783	0.822
1289	0.727	0.539	0.861	1.0	0.763	0.822
1290	0.727	0.544	0.862	1.0	0.741	0.822
1291	0.727	0.547	0.862	1.0	0.731	0.822
1292	0.727	0.544	0.863	1.0	0.727	0.822
1293	0.727	0.534	0.864	1.0	0.725	0.823
1294	0.727	0.526	0.865	1.0	0.712	0.823
1295	0.727	0.522	0.866	1.0	0.719	0.824
1296	0.727	0.524	0.867	1.0	0.732	0.824
1297	0.727	0.533	0.867	1.0	0.741	0.825
1298	0.727	0.529	0.868	1.0	0.746	0.825
1299	0.727	0.521	0.868	1.0	0.763	0.826
1300	0.727	0.51	0.868	1.0	0.785	0.826
1301	0.727	0.51	0.868	1.0	0.799	0.827
1302	0.727	0.51	0.868	1.0	0.803	0.827
1303	0.727	0.509	0.869	1.0	0.803	0.827
1304	0.727	0.5	0.869	1.0	0.799	0.827
1305	0.727	0.504	0.87	1.0	0.783	0.827
1306	0.727	0.522	0.87	1.0	0.772	0.826
1307	0.727	0.523	0.87	1.0	0.764	0.826
1308	0.727	0.528	0.869	1.0	0.759	0.825
1309	0.727	0.534	0.869	1.0	0.745	0.825
1310	0.727	0.541	0.869	1.0	0.729	0.824
1311	0.727	0.536	0.869	1.0	0.716	0.823
1312	0.727	0.54	0.868	1.0	0.705	0.822
1313	0.727	0.553	0.868	1.0	0.696	0.821
1314	0.727	0.584	0.868	1.0	0.696	0.821
1315	0.727	0.6	0.868	1.0	0.696	0.82
1316	0.727	0.6	0.868	1.0	0.692	0.819
1317	0.727	0.597	0.869	1.0	0.687	0.818
1318	0.727	0.591	0.869	1.0	0.682	0.818
1319	0.727	0.582	0.87	1.0	0.682	0.817
1320	0.727	0.573	0.871	1.0	0.687	0.817
1321	0.727	0.572	0.871	1.0	0.692	0.817
1322	0.727	0.572	0.871	1.0	0.698	0.817
1323	0.727	0.571	0.871	1.0	0.703	0.817
1324	0.727	0.56	0.871	1.0	0.692	0.817
1325	0.727	0.556	0.87	1.0	0.675	0.817
1326	0.727	0.55	0.868	1.0	0.65	0.817
1327	0.727	0.542	0.867	1.0	0.65	0.818
1328	0.727	0.534	0.865	1.0	0.673	0.818
1329	0.727	0.544	0.862	1.0	0.693	0.818
1330	0.727	0.558	0.859	1.0	0.708	0.818
1331	0.727	0.568	0.856	1.0	0.722	0.819
1332	0.727	0.576	0.853	1.0	0.735	0.819
1333	0.727	0.584	0.85	1.0	0.744	0.819
1334	0.727	0.585	0.848	1.0	0.757	0.819
1335	0.727	0.578	0.846	1.0	0.782	0.819
1336	0.727	0.59	0.844	1.0	0.817	0.818
1337	0.727	0.606	0.842	1.0	0.829	0.818
1338	0.727	0.627	0.841	1.0	0.818	0.818
1339	0.727	0.625	0.84	1.0	0.807	0.817
1340	0.727	0.616	0.84	1.0	0.798	0.817
1341	0.727	0.625	0.839	1.0	0.792	0.816
1342	0.727	0.628	0.839	1.0	0.792	0.816
1343	0.727	0.627	0.839	1.0	0.797	0.815
1344	0.727	0.634	0.84	1.0	0.803	0.815
1345	0.727	0.638	0.84	1.0	0.805	0.815
1346	0.727	0.622	0.84	1.0	0.806	0.815
1347	0.727	0.597	0.841	1.0	0.808	0.815
1348	0.727	0.589	0.841	1.0	0.813	0.816
1349	0.727	0.591	0.842	1.0	0.816	0.817
1350	0.727	0.603	0.842	1.0	0.816	0.818
1351	0.727	0.597	0.843	1.0	0.813	0.82
1352	0.727	0.594	0.843	1.0	0.807	0.822
1353	0.727	0.596	0.844	1.0	0.806	0.824
1354	0.727	0.585	0.844	1.0	0.806	0.827
1355	0.727	0.574	0.844	1.0	0.807	0.831
1356	0.727	0.561	0.844	1.0	0.812	0.835
1357	0.727	0.559	0.844	1.0	0.813	0.839
1358	0.727	0.546	0.845	1.0	0.81	0.844
1359	0.727	0.534	0.845	1.0	0.813	0.849
1360	0.727	0.526	0.846	1.0	0.822	0.854
1361	0.727	0.52	0.846	1.0	0.827	0.859
1362	0.727	0.516	0.847	1.0	0.829	0.865
1363	0.727	0.512	0.847	1.0	0.823	0.87
1364	0.727	0.516	0.848	1.0	0.83	0.876
1365	0.727	0.525	0.849	1.0	0.836	0.881
1366	0.727	0.541	0.85	1.0	0.837	0.886
1367	0.727	0.546	0.851	1.0	0.844	0.891
1368	0.727	0.542	0.852	1.0	0.851	0.896
1369	0.727	0.526	0.853	1.0	0.853	0.901
1370	0.727	0.531	0.854	1.0	0.854	0.906
1371	0.727	0.534	0.855	1.0	0.857	0.91
1372	0.727	0.536	0.856	1.0	0.862	0.914
1373	0.745	0.542	0.857	1.0	0.871	0.918
1374	0.763	0.55	0.858	1.0	0.869	0.921
1375	0.781	0.561	0.859	1.0	0.868	0.925
1376	0.799	0.574	0.86	1.0	0.87	0.927
1377	0.817	0.593	0.861	1.0	0.87	0.929
1378	0.835	0.616	0.861	1.0	0.872	0.931
1379	0.853	0.643	0.862	1.0	0.874	0.932
1380	0.871	0.641	0.862	1.0	0.881	0.933
1381	0.889	0.639	0.863	1.0	0.888	0.934
1382	0.907	0.635	0.864	1.0	0.894	0.934
1383	0.907	0.635	0.865	1.0	0.894	0.934
1384	0.907	0.634	0.866	1.0	0.892	0.934
1385	0.907	0.63	0.867	1.0	0.897	0.935
1386	0.907	0.629	0.869	1.0	0.898	0.935
1387	0.907	0.628	0.87	1.0	0.895	0.935
1388	0.907	0.628	0.871	1.0	0.896	0.935
1389	0.907	0.631	0.873	1.0	0.899	0.935
1390	0.907	0.636	0.874	1.0	0.896	0.935
1391	0.907	0.647	0.876	1.0	0.894	0.934
1392	0.907	0.658	0.878	1.0	0.893	0.934
1393	0.907	0.659	0.879	1.0	0.897	0.934
1394	0.907	0.667	0.88	1.0	0.903	0.933
1395	0.907	0.674	0.882	1.0	0.902	0.933
1396	0.907	0.678	0.883	1.0	0.907	0.932
1397	0.907	0.68	0.885	1.0	0.916	0.931
1398	0.907	0.683	0.886	1.0	0.924	0.931
1399	0.907	0.684	0.888	1.0	0.928	0.93
1400	0.907	0.68	0.889	1.0	0.93	0.93
1401	0.907	0.674	0.89	1.0	0.93	0.929
1402	0.907	0.672	0.891	1.0	0.935	0.929
1403	0.907	0.669	0.892	1.0	0.945	0.929
1404	0.907	0.656	0.893	1.0	0.95	0.928
1405	0.907	0.641	0.894	1.0	0.957	0.928
1406	0.907	0.632	0.895	1.0	0.96	0.928
1407	0.907	0.63	0.896	1.0	0.954	0.928
1408	0.907	0.629	0.897	1.0	0.951	0.928
1409	0.907	0.629	0.898	1.0	0.949	0.927
1410	0.907	0.634	0.899	1.0	0.948	0.927
1411	0.907	0.638	0.9	1.0	0.948	0.927
1412	0.907	0.64	0.901	1.0	0.948	0.926
1413	0.907	0.634	0.901	1.0	0.927	0.926
1414	0.907	0.623	0.902	1.0	0.894	0.926
1415	0.907	0.63	0.903	1.0	0.883	0.925
1416	0.907	0.634	0.904	1.0	0.893	0.925
1417	0.907	0.634	0.905	1.0	0.909	0.925
1418	0.907	0.634	0.905	1.0	0.92	0.925
1419	0.907	0.634	0.906	1.0	0.925	0.924
1420	0.907	0.622	0.907	1.0	0.93	0.924
1421	0.907	0.613	0.908	1.0	0.934	0.924
1422	0.907	0.608	0.909	1.0	0.936	0.924
1423	0.907	0.612	0.91	1.0	0.955	0.924
1424	0.907	0.626	0.91	1.0	0.991	0.924
1425	0.907	0.629	0.911	1.0	1.0	0.924
1426	0.907	0.628	0.912	1.0	0.988	0.924
1427	0.907	0.621	0.913	1.0	0.976	0.924
1428	0.907	0.618	0.913	1.0	0.967	0.924
1429	0.907	0.62	0.914	1.0	0.959	0.924
1430	0.907	0.619	0.914	1.0	0.961	0.924
1431	0.907	0.601	0.915	1.0	0.964	0.924
1432	0.907	0.591	0.915	1.0	0.96	0.924
1433	0.907	0.596	0.915	1.0	0.958	0.925
1434	0.907	0.603	0.916	1.0	0.957	0.925
1435	0.907	0.604	0.916	1.0	0.962	0.925
1436	0.907	0.608	0.916	1.0	0.965	0.925
1437	0.907	0.615	0.916	1.0	0.966	0.926
1438	0.907	0.617	0.916	1.0	0.968	0.926
1439	0.907	0.616	0.916	1.0	0.972	0.926
1440	0.907	0.627	0.916	1.0	0.961	0.926
1441	0.907	0.651	0.916	1.0	0.961	0.926
1442	0.907	0.667	0.917	1.0	0.972	0.926
1443	0.907	0.659	0.918	1.0	0.975	0.926
1444	0.907	0.636	0.919	1.0	0.97	0.926
1445	0.907	0.624	0.919	1.0	0.966	0.926
1446	0.907	0.622	0.92	1.0	0.958	0.927
1447	0.907	0.622	0.921	1.0	0.948	0.927
1448	0.907	0.621	0.922	1.0	0.951	0.927
1449	0.907	0.617	0.923	1.0	0.967	0.927
1450	0.907	0.613	0.924	1.0	0.97	0.928
1451	0.907	0.608	0.924	1.0	0.97	0.928
1452	0.907	0.603	0.925	1.0	0.967	0.928
1453	0.907	0.611	0.926	1.0	0.958	0.928
1454	0.907	0.634	0.927	1.0	0.952	0.928
1455	0.907	0.644	0.928	1.0	0.946	0.928
1456	0.907	0.644	0.929	1.0	0.947	0.928
1457	0.907	0.641	0.929	1.0	0.955	0.928
1458	0.907	0.637	0.93	1.0	0.954	0.928
1459	0.907	0.634	0.93	1.0	0.944	0.928
1460	0.907	0.638	0.93	1.0	0.956	0.928
1461	0.907	0.64	0.931	1.0	0.959	0.928
1462	0.907	0.633	0.931	1.0	0.953	0.928
1463	0.907	0.629	0.932	1.0	0.957	0.928
1464	0.907	0.629	0.932	1.0	0.961	0.928
1465	0.907	0.633	0.932	1.0	0.966	0.928
1466	0.907	0.634	0.932	1.0	0.974	0.928
1467	0.907	0.632	0.932	1.0	0.973	0.928
1468	0.907	0.634	0.933	1.0	0.964	0.928
1469	0.907	0.639	0.933	1.0	0.965	0.928
1470	0.907	0.632	0.933	1.0	0.964	0.928
1471	0.907	0.633	0.934	1.0	0.965	0.928
1472	0.907	0.641	0.934	1.0	0.965	0.929
1473	0.907	0.641	0.935	1.0	0.963	0.929
1474	0.907	0.633	0.935	1.0	0.968	0.929
1475	0.907	0.628	0.936	1.0	0.978	0.929
1476	0.907	0.62	0.936	1.0	0.973	0.929
1477	0.907	0.609	0.937	1.0	0.977	0.929
1478	0.907	0.607	0.937	1.0	0.989	0.93
1479	0.907	0.612	0.938	1.0	0.986	0.93
1480	0.907	0.622	0.938	1.0	0.982	0.93
1481	0.907	0.628	0.938	1.0	0.975	0.93
1482	0.907	0.628	0.938	1.0	0.976	0.93
1483	0.907	0.631	0.938	1.0	0.985	0.93
1484	0.907	0.638	0.938	1.0	0.991	0.93
1485	0.907	0.641	0.938	1.0	0.986	0.93
1486	0.907	0.644	0.938	1.0	0.992	0.93
1487	0.907	0.646	0.938	1.0	0.995	0.93
1488	0.907	0.652	0.937	1.0	0.992	0.93
1489	0.907	0.649	0.937	1.0	0.984	0.93
1490	0.907	0.647	0.937	1.0	0.981	0.93
1491	0.907	0.644	0.937	1.0	0.973	0.93
1492	0.907	0.639	0.937	1.0	0.953	0.93
1493	0.907	0.637	0.937	1.0	0.955	0.931
1494	0.907	0.637	0.937	1.0	0.953	0.931
1495	0.907	0.639	0.937	1.0	0.954	0.931
1496	0.907	0.647	0.937	1.0	0.955	0.931
1497	0.907	0.662	0.937	1.0	0.954	0.932
1498	0.907	0.664	0.937	1.0	0.954	0.932
1499	0.907	0.659	0.938	1.0	0.956	0.932
1500	0.907	0.655	0.938	1.0	0.954	0.932
1501	0.907	0.654	0.938	1.0	0.959	0.933
1502	0.907	0.647	0.938	1.0	0.98	0.933
1503	0.907	0.628	0.939	1.0	0.983	0.933
1504	0.907	0.62	0.939	1.0	0.983	0.934
1505	0.907	0.622	0.938	1.0	0.979	0.935
1506	0.907	0.618	0.939	1.0	0.976	0.935
1507	0.907	0.616	0.939	1.0	0.975	0.936
1508	0.907	0.614	0.94	1.0	0.975	0.936
1509	0.907	0.621	0.94	1.0	0.978	0.937
1510	0.907	0.626	0.94	1.0	0.985	0.937
1511	0.907	0.629	0.94	1.0	0.988	0.938
1512	0.907	0.643	0.941	1.0	0.986	0.938
1513	0.907	0.667	0.941	1.0	0.979	0.938
1514	0.907	0.681	0.942	1.0	0.985	0.938
1515	0.907	0.679	0.943	1.0	0.993	0.938
1516	0.907	0.684	0.944	1.0	0.997	0.938
1517	0.907	0.689	0.944	1.0	0.995	0.938
1518	0.907	0.688	0.945	1.0	0.994	0.938
1519	0.907	0.679	0.945	1.0	0.989	0.938
1520	0.907	0.668	0.946	1.0	0.987	0.938
1521	0.907	0.664	0.947	1.0	0.99	0.938
1522	0.907	0.664	0.948	1.0	0.989	0.938
1523	0.907	0.662	0.948	1.0	0.983	0.938
1524	0.907	0.657	0.949	1.0	0.967	0.938
1525	0.907	0.653	0.949	1.0	0.955	0.938
1526	0.907	0.65	0.949	1.0	0.944	0.938
1527	0.907	0.647	0.949	1.0	0.941	0.939
1528	0.907	0.647	0.949	1.0	0.951	0.939
1529	0.907	0.653	0.949	1.0	0.974	0.939
1530	0.907	0.661	0.949	1.0	0.982	0.94
1531	0.907	0.659	0.949	1.0	0.982	0.94
1532	0.907	0.652	0.949	1.0	0.98	0.94
1533	0.907	0.647	0.949	1.0	0.98	0.94
1534	0.907	0.645	0.949	1.0	0.985	0.941
1535	0.907	0.647	0.95	1.0	0.993	0.941
1536	0.907	0.641	0.95	1.0	1.006	0.941
1537	0.907	0.629	0.95	1.0	1.014	0.941
1538	0.907	0.631	0.95	1.0	1.012	0.941
1539	0.907	0.634	0.95	1.0	0.987	0.941
1540	0.907	0.637	0.95	1.0	0.976	0.941
1541	0.907	0.644	0.95	1.0	0.978	0.941
1542	0.907	0.65	0.95	1.0	0.988	0.941
1543	0.907	0.655	0.95	1.0	0.997	0.941
1544	0.907	0.664	0.95	1.0	1.002	0.941
1545	0.907	0.671	0.95	1.0	1.001	0.94
1546	0.907	0.684	0.95	1.0	0.994	0.94
1547	0.907	0.703	0.95	1.0	0.984	0.94
1548	0.907	0.702	0.95	1.0	0.98	0.939
1549	0.907	0.694	0.951	1.0	0.99	0.939
1550	0.907	0.696	0.952	1.0	0.997	0.938
1551	0.907	0.696	0.952	1.0	1.002	0.938
1552	0.907	0.691	0.953	1.0	0.999	0.937
1553	0.907	0.69	0.953	1.0	0.994	0.937
1554	0.907	0.675	0.953	1.0	0.988	0.937
1555	0.907	0.652	0.954	1.0	0.988	0.936
1556	0.907	0.622	0.954	1.0	0.992	0.937
1557	0.907	0.611	0.954	1.0	1.0	0.937
1558	0.907	0.607	0.955	1.0	0.999	0.937
1559	0.907	0.609	0.955	1.0	0.994	0.938
1560	0.907	0.595	0.955	1.0	0.991	0.938
1561	0.907	0.579	0.955	1.0	0.989	0.939
1562	0.907	0.572	0.955	1.0	0.988	0.94
1563	0.907	0.565	0.954	1.0	0.983	0.94
1564	0.907	0.571	0.954	1.0	0.985	0.941
1565	0.907	0.584	0.954	1.0	0.99	0.942
1566	0.907	0.605	0.954	1.0	0.988	0.942
1567	0.907	0.606	0.954	1.0	0.982	0.943
1568	0.907	0.606	0.954	1.0	0.99	0.943
1569	0.907	0.604	0.954	1.0	0.995	0.944
1570	0.907	0.611	0.954	1.0	0.992	0.944
1571	0.907	0.627	0.954	1.0	0.986	0.945
1572	0.907	0.64	0.954	1.0	0.979	0.945
1573	0.907	0.647	0.954	1.0	0.99	0.945
1574	0.907	0.649	0.954	1.0	0.993	0.946
1575	0.907	0.655	0.955	1.0	0.986	0.946
1576	0.907	0.663	0.955	1.0	0.989	0.946
1577	0.907	0.672	0.955	1.0	0.995	0.946
1578	0.907	0.683	0.955	1.0	0.988	0.946
1579	0.907	0.693	0.955	1.0	0.985	0.946
1580	0.907	0.698	0.955	1.0	0.985	0.946
1581	0.907	0.702	0.955	1.0	0.993	0.946
1582	0.907	0.703	0.955	1.0	1.002	0.945
1583	0.907	0.706	0.956	1.0	1.0	0.945
1584	0.907	0.704	0.956	1.0	1.001	0.945
1585	0.907	0.701	0.956	1.0	1.004	0.945
1586	0.907	0.698	0.956	1.0	0.999	0.944
1587	0.907	0.695	0.956	1.0	0.992	0.942
1588	0.907	0.684	0.956	1.0	0.997	0.94
1589	0.907	0.666	0.957	1.0	0.999	0.937
1590	0.907	0.658	0.957	1.0	0.999	0.933
1591	0.907	0.654	0.958	1.0	0.986	0.929
1592	0.907	0.656	0.958	1.0	0.965	0.922
1593	0.907	0.659	0.958	1.0	0.963	0.914
1594	0.907	0.662	0.959	1.0	0.963	0.905
1595	0.907	0.657	0.959	1.0	0.964	0.894
1596	0.907	0.649	0.96	1.0	0.96	0.882
1597	0.907	0.641	0.96	1.0	0.948	0.87
1598	0.907	0.648	0.96	1.0	0.913	0.859
1599	0.907	0.657	0.96	1.0	0.871	0.848
1600	0.907	0.652	0.96	1.0	0.891	0.839
1601	0.907	0.648	0.96	1.0	0.916	0.832
1602	0.907	0.648	0.96	1.0	0.945	0.825
1603	0.907	0.645	0.96	1.0	0.943	0.819
1604	0.907	0.646	0.96	1.0	0.938	0.814
1605	0.907	0.651	0.96	1.0	0.933	0.81
1606	0.907	0.657	0.96	1.0	0.933	0.806
1607	0.907	0.665	0.96	1.0	0.941	0.802
1608	0.907	0.665	0.961	1.0	0.961	0.799
1609	0.907	0.666	0.961	1.0	0.991	0.796
1610	0.907	0.667	0.961	1.0	0.961	0.793
1611	0.907	0.674	0.961	1.0	0.928	0.79
1612	0.907	0.676	0.961	1.0	0.891	0.786
1613	0.877	0.678	0.961	1.0	0.87	0.782
1614	0.819	0.682	0.962	1.0	0.851	0.778
1615	0.76	0.685	0.962	1.0	0.843	0.773
1616	0.701	0.69	0.962	1.0	0.837	0.769
1617	0.643	0.694	0.962	1.0	0.831	0.764
1618	0.584	0.697	0.962	1.0	0.824	0.76
1619	0.525	0.707	0.962	1.0	0.816	0.755
1620	0.467	0.722	0.962	1.0	0.808	0.751
1621	0.408	0.711	0.963	1.0	0.803	0.747
1622	0.349	0.684	0.963	1.0	0.805	0.744
1623	0.32	0.678	0.963	1.0	0.798	0.741
1624	0.32	0.674	0.963	1.0	0.78	0.739
1625	0.32	0.674	0.963	1.0	0.743	0.737
1626	0.32	0.668	0.963	1.0	0.745	0.734
1627	0.32	0.654	0.962	1.0	0.745	0.732
1628	0.32	0.634	0.962	1.0	0.743	0.73
1629	0.32	0.606	0.962	1.0	0.736	0.728
1630	0.32	0.596	0.962	1.0	0.732	0.727
1631	0.32	0.602	0.961	1.0	0.729	0.725
1632	0.32	0.624	0.96	1.0	0.722	0.724
1633	0.32	0.624	0.959	1.0	0.718	0.722
1634	0.32	0.621	0.958	1.0	0.728	0.721
1635	0.32	0.614	0.957	1.0	0.742	0.719
1636	0.32	0.613	0.956	1.0	0.716	0.717
1637	0.32	0.62	0.955	1.0	0.698	0.716
1638	0.32	0.628	0.953	1.0	0.688	0.714
1639	0.32	0.647	0.952	1.0	0.677	0.713
1640	0.32	0.65	0.951	1.0	0.667	0.711
1641	0.32	0.647	0.95	1.0	0.656	0.709
1642	0.32	0.636	0.948	1.0	0.641	0.707
1643	0.32	0.621	0.947	1.0	0.621	0.706
1644	0.32	0.6	0.945	1.0	0.588	0.704
1645	0.32	0.602	0.943	1.0	0.596	0.702
1646	0.32	0.603	0.941	1.0	0.605	0.7
1647	0.32	0.603	0.939	1.0	0.609	0.699
1648	0.32	0.609	0.937	1.0	0.61	0.697
1649	0.32	0.613	0.934	1.0	0.62	0.695
1650	0.32	0.607	0.931	1.0	0.618	0.693
1651	0.32	0.597	0.929	1.0	0.613	0.692
1652	0.32	0.603	0.926	1.0	0.615	0.69
1653	0.32	0.609	0.923	1.0	0.627	0.688
1654	0.32	0.612	0.92	1.0	0.651	0.687
1655	0.32	0.586	0.918	1.0	0.636	0.685
1656	0.32	0.586	0.916	1.0	0.62	0.683
1657	0.32	0.586	0.913	1.0	0.603	0.682
1658	0.32	0.585	0.911	1.0	0.591	0.68
1659	0.32	0.585	0.909	1.0	0.578	0.678
1660	0.32	0.594	0.907	1.0	0.575	0.676
1661	0.32	0.611	0.905	1.0	0.577	0.674
1662	0.32	0.611	0.904	1.0	0.581	0.672
1663	0.32	0.616	0.902	1.0	0.584	0.67
1664	0.32	0.635	0.899	1.0	0.573	0.667
1665	0.32	0.652	0.897	1.0	0.553	0.665
1666	0.32	0.631	0.894	1.0	0.545	0.662
1667	0.32	0.625	0.891	1.0	0.549	0.66
1668	0.32	0.634	0.888	1.0	0.55	0.657
1669	0.32	0.632	0.885	1.0	0.554	0.655
1670	0.32	0.629	0.882	1.0	0.557	0.652
1671	0.32	0.626	0.879	1.0	0.56	0.65
1672	0.32	0.617	0.876	1.0	0.559	0.647
1673	0.32	0.603	0.874	1.0	0.555	0.645
1674	0.32	0.576	0.872	1.0	0.562	0.643
1675	0.32	0.582	0.871	1.0	0.576	0.641
1676	0.32	0.596	0.869	1.0	0.577	0.64
1677	0.32	0.591	0.867	1.0	0.576	0.638
1678	0.32	0.58	0.866	1.0	0.58	0.636
1679	0.32	0.585	0.864	1.0	0.58	0.634
1680	0.32	0.578	0.862	1.0	0.578	0.632
1681	0.32	0.573	0.86	1.0	0.581	0.63
1682	0.32	0.578	0.858	1.0	0.591	0.628
1683	0.32	0.591	0.855	1.0	0.593	0.626
1684	0.32	0.609	0.853	1.0	0.598	0.624
1685	0.32	0.599	0.85	1.0	0.609	0.621
1686	0.32	0.584	0.848	1.0	0.622	0.619
1687	0.32	0.565	0.845	1.0	0.626	0.617
1688	0.32	0.574	0.841	1.0	0.617	0.614
1689	0.32	0.573	0.837	1.0	0.61	0.612
1690	0.32	0.582	0.834	1.0	0.607	0.609
1691	0.32	0.587	0.831	1.0	0.597	0.606
1692	0.32	0.591	0.828	1.0	0.582	0.604
1693	0.32	0.598	0.825	1.0	0.576	0.601
1694	0.32	0.592	0.822	1.0	0.57	0.598
1695	0.32	0.579	0.819	1.0	0.564	0.596
1696	0.32	0.582	0.816	1.0	0.55	0.594
1697	0.32	0.601	0.814	1.0	0.528	0.592
1698	0.32	0.586	0.813	1.0	0.503	0.591
1699	0.32	0.577	0.812	1.0	0.497	0.59
1700	0.32	0.571	0.811	1.0	0.511	0.589
1701	0.32	0.567	0.811	1.0	0.524	0.589
1702	0.32	0.561	0.81	1.0	0.538	0.589
1703	0.32	0.552	0.808	1.0	0.551	0.589
1704	0.32	0.554	0.805	1.0	0.558	0.589
1705	0.32	0.567	0.803	1.0	0.56	0.59
1706	0.32	0.567	0.8	1.0	0.569	0.59
1707	0.32	0.565	0.797	1.0	0.586	0.59
1708	0.32	0.566	0.793	1.0	0.609	0.59
1709	0.32	0.565	0.79	1.0	0.615	0.589
1710	0.32	0.564	0.787	1.0	0.601	0.588
1711	0.32	0.563	0.784	1.0	0.588	0.587
1712	0.32	0.565	0.781	1.0	0.574	0.586
1713	0.32	0.566	0.779	1.0	0.559	0.585
1714	0.32	0.572	0.776	1.0	0.555	0.584
1715	0.32	0.587	0.774	1.0	0.554	0.582
1716	0.32	0.605	0.773	1.0	0.553	0.58
1717	0.32	0.616	0.772	1.0	0.554	0.578
1718	0.32	0.622	0.771	1.0	0.559	0.576
1719	0.32	0.626	0.77	1.0	0.562	0.574
1720	0.32	0.629	0.768	1.0	0.558	0.572
1721	0.32	0.632	0.767	1.0	0.554	0.57
1722	0.32	0.635	0.767	1.0	0.551	0.567
1723	0.32	0.644	0.766	1.0	0.546	0.566
1724	0.32	0.635	0.766	1.0	0.532	0.564
1725	0.32	0.609	0.766	1.0	0.532	0.562
1726	0.32	0.584	0.766	1.0	0.532	0.561
1727	0.32	0.559	0.765	1.0	0.53	0.56
1728	0.32	0.533	0.765	1.0	0.526	0.559
1729	0.32	0.521	0.764	1.0	0.522	0.559
1730	0.32	0.522	0.764	1.0	0.521	0.558
1731	0.32	0.526	0.763	1.0	0.52	0.558
1732	0.32	0.524	0.763	1.0	0.518	0.558
1733	0.32	0.517	0.762	1.0	0.517	0.558
1734	0.32	0.518	0.762	1.0	0.526	0.558
1735	0.32	0.527	0.761	1.0	0.522	0.558
1736	0.32	0.546	0.761	1.0	0.518	0.559
1737	0.32	0.577	0.761	1.0	0.519	0.559
1738	0.32	0.603	0.76	1.0	0.52	0.559
1739	0.32	0.615	0.759	1.0	0.518	0.559
1740	0.32	0.613	0.758	1.0	0.516	0.56
1741	0.32	0.615	0.757	1.0	0.517	0.56
1742	0.32	0.618	0.756	1.0	0.52	0.56
1743	0.32	0.623	0.754	1.0	0.527	0.559
1744	0.32	0.638	0.753	1.0	0.527	0.559
1745	0.32	0.659	0.752	1.0	0.527	0.559
1746	0.32	0.672	0.751	1.0	0.515	0.558
1747	0.32	0.672	0.749	1.0	0.491	0.557
1748	0.32	0.679	0.749	1.0	0.478	0.557
1749	0.32	0.69	0.748	1.0	0.478	0.556
1750	0.32	0.695	0.747	1.0	0.492	0.556
1751	0.32	0.697	0.746	1.0	0.499	0.556
1752	0.32	0.704	0.746	1.0	0.499	0.556
1753	0.32	0.704	0.745	1.0	0.497	0.556
1754	0.32	0.692	0.744	1.0	0.49	0.557
1755	0.32	0.697	0.743	1.0	0.477	0.557
1756	0.32	0.7	0.742	1.0	0.485	0.558
1757	0.32	0.704	0.741	1.0	0.505	0.558
1758	0.32	0.705	0.74	1.0	0.514	0.558
1759	0.32	0.691	0.739	1.0	0.516	0.557
1760	0.32	0.687	0.739	1.0	0.512	0.557
1761	0.32	0.684	0.738	1.0	0.503	0.556
1762	0.32	0.677	0.737	1.0	0.516	0.555
1763	0.32	0.675	0.736	1.0	0.524	0.553
1764	0.32	0.682	0.735	1.0	0.533	0.551
1765	0.32	0.673	0.735	1.0	0.55	0.55
1766	0.32	0.666	0.734	1.0	0.549	0.548
1767	0.32	0.662	0.734	1.0	0.541	0.546
1768	0.32	0.659	0.733	1.0	0.525	0.545
1769	0.32	0.667	0.732	1.0	0.518	0.543
1770	0.32	0.673	0.731	1.0	0.52	0.542
1771	0.32	0.672	0.73	1.0	0.534	0.542
1772	0.32	0.669	0.729	1.0	0.531	0.541
1773	0.32	0.671	0.728	1.0	0.529	0.541
1774	0.32	0.673	0.727	1.0	0.533	0.54
1775	0.32	0.675	0.726	1.0	0.534	0.541
1776	0.32	0.666	0.725	1.0	0.536	0.541
1777	0.32	0.647	0.723	1.0	0.546	0.541
1778	0.32	0.623	0.722	1.0	0.566	0.542
1779	0.32	0.592	0.722	1.0	0.575	0.542
1780	0.32	0.554	0.722	1.0	0.568	0.542
1781	0.32	0.534	0.722	1.0	0.56	0.542
1782	0.32	0.53	0.722	1.0	0.542	0.542
1783	0.32	0.539	0.722	1.0	0.519	0.542
1784	0.32	0.548	0.722	1.0	0.502	0.541
1785	0.32	0.559	0.723	1.0	0.481	0.541
1786	0.32	0.562	0.723	1.0	0.464	0.541
1787	0.32	0.572	0.724	1.0	0.449	0.54
1788	0.32	0.587	0.725	1.0	0.437	0.54
1789	0.32	0.607	0.725	1.0	0.443	0.539
1790	0.32	0.633	0.725	1.0	0.453	0.539
1791	0.32	0.669	0.725	1.0	0.469	0.538
1792	0.32	0.686	0.725	1.0	0.48	0.538
1793	0.32	0.684	0.724	1.0	0.499	0.537
1794	0.32	0.676	0.723	1.0	0.511	0.536
1795	0.32	0.666	0.722	1.0	0.517	0.536
1796	0.32	0.66	0.721	1.0	0.535	0.535
1797	0.32	0.647	0.72	1.0	0.555	0.533
1798	0.32	0.624	0.719	1.0	0.567	0.532
1799	0.32	0.616	0.717	1.0	0.556	0.53
1800	0.32	0.621	0.716	1.0	0.542	0.529
1801	0.32	0.601	0.715	1.0	0.521	0.527
1802	0.32	0.585	0.715	1.0	0.512	0.525
1803	0.32	0.575	0.715	1.0	0.506	0.523
1804	0.32	0.572	0.716	1.0	0.494	0.522
1805	0.32	0.57	0.716	1.0	0.483	0.52
1806	0.32	0.578	0.717	1.0	0.458	0.519
1807	0.32	0.597	0.718	1.0	0.444	0.519
1808	0.32	0.624	0.719	1.0	0.453	0.519
1809	0.32	0.652	0.72	1.0	0.466	0.519
1810	0.32	0.661	0.721	1.0	0.482	0.52
1811	0.32	0.667	0.721	1.0	0.494	0.521
1812	0.32	0.671	0.722	1.0	0.505	0.523
1813	0.32	0.671	0.722	1.0	0.514	0.524
1814	0.32	0.664	0.721	1.0	0.535	0.526
1815	0.32	0.659	0.72	1.0	0.567	0.528
1816	0.32	0.657	0.719	1.0	0.595	0.53
1817	0.32	0.654	0.717	1.0	0.602	0.532
1818	0.32	0.651	0.715	1.0	0.587	0.533
1819	0.32	0.641	0.712	1.0	0.567	0.535
1820	0.32	0.634	0.709	1.0	0.544	0.536
1821	0.32	0.63	0.705	1.0	0.534	0.537
1822	0.32	0.628	0.7	1.0	0.53	0.539
1823	0.32	0.633	0.696	1.0	0.529	0.54
1824	0.32	0.645	0.692	1.0	0.523	0.541
1825	0.32	0.652	0.69	1.0	0.512	0.542
1826	0.32	0.657	0.687	1.0	0.507	0.543
1827	0.32	0.666	0.685	1.0	0.504	0.544
1828	0.32	0.674	0.684	1.0	0.501	0.546
1829	0.32	0.675	0.684	1.0	0.511	0.548
1830	0.32	0.676	0.685	1.0	0.518	0.55
1831	0.32	0.679	0.687	1.0	0.517	0.553
1832	0.32	0.683	0.689	1.0	0.514	0.556
1833	0.32	0.682	0.691	1.0	0.514	0.561
1834	0.32	0.668	0.693	1.0	0.517	0.566
1835	0.32	0.644	0.695	1.0	0.517	0.572
1836	0.32	0.608	0.697	1.0	0.519	0.579
1837	0.32	0.582	0.7	1.0	0.525	0.587
1838	0.32	0.57	0.703	1.0	0.537	0.596
1839	0.32	0.565	0.705	1.0	0.542	0.605
1840	0.32	0.566	0.708	1.0	0.555	0.615
1841	0.32	0.556	0.711	1.0	0.575	0.625
1842	0.32	0.551	0.714	1.0	0.588	0.635
1843	0.32	0.551	0.718	1.0	0.594	0.645
1844	0.32	0.557	0.721	1.0	0.595	0.655
1845	0.32	0.571	0.724	1.0	0.605	0.666
1846	0.32	0.598	0.726	1.0	0.623	0.676
1847	0.32	0.614	0.727	1.0	0.645	0.686
1848	0.32	0.617	0.727	1.0	0.664	0.695
1849	0.32	0.615	0.728	1.0	0.677	0.704
1850	0.32	0.606	0.728	1.0	0.683	0.712
1851	0.32	0.609	0.727	1.0	0.684	0.72
1852	0.32	0.611	0.726	1.0	0.689	0.726
1853	0.361	0.606	0.723	1.0	0.699	0.732
1854	0.401	0.61	0.72	1.0	0.712	0.737
1855	0.442	0.624	0.718	1.0	0.722	0.741
1856	0.483	0.634	0.715	1.0	0.728	0.744
1857	0.523	0.642	0.713	1.0	0.724	0.747
1858	0.564	0.647	0.711	1.0	0.721	0.749
1859	0.605	0.649	0.71	1.0	0.72	0.751
1860	0.645	0.653	0.708	1.0	0.727	0.753
1861	0.686	0.656	0.707	1.0	0.732	0.756
1862	0.727	0.656	0.706	1.0	0.731	0.758
1863	0.727	0.658	0.707	1.0	0.734	0.76
1864	0.727	0.649	0.709	1.0	0.728	0.762
1865	0.727	0.638	0.711	1.0	0.711	0.765
1866	0.727	0.629	0.713	1.0	0.684	0.767
1867	0.727	0.641	0.716	1.0	0.683	0.77
1868	0.727	0.647	0.719	1.0	0.704	0.774
1869	0.727	0.648	0.722	1.0	0.73	0.777
1870	0.727	0.645	0.725	1.0	0.744	0.78
1871	0.727	0.636	0.729	1.0	0.756	0.784
1872	0.727	0.622	0.733	1.0	0.774	0.787
1873	0.727	0.602	0.737	1.0	0.789	0.791
1874	0.727	0.579	0.74	1.0	0.808	0.794
1875	0.727	0.596	0.743	1.0	0.829	0.797
1876	0.727	0.606	0.746	1.0	0.851	0.8
1877	0.727	0.596	0.749	1.0	0.857	0.803
1878	0.727	0.591	0.752	1.0	0.847	0.805
1879	0.727	0.597	0.756	1.0	0.832	0.807
1880	0.727	0.607	0.759	1.0	0.821	0.809
1881	0.727	0.619	0.762	1.0	0.814	0.811
1882	0.727	0.638	0.766	1.0	0.807	0.813
1883	0.727	0.663	0.769	1.0	0.798	0.814
1884	0.727	0.697	0.773	1.0	0.792	0.815
1885	0.727	0.692	0.777	1.0	0.795	0.816
1886	0.727	0.692	0.781	1.0	0.807	0.817
1887	0.727	0.694	0.786	1.0	0.813	0.818
1888	0.727	0.697	0.791	1.0	0.815	0.818
1889	0.727	0.697	0.796	1.0	0.811	0.819
1890	0.727	0.697	0.801	1.0	0.809	0.82
1891	0.727	0.696	0.806	1.0	0.809	0.82
1892	0.727	0.693	0.81	1.0	0.809	0.821
1893	0.727	0.693	0.814	1.0	0.809	0.822
1894	0.727	0.682	0.818	1.0	0.81	0.822
1895	0.727	0.659	0.822	1.0	0.809	0.823
1896	0.727	0.624	0.826	1.0	0.808	0.824
1897	0.727	0.603	0.83	1.0	0.806	0.825
1898	0.727	0.593	0.833	1.0	0.803	0.826
1899	0.727	0.588	0.836	1.0	0.804	0.827
1900	0.727	0.578	0.839	1.0	0.802	0.828
1901	0.727	0.569	0.841	1.0	0.805	0.829
1902	0.727	0.566	0.844	1.0	0.81	0.83
1903	0.727	0.564	0.846	1.0	0.816	0.83
1904	0.727	0.574	0.848	1.0	0.818	0.831
1905	0.727	0.587	0.85	1.0	0.819	0.832
1906	0.727	0.604	0.852	1.0	0.82	0.832
1907	0.727	0.616	0.854	1.0	0.823	0.832
1908	0.727	0.621	0.855	1.0	0.824	0.832
1909	0.727	0.621	0.857	1.0	0.826	0.832
1910	0.727	0.624	0.858	1.0	0.829	0.832
1911	0.727	0.631	0.859	1.0	0.83	0.833
1912	0.727	0.631	0.86	1.0	0.828	0.833
1913	0.727	0.628	0.861	1.0	0.82	0.833
1914	0.727	0.622	0.861	1.0	0.815	0.833
1915	0.727	0.618	0.862	1.0	0.813	0.833
1916	0.727	0.615	0.863	1.0	0.81	0.833
1917	0.727	0.614	0.864	1.0	0.811	0.833
1918	0.727	0.616	0.865	1.0	0.813	0.833
1919	0.727	0.621	0.866	1.0	0.814	0.834
1920	0.727	0.622	0.866	1.0	0.817	0.834
1921	0.727	0.621	0.867	1.0	0.818	0.834
1922	0.727	0.624	0.867	1.0	0.818	0.834
1923	0.727	0.62	0.868	1.0	0.82	0.834
1924	0.727	0.609	0.868	1.0	0.818	0.834
1925	0.727	0.595	0.868	1.0	0.825	0.835
1926	0.727	0.607	0.868	1.0	0.83	0.835
1927	0.727	0.614	0.869	1.0	0.827	0.835
1928	0.727	0.616	0.869	1.0	0.824	0.835
1929	0.727	0.605	0.87	1.0	0.826	0.835
1930	0.727	0.587	0.87	1.0	0.83	0.835
1931	0.727	0.582	0.87	1.0	0.831	0.836
1932	0.727	0.585	0.87	1.0	0.83	0.836
1933	0.727	0.595	0.871	1.0	0.831	0.836
1934	0.727	0.603	0.871	1.0	0.838	0.837
1935	0.727	0.612	0.872	1.0	0.834	0.837
1936	0.727	0.609	0.872	1.0	0.83	0.838
1937	0.727	0.611	0.872	1.0	0.833	0.838
1938	0.727	0.601	0.872	1.0	0.837	0.839
1939	0.727	0.604	0.872	1.0	0.838	0.839
1940	0.727	0.622	0.872	1.0	0.829	0.84
1941	0.727	0.626	0.873	1.0	0.824	0.841
1942	0.727	0.617	0.874	1.0	0.821	0.841
1943	0.727	0.609	0.874	1.0	0.821	0.842
1944	0.727	0.601	0.875	1.0	0.818	0.843
1945	0.727	0.594	0.876	1.0	0.823	0.844
1946	0.727	0.572	0.877	1.0	0.827	0.845
1947	0.727	0.573	0.878	1.0	0.822	0.845
1948	0.727	0.585	0.879	1.0	0.819	0.846
1949	0.727	0.594	0.879	1.0	0.82	0.847
1950	0.727	0.597	0.88	1.0	0.815	0.847
1951	0.727	0.602	0.88	1.0	0.799	0.848
1952	0.727	0.607	0.88	1.0	0.771	0.848
1953	0.727	0.614	0.88	1.0	0.764	0.849
1954	0.727	0.628	0.88	1.0	0.777	0.849
1955	0.727	0.653	0.88	1.0	0.791	0.849
1956	0.727	0.684	0.88	1.0	0.805	0.849
1957	0.727	0.681	0.88	1.0	0.819	0.849
1958	0.727	0.678	0.881	1.0	0.829	0.849
1959	0.727	0.676	0.881	1.0	0.834	0.848
1960	0.727	0.678	0.882	1.0	0.849	0.848
1961	0.727	0.679	0.882	1.0	0.873	0.847
1962	0.727	0.684	0.882	1.0	0.909	0.847
1963	0.727	0.689	0.882	1.0	0.923	0.846
1964	0.727	0.689	0.882	1.0	0.914	0.845
1965	0.727	0.686	0.882	1.0	0.898	0.844
1966	0.727	0.688	0.882	1.0	0.883	0.843
1967	0.727	0.691	0.882	1.0	0.872	0.843
1968	0.727	0.693	0.882	1.0	0.865	0.842
1969	0.727	0.691	0.882	1.0	0.856	0.841
1970	0.727	0.686	0.883	1.0	0.85	0.841
1971	0.727	0.673	0.884	1.0	0.845	0.84
1972	0.727	0.65	0.884	1.0	0.841	0.84
1973	0.727	0.636	0.885	1.0	0.839	0.84
1974	0.727	0.638	0.885	1.0	0.838	0.84
1975	0.727	0.637	0.886	1.0	0.833	0.839
1976	0.727	0.632	0.887	1.0	0.823	0.839
1977	0.727	0.625	0.888	1.0	0.826	0.84
1978	0.727	0.619	0.889	1.0	0.825	0.84
1979	0.727	0.614	0.89	1.0	0.826	0.84
1980	0.727	0.6	0.891	1.0	0.825	0.84
1981	0.727	0.585	0.891	1.0	0.827	0.84
1982	0.727	0.57	0.892	1.0	0.83	0.841
1983	0.727	0.559	0.892	1.0	0.833	0.842
1984	0.727	0.554	0.893	1.0	0.835	0.842
1985	0.727	0.551	0.894	1.0	0.846	0.843
1986	0.727	0.541	0.894	1.0	0.865	0.843
1987	0.727	0.526	0.895	1.0	0.866	0.843
1988	0.727	0.52	0.895	1.0	0.868	0.843
1989	0.727	0.523	0.895	1.0	0.873	0.843
1990	0.727	0.539	0.895	1.0	0.875	0.843
1991	0.727	0.566	0.895	1.0	0.873	0.843
1992	0.727	0.601	0.895	1.0	0.866	0.842
1993	0.727	0.621	0.895	1.0	0.86	0.842
1994	0.727	0.626	0.894	1.0	0.855	0.841
1995	0.727	0.617	0.894	1.0	0.848	0.841
1996	0.727	0.604	0.893	1.0	0.84	0.84
1997	0.727	0.611	0.892	1.0	0.834	0.84
1998	0.727	0.622	0.891	1.0	0.828	0.84
1999	0.727	0.625	0.89	1.0	0.821	0.84
2000	0.727	0.625	0.89	1.0	0.815	0.84
2001	0.727	0.622	0.89	1.0	0.82	0.84
2002	0.727	0.62	0.89	1.0	0.826	0.84
2003	0.727	0.616	0.89	1.0	0.828	0.84
2004	0.727	0.609	0.89	1.0	0.824	0.84
2005	0.727	0.612	0.89	1.0	0.818	0.841
2006	0.727	0.626	0.89	1.0	0.809	0.841
2007	0.727	0.634	0.89	1.0	0.793	0.841
2008	0.727	0.622	0.89	1.0	0.77	0.842
2009	0.727	0.6	0.89	1.0	0.795	0.842
2010	0.727	0.571	0.89	1.0	0.814	0.843
2011	0.727	0.547	0.89	1.0	0.817	0.843
2012	0.727	0.53	0.89	1.0	0.821	0.844
2013	0.727	0.523	0.89	1.0	0.828	0.844
2014	0.727	0.527	0.89	1.0	0.834	0.845
2015	0.727	0.535	0.89	1.0	0.837	0.845
2016	0.727	0.549	0.89	1.0	0.844	0.846
2017	0.727	0.553	0.89	1.0	0.86	0.846
2018	0.727	0.564	0.891	1.0	0.889	0.847
2019	0.727	0.583	0.891	1.0	0.871	0.847
2020	0.727	0.612	0.891	1.0	0.863	0.847
2021	0.727	0.633	0.891	1.0	0.862	0.847
2022	0.727	0.645	0.891	1.0	0.858	0.847
2023	0.727	0.647	0.891	1.0	0.852	0.847
2024	0.727	0.641	0.89	1.0	0.851	0.847
2025	0.727	0.641	0.891	1.0	0.854	0.847
2026	0.727	0.636	0.891	1.0	0.858	0.847
2027	0.727	0.634	0.891	1.0	0.862	0.847
2028	0.727	0.625	0.891	1.0	0.855	0.847
2029	0.727	0.608	0.892	1.0	0.848	0.847
2030	0.727	0.58	0.893	1.0	0.839	0.847
2031	0.727	0.586	0.893	1.0	0.832	0.847
2032	0.727	0.597	0.894	1.0	0.828	0.847
2033	0.727	0.61	0.895	1.0	0.824	0.847
2034	0.727	0.624	0.896	1.0	0.819	0.847
2035	0.727	0.625	0.896	1.0	0.818	0.847
2036	0.727	0.624	0.897	1.0	0.815	0.847
2037	0.727	0.614	0.897	1.0	0.809	0.846
2038	0.727	0.602	0.897	1.0	0.809	0.846
2039	0.727	0.619	0.898	1.0	0.808	0.846
2040	0.727	0.642	0.899	1.0	0.806	0.846
2041	0.727	0.634	0.899	1.0	0.805	0.846
2042	0.727	0.627	0.9	1.0	0.805	0.846
2043	0.727	0.622	0.9	1.0	0.81	0.846
2044	0.727	0.611	0.9	1.0	0.811	0.846
2045	0.727	0.598	0.901	1.0	0.814	0.846
2046	0.727	0.588	0.901	1.0	0.82	0.846
2047	0.727	0.588	0.902	1.0	0.824	0.846
2048	0.727	0.598	0.902	1.0	0.825	0.847
2049	0.727	0.594	0.902	1.0	0.828	0.847
2050	0.727	0.598	0.902	1.0	0.83	0.847
2051	0.727	0.607	0.902	1.0	0.829	0.846
2052	0.727	0.608	0.902	1.0	0.824	0.846
2053	0.727	0.601	0.902	1.0	0.821	0.846
2054	0.727	0.595	0.902	1.0	0.826	0.846
2055	0.727	0.59	0.902	1.0	0.829	0.847
2056	0.727	0.594	0.902	1.0	0.827	0.847
2057	0.727	0.608	0.902	1.0	0.826	0.847
2058	0.727	0.618	0.902	1.0	0.826	0.847
2059	0.727	0.618	0.902	1.0	0.825	0.847
2060	0.727	0.608	0.902	1.0	0.826	0.847
2061	0.727	0.601	0.902	1.0	0.828	0.847
2062	0.727	0.604	0.902	1.0	0.831	0.847
2063	0.727	0.603	0.902	1.0	0.83	0.847
2064	0.727	0.595	0.902	1.0	0.834	0.847
2065	0.727	0.614	0.902	1.0	0.832	0.847
2066	0.727	0.621	0.902	1.0	0.826	0.848
2067	0.727	0.616	0.902	1.0	0.827	0.848
2068	0.727	0.606	0.902	1.0	0.829	0.849
2069	0.727	0.594	0.903	1.0	0.829	0.85
2070	0.727	0.578	0.903	1.0	0.828	0.852
2071	0.727	0.582	0.903	1.0	0.836	0.854
2072	0.727	0.582	0.903	1.0	0.839	0.857
2073	0.727	0.594	0.903	1.0	0.837	0.86
2074	0.727	0.609	0.903	1.0	0.838	0.863
2075	0.727	0.604	0.903	1.0	0.838	0.866
2076	0.727	0.603	0.903	1.0	0.839	0.87
2077	0.727	0.605	0.903	1.0	0.845	0.874
2078	0.727	0.614	0.903	1.0	0.85	0.878
2079	0.727	0.624	0.903	1.0	0.852	0.882
2080	0.727	0.638	0.902	1.0	0.858	0.886
2081	0.727	0.624	0.902	1.0	0.857	0.891
2082	0.727	0.605	0.901	1.0	0.861	0.895
2083	0.727	0.598	0.901	1.0	0.869	0.899
2084	0.727	0.602	0.901	1.0	0.867	0.903
2085	0.727	0.607	0.901	1.0	0.864	0.907
2086	0.727	0.61	0.901	1.0	0.868	0.911
2087	0.727	0.61	0.901	1.0	0.867	0.915
2088	0.727	0.607	0.901	1.0	0.868	0.918
2089	0.727	0.608	0.901	1.0	0.87	0.921
2090	0.727	0.609	0.902	1.0	0.867	0.924
2091	0.727	0.625	0.902	1.0	0.869	0.927
2092	0.736	0.643	0.903	1.0	0.868	0.929
2093	0.754	0.647	0.903	1.0	0.865	0.931
2094	0.772	0.648	0.904	1.0	0.859	0.933
2095	0.79	0.646	0.904	1.0	0.869	0.935
2096	0.808	0.642	0.905	1.0	0.874	0.936
2097	0.826	0.646	0.905	1.0	0.875	0.937
2098	0.844	0.646	0.906	1.0	0.881	0.938
2099	0.862	0.641	0.907	1.0	0.892	0.939
2100	0.88	0.633	0.908	1.0	0.901	0.939
2101	0.898	0.634	0.909	1.0	0.901	0.939
2102	0.907	0.637	0.909	1.0	0.9	0.939
2103	0.907	0.641	0.91	1.0	0.9	0.939
2104	0.907	0.644	0.91	1.0	0.911	0.938
2105	0.907	0.643	0.911	1.0	0.911	0.938
2106	0.907	0.638	0.911	1.0	0.911	0.938
2107	0.907	0.638	0.912	1.0	0.914	0.937
2108	0.907	0.636	0.912	1.0	0.909	0.937
2109	0.907	0.633	0.913	1.0	0.901	0.936
2110	0.907	0.647	0.913	1.0	0.888	0.936
2111	0.907	0.653	0.913	1.0	0.884	0.936
2112	0.907	0.658	0.913	1.0	0.887	0.935
2113	0.907	0.659	0.913	1.0	0.9	0.935
2114	0.907	0.656	0.913	1.0	0.899	0.934
2115	0.907	0.659	0.914	1.0	0.897	0.934
2116	0.907	0.669	0.914	1.0	0.897	0.934
2117	0.907	0.671	0.915	1.0	0.894	0.933
2118	0.907	0.678	0.915	1.0	0.892	0.933
2119	0.907	0.692	0.915	1.0	0.893	0.933
2120	0.907	0.695	0.915	1.0	0.906	0.933
2121	0.907	0.691	0.916	1.0	0.89	0.933
2122	0.907	0.678	0.916	1.0	0.848	0.933
2123	0.907	0.657	0.917	1.0	0.835	0.933
2124	0.907	0.629	0.918	1.0	0.862	0.933
2125	0.907	0.631	0.919	1.0	0.886	0.933
2126	0.907	0.631	0.919	1.0	0.898	0.934
2127	0.907	0.629	0.92	1.0	0.898	0.934
2128	0.907	0.636	0.92	1.0	0.911	0.934
2129	0.907	0.642	0.92	1.0	0.916	0.934
2130	0.907	0.647	0.921	1.0	0.912	0.934
2131	0.907	0.643	0.921	1.0	0.933	0.934
2132	0.907	0.649	0.922	1.0	0.978	0.933
2133	0.907	0.665	0.922	1.0	0.991	0.933
2134	0.907	0.692	0.922	1.0	0.968	0.933
2135	0.907	0.691	0.923	1.0	0.953	0.932
2136	0.907	0.694	0.923	1.0	0.945	0.932
2137	0.907	0.696	0.924	1.0	0.949	0.931
2138	0.907	0.689	0.924	1.0	0.943	0.931
2139	0.907	0.68	0.925	1.0	0.94	0.93
2140	0.907	0.674	0.925	1.0	0.94	0.93
2141	0.907	0.67	0.926	1.0	0.944	0.93
2142	0.907	0.666	0.927	1.0	0.945	0.93
2143	0.907	0.671	0.928	1.0	0.942	0.929
2144	0.907	0.67	0.928	1.0	0.94	0.929
2145	0.907	0.662	0.928	1.0	0.938	0.929
2146	0.907	0.653	0.929	1.0	0.943	0.929
2147	0.907	0.646	0.929	1.0	0.934	0.929
2148	0.907	0.644	0.93	1.0	0.934	0.929
2149	0.907	0.643	0.93	1.0	0.946	0.929
2150	0.907	0.64	0.931	1.0	0.953	0.93
2151	0.907	0.628	0.931	1.0	0.952	0.93
2152	0.907	0.609	0.932	1.0	0.952	0.93
2153	0.907	0.598	0.932	1.0	0.95	0.93
2154	0.907	0.608	0.933	1.0	0.946	0.931
2155	0.907	0.616	0.933	1.0	0.94	0.931
2156	0.907	0.622	0.933	1.0	0.932	0.932
2157	0.907	0.626	0.933	1.0	0.939	0.932
2158	0.907	0.629	0.933	1.0	0.948	0.933
2159	0.907	0.627	0.934	1.0	0.945	0.933
2160	0.907	0.618	0.934	1.0	0.948	0.933
2161	0.907	0.628	0.934	1.0	0.947	0.934
2162	0.907	0.655	0.934	1.0	0.947	0.934
2163	0.907	0.668	0.935	1.0	0.948	0.934
2164	0.907	0.664	0.935	1.0	0.949	0.935
2165	0.907	0.664	0.936	1.0	0.948	0.935
2166	0.907	0.657	0.936	1.0	0.95	0.935
2167	0.907	0.65	0.936	1.0	0.955	0.935
2168	0.907	0.64	0.937	1.0	0.943	0.936
2169	0.907	0.641	0.938	1.0	0.941	0.936
2170	0.907	0.655	0.938	1.0	0.947	0.937
2171	0.907	0.665	0.938	1.0	0.949	0.937
2172	0.907	0.663	0.939	1.0	0.954	0.937
2173	0.907	0.658	0.939	1.0	0.963	0.938
2174	0.907	0.655	0.94	1.0	0.97	0.938
2175	0.907	0.652	0.941	1.0	0.978	0.938
2176	0.907	0.655	0.942	1.0	0.982	0.938
2177	0.907	0.652	0.943	1.0	0.977	0.938
2178	0.907	0.655	0.943	1.0	0.981	0.939
2179	0.907	0.66	0.944	1.0	0.983	0.939
2180	0.907	0.666	0.944	1.0	0.974	0.939
2181	0.907	0.665	0.945	1.0	0.977	0.939
2182	0.907	0.665	0.946	1.0	0.976	0.939
2183	0.907	0.666	0.946	1.0	0.969	0.939
2184	0.907	0.664	0.946	1.0	0.967	0.939
2185	0.907	0.652	0.947	1.0	0.961	0.94
2186	0.907	0.649	0.947	1.0	0.951	0.94
2187	0.907	0.663	0.948	1.0	0.95	0.94
2188	0.907	0.672	0.948	1.0	0.949	0.94
2189	0.907	0.675	0.949	1.0	0.949	0.941
2190	0.907	0.675	0.949	1.0	0.945	0.941
2191	0.907	0.672	0.95	1.0	0.943	0.941
2192	0.907	0.672	0.95	1.0	0.948	0.942
2193	0.907	0.672	0.951	1.0	0.946	0.942
2194	0.907	0.662	0.951	1.0	0.946	0.942
2195	0.907	0.652	0.951	1.0	0.949	0.943
2196	0.907	0.642	0.951	1.0	0.951	0.943
2197	0.907	0.634	0.951	1.0	0.945	0.944
2198	0.907	0.627	0.951	1.0	0.945	0.945
2199	0.907	0.624	0.951	1.0	0.943	0.945
2200	0.907	0.626	0.951	1.0	0.95	0.946
2201	0.907	0.631	0.951	1.0	0.949	0.946
2202	0.907	0.635	0.951	1.0	0.942	0.947
2203	0.907	0.639	0.952	1.0	0.942	0.947
2204	0.907	0.653	0.952	1.0	0.934	0.948
2205	0.907	0.678	0.952	1.0	0.931	0.948
2206	0.907	0.696	0.953	1.0	0.936	0.948
2207	0.907	0.706	0.953	1.0	0.949	0.948
2208	0.907	0.716	0.953	1.0	0.95	0.948
2209	0.907	0.722	0.953	1.0	0.946	0.948
2210	0.907	0.722	0.954	1.0	0.951	0.948
2211	0.907	0.72	0.954	1.0	0.954	0.948
2212	0.907	0.719	0.955	1.0	0.953	0.948
2213	0.907	0.719	0.955	1.0	0.952	0.948
2214	0.907	0.717	0.955	1.0	0.959	0.948
2215	0.907	0.716	0.956	1.0	0.962	0.947
2216	0.907	0.714	0.956	1.0	0.963	0.947
2217	0.907	0.707	0.957	1.0	0.965	0.947
2218	0.907	0.703	0.957	1.0	0.966	0.947
2219	0.907	0.703	0.958	1.0	0.968	0.947
2220	0.907	0.7	0.958	1.0	0.957	0.947
2221	0.907	0.699	0.959	1.0	0.95	0.947
2222	0.907	0.698	0.959	1.0	0.946	0.947
2223	0.907	0.693	0.959	1.0	0.958	0.947
2224	0.907	0.69	0.959	1.0	0.964	0.947
2225	0.907	0.684	0.959	1.0	0.965	0.947
2226	0.907	0.675	0.958	1.0	0.969	0.947
2227	0.907	0.665	0.958	1.0	0.966	0.947
2228	0.907	0.667	0.958	1.0	0.963	0.947
2229	0.907	0.665	0.958	1.0	0.969	0.947
2230	0.907	0.666	0.958	1.0	0.973	0.947
2231	0.907	0.669	0.957	1.0	0.978	0.947
2232	0.907	0.668	0.957	1.0	0.987	0.947
2233	0.907	0.668	0.957	1.0	0.979	0.947
2234	0.907	0.672	0.957	1.0	0.974	0.947
2235	0.907	0.671	0.957	1.0	0.979	0.947
2236	0.907	0.668	0.957	1.0	0.973	0.947
2237	0.907	0.682	0.957	1.0	0.967	0.947
2238	0.907	0.68	0.957	1.0	0.979	0.947
2239	0.907	0.681	0.957	1.0	0.98	0.947
2240	0.907	0.681	0.957	1.0	0.978	0.947
2241	0.907	0.677	0.958	1.0	0.976	0.947
2242	0.907	0.672	0.958	1.0	0.977	0.947
2243	0.907	0.676	0.958	1.0	0.978	0.947
2244	0.907	0.67	0.959	1.0	0.979	0.947
2245	0.907	0.662	0.959	1.0	0.97	0.947
2246	0.907	0.666	0.96	1.0	0.964	0.948
2247	0.907	0.665	0.96	1.0	0.97	0.948
2248	0.907	0.659	0.96	1.0	0.968	0.948
2249	0.907	0.653	0.96	1.0	0.962	0.949
2250	0.907	0.647	0.961	1.0	0.963	0.949
2251	0.907	0.64	0.962	1.0	0.971	0.95
2252	0.907	0.629	0.963	1.0	0.97	0.95
2253	0.907	0.626	0.963	1.0	0.976	0.95
2254	0.907	0.629	0.963	1.0	0.988	0.951
2255	0.907	0.64	0.963	1.0	0.994	0.951
2256	0.907	0.651	0.963	1.0	1.005	0.952
2257	0.907	0.657	0.964	1.0	1.007	0.952
2258	0.907	0.666	0.964	1.0	1.0	0.952
2259	0.907	0.671	0.964	1.0	1.0	0.952
2260	0.907	0.674	0.964	1.0	0.993	0.952
2261	0.907	0.681	0.964	1.0	0.985	0.952
2262	0.907	0.698	0.964	1.0	0.987	0.952
2263	0.907	0.702	0.964	1.0	0.98	0.952
2264	0.907	0.704	0.964	1.0	0.964	0.952
2265	0.907	0.713	0.964	1.0	0.963	0.952
2266	0.907	0.707	0.965	1.0	0.965	0.952
2267	0.907	0.692	0.966	1.0	0.969	0.952
2268	0.907	0.694	0.966	1.0	0.963	0.952
2269	0.907	0.697	0.966	1.0	0.963	0.952
2270	0.907	0.701	0.967	1.0	0.969	0.952
2271	0.907	0.704	0.968	1.0	0.969	0.953
2272	0.907	0.708	0.968	1.0	0.959	0.953
2273	0.907	0.709	0.969	1.0	0.96	0.953
2274	0.907	0.707	0.969	1.0	0.972	0.953
2275	0.907	0.691	0.97	1.0	0.972	0.953
2276	0.907	0.672	0.97	1.0	0.965	0.953
2277	0.907	0.675	0.97	1.0	0.97	0.953
2278	0.907	0.673	0.971	1.0	0.985	0.953
2279	0.907	0.668	0.971	1.0	0.996	0.954
2280	0.907	0.664	0.971	1.0	1.002	0.954
2281	0.907	0.66	0.971	1.0	1.01	0.954
2282	0.907	0.643	0.971	1.0	1.018	0.954
2283	0.907	0.634	0.971	1.0	1.027	0.954
2284	0.907	0.634	0.971	1.0	1.025	0.954
2285	0.907	0.647	0.971	1.0	1.024	0.954
2286	0.907	0.672	0.972	1.0	1.02	0.954
2287	0.907	0.687	0.972	1.0	1.007	0.954
2288	0.907	0.689	0.971	1.0	0.999	0.954
2289	0.907	0.693	0.972	1.0	0.99	0.954
2290	0.907	0.696	0.972	1.0	0.988	0.954
2291	0.907	0.704	0.972	1.0	0.992	0.954
2292	0.907	0.72	0.972	1.0	0.99	0.953
2293	0.907	0.726	0.972	1.0	0.984	0.953
2294	0.907	0.722	0.972	1.0	0.983	0.953
2295	0.907	0.722	0.972	1.0	0.989	0.953
2296	0.907	0.722	0.972	1.0	0.998	0.952
2297	0.907	0.72	0.972	1.0	1.0	0.952
2298	0.907	0.704	0.973	1.0	0.995	0.952
2299	0.907	0.694	0.973	1.0	0.991	0.952
2300	0.907	0.689	0.973	1.0	0.995	0.952
2301	0.907	0.673	0.973	1.0	0.989	0.953
2302	0.907	0.654	0.974	1.0	0.987	0.953
2303	0.907	0.642	0.974	1.0	0.992	0.953
2304	0.907	0.637	0.975	1.0	0.987	0.953
2305	0.907	0.622	0.976	1.0	0.983	0.953
2306	0.907	0.603	0.976	1.0	0.986	0.952
2307	0.907	0.593	0.976	1.0	0.989	0.951
2308	0.907	0.597	0.976	1.0	0.989	0.95
2309	0.907	0.6	0.976	1.0	0.991	0.947
2310	0.907	0.602	0.976	1.0	0.983	0.944
2311	0.907	0.611	0.976	1.0	0.973	0.94
2312	0.907	0.628	0.976	1.0	0.966	0.934
2313	0.907	0.644	0.976	1.0	0.948	0.927
2314	0.907	0.658	0.976	1.0	0.947	0.917
2315	0.907	0.674	0.976	1.0	0.929	0.906
2316	0.907	0.698	0.976	1.0	0.893	0.894
2317	0.907	0.704	0.976	1.0	0.883	0.881
2318	0.907	0.702	0.976	1.0	0.9	0.868
2319	0.907	0.71	0.977	1.0	0.908	0.856
2320	0.907	0.716	0.977	1.0	0.911	0.846
2321	0.907	0.719	0.978	1.0	0.917	0.837
2322	0.907	0.719	0.978	1.0	0.913	0.829
2323	0.907	0.716	0.979	1.0	0.91	0.823
2324	0.907	0.716	0.979	1.0	0.898	0.818
2325	0.907	0.719	0.98	1.0	0.901	0.813
2326	0.907	0.705	0.98	1.0	0.918	0.809
2327	0.907	0.693	0.98	1.0	0.92	0.806
2328	0.907	0.684	0.98	1.0	0.898	0.803
2329	0.907	0.656	0.98	1.0	0.881	0.8
2330	0.907	0.655	0.98	1.0	0.869	0.797
2331	0.907	0.649	0.98	1.0	0.858	0.795
2332	0.907	0.637	0.98	1.0	0.861	0.792
2333	0.848	0.642	0.98	1.0	0.868	0.789
2334	0.789	0.651	0.98	1.0	0.871	0.786
2335	0.731	0.656	0.98	1.0	0.866	0.783
2336	0.672	0.673	0.98	1.0	0.862	0.78
2337	0.613	0.693	0.979	1.0	0.851	0.776
2338	0.555	0.718	0.979	1.0	0.841	0.773
2339	0.496	0.749	0.978	1.0	0.838	0.77
2340	0.437	0.754	0.978	1.0	0.829	0.766
2341	0.379	0.762	0.977	1.0	0.819	0.764
2342	0.32	0.77	0.977	1.0	0.806	0.761
2343	0.32	0.758	0.976	1.0	0.789	0.759
2344	0.32	0.749	0.976	1.0	0.781	0.757
2345	0.32	0.728	0.976	1.0	0.776	0.755
2346	0.32	0.696	0.976	1.0	0.767	0.753
2347	0.32	0.678	0.976	1.0	0.765	0.752
2348	0.32	0.671	0.976	1.0	0.759	0.75
2349	0.32	0.66	0.976	1.0	0.742	0.749
2350	0.32	0.652	0.976	1.0	0.723	0.748
2351	0.32	0.648	0.976	1.0	0.724	0.746
2352	0.32	0.644	0.975	1.0	0.725	0.745
2353	0.32	0.641	0.975	1.0	0.727	0.745
2354	0.32	0.622	0.974	1.0	0.726	0.744
2355	0.32	0.624	0.973	1.0	0.718	0.743
2356	0.32	0.648	0.972	1.0	0.705	0.743
2357	0.32	0.663	0.971	1.0	0.675	0.742
2358	0.32	0.666	0.97	1.0	0.679	0.742
2359	0.32	0.673	0.97	1.0	0.69	0.741
2360	0.32	0.68	0.968	1.0	0.71	0.74
2361	0.32	0.682	0.966	1.0	0.707	0.739
2362	0.32	0.691	0.964	1.0	0.702	0.738
2363	0.32	0.707	0.963	1.0	0.697	0.737
2364	0.32	0.716	0.961	1.0	0.686	0.735
2365	0.32	0.705	0.96	1.0	0.681	0.734
2366	0.32	0.7	0.959	1.0	0.692	0.733
2367	0.32	0.692	0.957	1.0	0.71	0.731
2368	0.32	0.684	0.956	1.0	0.699	0.729
2369	0.32	0.678	0.955	1.0	0.683	0.728
2370	0.32	0.669	0.955	1.0	0.662	0.726
2371	0.32	0.66	0.955	1.0	0.646	0.724
2372	0.32	0.652	0.954	1.0	0.634	0.723
2373	0.32	0.643	0.954	1.0	0.625	0.721
2374	0.32	0.649	0.953	1.0	0.623	0.719
2375	0.32	0.664	0.953	1.0	0.623	0.718
2376	0.32	0.66	0.953	1.0	0.615	0.716
2377	0.32	0.666	0.952	1.0	0.608	0.714
2378	0.32	0.662	0.951	1.0	0.602	0.712
2379	0.32	0.644	0.95	1.0	0.596	0.71
2380	0.32	0.617	0.948	1.0	0.594	0.708
2381	0.32	0.621	0.947	1.0	0.596	0.706
2382	0.32	0.626	0.945	1.0	0.597	0.704
2383	0.32	0.633	0.942	1.0	0.592	0.702
2384	0.32	0.636	0.94	1.0	0.581	0.699
2385	0.32	0.632	0.936	1.0	0.566	0.697
2386	0.32	0.622	0.933	1.0	0.564	0.694
2387	0.32	0.592	0.93	1.0	0.575	0.691
2388	0.32	0.588	0.927	1.0	0.587	0.688
2389	0.32	0.598	0.924	1.0	0.598	0.685
2390	0.32	0.624	0.921	1.0	0.607	0.682
2391	0.32	0.626	0.918	1.0	0.619	0.678
2392	0.32	0.623	0.916	1.0	0.627	0.675
2393	0.32	0.616	0.914	1.0	0.638	0.671
2394	0.32	0.606	0.912	1.0	0.648	0.667
2395	0.32	0.602	0.91	1.0	0.664	0.663
2396	0.32	0.613	0.908	1.0	0.669	0.659
2397	0.32	0.633	0.906	1.0	0.657	0.655
2398	0.32	0.638	0.904	1.0	0.647	0.65
2399	0.32	0.631	0.902	1.0	0.64	0.646
2400	0.32	0.611	0.899	1.0	0.634	0.642
2401	0.32	0.58	0.897	1.0	0.622	0.639
2402	0.32	0.551	0.894	1.0	0.611	0.636
2403	0.32	0.523	0.891	1.0	0.601	0.633
2404	0.32	0.499	0.888	1.0	0.595	0.631
2405	0.32	0.479	0.884	1.0	0.585	0.629
2406	0.32	0.455	0.881	1.0	0.576	0.627
2407	0.32	0.43	0.877	1.0	0.575	0.626
2408	0.32	0.403	0.874	1.0	0.574	0.625
2409	0.32	0.381	0.87	1.0	0.571	0.625
2410	0.32	0.37	0.867	1.0	0.569	0.625
2411	0.32	0.37	0.863	1.0	0.558	0.625
2412	0.32	0.372	0.859	1.0	0.54	0.625
2413	0.32	0.372	0.856	1.0	0.512	0.625
2414	0.32	0.37	0.852	1.0	0.53	0.626
2415	0.32	0.366	0.849	1.0	0.547	0.627
2416	0.32	0.369	0.846	1.0	0.558	0.627
2417	0.32	0.383	0.844	1.0	0.565	0.628
2418	0.32	0.422	0.842	1.0	0.568	0.629
2419	0.32	0.464	0.841	1.0	0.569	0.629
2420	0.32	0.503	0.84	1.0	0.567	0.629
2421	0.32	0.534	0.838	1.0	0.578	0.629
2422	0.32	0.566	0.837	1.0	0.603	0.628
2423	0.32	0.6	0.837	1.0	0.633	0.627
2424	0.32	0.633	0.835	1.0	0.616	0.625
2425	0.32	0.669	0.834	1.0	0.601	0.623
2426	0.32	0.698	0.833	1.0	0.592	0.621
2427	0.32	0.716	0.831	1.0	0.585	0.619
2428	0.32	0.703	0.829	1.0	0.581	0.617
2429	0.32	0.682	0.827	1.0	0.579	0.615
2430	0.32	0.669	0.824	1.0	0.578	0.614
2431	0.32	0.669	0.822	1.0	0.57	0.612
2432	0.32	0.667	0.82	1.0	0.557	0.611
2433	0.32	0.664	0.817	1.0	0.548	0.609
2434	0.32	0.664	0.816	1.0	0.545	0.608
2435	0.32	0.657	0.813	1.0	0.548	0.606
2436	0.32	0.651	0.811	1.0	0.545	0.605
2437	0.32	0.651	0.809	1.0	0.538	0.603
2438	0.32	0.66	0.807	1.0	0.536	0.602
2439	0.32	0.667	0.806	1.0	0.54	0.601
2440	0.32	0.656	0.805	1.0	0.539	0.6
2441	0.32	0.634	0.804	1.0	0.538	0.599
2442	0.32	0.608	0.803	1.0	0.538	0.598
2443	0.32	0.578	0.801	1.0	0.536	0.598
2444	0.32	0.584	0.8	1.0	0.53	0.597
2445	0.32	0.596	0.8	1.0	0.519	0.597
2446	0.32	0.607	0.8	1.0	0.511	0.596
2447	0.32	0.614	0.799	1.0	0.511	0.596
2448	0.32	0.616	0.799	1.0	0.508	0.596
2449	0.32	0.624	0.798	1.0	0.503	0.596
2450	0.32	0.641	0.797	1.0	0.499	0.596
2451	0.32	0.658	0.796	1.0	0.489	0.596
2452	0.32	0.673	0.795	1.0	0.495	0.597
2453	0.32	0.701	0.794	1.0	0.515	0.597
2454	0.32	0.694	0.793	1.0	0.52	0.598
2455	0.32	0.685	0.791	1.0	0.511	0.599
2456	0.32	0.678	0.789	1.0	0.518	0.599
2457	0.32	0.669	0.788	1.0	0.539	0.6
2458	0.32	0.659	0.786	1.0	0.556	0.6
2459	0.32	0.66	0.785	1.0	0.569	0.6
2460	0.32	0.664	0.783	1.0	0.586	0.6
2461	0.32	0.672	0.781	1.0	0.606	0.599
2462	0.32	0.684	0.78	1.0	0.61	0.598
2463	0.32	0.685	0.779	1.0	0.598	0.597
2464	0.32	0.685	0.778	1.0	0.603	0.596
2465	0.32	0.687	0.777	1.0	0.625	0.594
2466	0.32	0.684	0.775	1.0	0.63	0.593
2467	0.32	0.683	0.774	1.0	0.616	0.591
2468	0.32	0.679	0.773	1.0	0.609	0.588
2469	0.32	0.66	0.772	1.0	0.601	0.586
2470	0.32	0.666	0.77	1.0	0.594	0.584
2471	0.32	0.666	0.769	1.0	0.588	0.581
2472	0.32	0.663	0.768	1.0	0.578	0.579
2473	0.32	0.665	0.767	1.0	0.561	0.576
2474	0.32	0.658	0.766	1.0	0.536	0.573
2475	0.32	0.639	0.765	1.0	0.527	0.571
2476	0.32	0.611	0.765	1.0	0.538	0.569
2477	0.32	0.586	0.765	1.0	0.549	0.567
2478	0.32	0.568	0.765	1.0	0.551	0.566
2479	0.32	0.558	0.764	1.0	0.549	0.565
2480	0.32	0.524	0.764	1.0	0.551	0.565
2481	0.32	0.496	0.764	1.0	0.558	0.565
2482	0.32	0.478	0.765	1.0	0.567	0.565
2483	0.32	0.465	0.765	1.0	0.582	0.566
2484	0.32	0.453	0.764	1.0	0.602	0.566
2485	0.32	0.445	0.764	1.0	0.608	0.566
2486	0.32	0.457	0.764	1.0	0.6	0.567
2487	0.32	0.479	0.763	1.0	0.584	0.567
2488	0.32	0.497	0.763	1.0	0.562	0.567
2489	0.32	0.51	0.762	1.0	0.536	0.567
2490	0.32	0.515	0.762	1.0	0.52	0.567
2491	0.32	0.511	0.761	1.0	0.515	0.568
2492	0.32	0.492	0.761	1.0	0.516	0.569
2493	0.32	0.509	0.76	1.0	0.521	0.569
2494	0.32	0.533	0.76	1.0	0.53	0.57
2495	0.32	0.562	0.759	1.0	0.535	0.571
2496	0.32	0.578	0.758	1.0	0.536	0.571
2497	0.32	0.579	0.756	1.0	0.546	0.572
2498	0.32	0.588	0.755	1.0	0.566	0.572
2499	0.32	0.599	0.753	1.0	0.587	0.572
2500	0.32	0.618	0.752	1.0	0.59	0.572
2501	0.32	0.642	0.75	1.0	0.603	0.571
2502	0.32	0.666	0.749	1.0	0.61	0.571
2503	0.32	0.639	0.747	1.0	0.612	0.57
2504	0.32	0.604	0.746	1.0	0.61	0.569
2505	0.32	0.584	0.745	1.0	0.607	0.569
2506	0.32	0.581	0.745	1.0	0.602	0.568
2507	0.32	0.581	0.746	1.0	0.594	0.567
2508	0.32	0.573	0.746	1.0	0.584	0.566
2509	0.32	0.562	0.747	1.0	0.583	0.565
2510	0.32	0.557	0.747	1.0	0.588	0.564
2511	0.32	0.559	0.748	1.0	0.568	0.563
2512	0.32	0.569	0.748	1.0	0.553	0.562
2513	0.32	0.585	0.748	1.0	0.538	0.561
2514	0.32	0.608	0.749	1.0	0.523	0.56
2515	0.32	0.618	0.749	1.0	0.516	0.559
2516	0.32	0.616	0.749	1.0	0.516	0.558
2517	0.32	0.604	0.748	1.0	0.513	0.557
2518	0.32	0.584	0.748	1.0	0.509	0.557
2519	0.32	0.559	0.747	1.0	0.5	0.557
2520	0.32	0.543	0.747	1.0	0.494	0.557
2521	0.32	0.538	0.746	1.0	0.492	0.557
2522	0.32	0.534	0.746	1.0	0.493	0.558
2523	0.32	0.533	0.746	1.0	0.495	0.558
2524	0.32	0.536	0.747	1.0	0.499	0.559
2525	0.32	0.536	0.747	1.0	0.498	0.56
2526	0.32	0.533	0.748	1.0	0.49	0.56
2527	0.32	0.54	0.748	1.0	0.49	0.56
2528	0.32	0.559	0.749	1.0	0.497	0.561
2529	0.32	0.583	0.749	1.0	0.504	0.561
2530	0.32	0.586	0.749	1.0	0.509	0.561
2531	0.32	0.595	0.749	1.0	0.511	0.561
2532	0.32	0.603	0.749	1.0	0.513	0.561
2533	0.32	0.612	0.748	1.0	0.516	0.561
2534	0.32	0.617	0.748	1.0	0.519	0.561
2535	0.32	0.622	0.747	1.0	0.522	0.56
2536	0.32	0.628	0.747	1.0	0.526	0.56
2537	0.32	0.634	0.746	1.0	0.529	0.559
2538	0.32	0.641	0.745	1.0	0.53	0.558
2539	0.32	0.656	0.744	1.0	0.532	0.558
2540	0.32	0.678	0.744	1.0	0.534	0.557
2541	0.32	0.679	0.743	1.0	0.537	0.557
2542	0.32	0.677	0.743	1.0	0.54	0.556
2543	0.32	0.667	0.743	1.0	0.533	0.556
2544	0.32	0.653	0.742	1.0	0.524	0.554
2545	0.32	0.647	0.741	1.0	0.512	0.551
2546	0.32	0.647	0.74	1.0	0.493	0.546
2547	0.32	0.646	0.739	1.0	0.467	0.54
2548	0.32	0.642	0.739	1.0	0.435	0.531
2549	0.32	0.634	0.738	1.0	0.405	0.52
2550	0.32	0.624	0.738	1.0	0.38	0.508
2551	0.32	0.614	0.737	1.0	0.36	0.494
2552	0.32	0.609	0.736	1.0	0.346	0.479
2553	0.32	0.609	0.735	1.0	0.341	0.462
2554	0.32	0.616	0.734	1.0	0.341	0.445
2555	0.32	0.616	0.733	1.0	0.347	0.428
2556	0.32	0.607	0.732	1.0	0.359	0.411
2557	0.32	0.602	0.731	1.0	0.374	0.395
2558	0.32	0.602	0.73	1.0	0.393	0.38
2559	0.32	0.6	0.73	1.0	0.406	0.366
2560	0.32	0.598	0.729	1.0	0.415	0.352
2561	0.32	0.597	0.728	1.0	0.417	0.34
2562	0.32	0.595	0.728	1.0	0.413	0.328
2563	0.32	0.595	0.728	1.0	0.408	0.317
2564	0.32	0.593	0.728	1.0	0.397	0.306
2565	0.32	0.593	0.728	1.0	0.381	0.297
2566	0.32	0.59	0.728	1.0	0.365	0.288
2567	0.32	0.576	0.727	1.0	0.353	0.28
2568	0.32	0.566	0.727	1.0	0.345	0.272
2569	0.32	0.568	0.727	1.0	0.339	0.265
2570	0.32	0.575	0.727	1.0	0.335	0.259
2571	0.32	0.582	0.727	1.0	0.335	0.252
2572	0.32	0.587	0.727	1.0	0.34	0.247
2573	0.288	0.597	0.727	0.9	0.35	0.242
2574	0.256	0.603	0.728	0.8	0.358	0.237
2575	0.224	0.603	0.728	0.7	0.365	0.234
2576	0.192	0.604	0.729	0.6	0.372	0.231
2577	0.16	0.606	0.729	0.5	0.373	0.228
2578	0.128	0.595	0.729	0.4	0.368	0.226
2579	0.096	0.575	0.728	0.3	0.362	0.223
