t	P	Rf	HR	Cad	Target_O2	NN_O2
0	0.0	0.411	0.483	0.0	0.152	0.159
1	0.0	0.417	0.484	0.0	0.144	0.159
2	0.0	0.426	0.485	0.0	0.139	0.167
3	0.0	0.436	0.485	0.0	0.135	0.164
4	0.0	0.445	0.485	0.0	0.133	0.162
5	0.0	0.451	0.485	0.0	0.132	0.163
6	0.0	0.454	0.484	0.0	0.132	0.16
7	0.0	0.455	0.484	0.0	0.133	0.162
8	0.0	0.245	0.394	0.0	0.128	0.118
9	0.0	0.236	0.393	0.0	0.133	0.117
10	0.0	0.231	0.392	0.0	0.136	0.119
11	0.0	0.229	0.39	0.0	0.139	0.119
12	0.0	0.229	0.389	0.0	0.141	0.12
13	0.0	0.22	0.386	0.0	0.141	0.122
14	0.0	0.218	0.384	0.0	0.143	0.12
15	0.0	0.22	0.382	0.0	0.144	0.121
16	0.0	0.228	0.38	0.0	0.147	0.121
17	0.0	0.241	0.378	0.0	0.15	0.122
18	0.0	0.259	0.377	0.0	0.153	0.123
19	0.0	0.274	0.377	0.0	0.155	0.125
20	0.0	0.286	0.377	0.0	0.155	0.123
21	0.0	0.295	0.378	0.0	0.154	0.123
22	0.0	0.3	0.379	0.0	0.151	0.123
23	0.0	0.302	0.382	0.0	0.147	0.123
24	0.0	0.302	0.384	0.0	0.141	0.122
25	0.0	0.299	0.386	0.0	0.133	0.121
26	0.0	0.293	0.388	0.0	0.123	0.12
27	0.0	0.286	0.391	0.0	0.111	0.119
28	0.0	0.276	0.393	0.0	0.097	0.118
29	0.0	0.268	0.395	0.0	0.085	0.117
30	0.0	0.262	0.397	0.0	0.076	0.116
31	0.0	0.26	0.399	0.0	0.068	0.116
32	0.0	0.259	0.401	0.0	0.062	0.115
33	0.0	0.261	0.402	0.0	0.058	0.114
34	0.0	0.264	0.404	0.0	0.056	0.114
35	0.0	0.268	0.405	0.0	0.054	0.113
36	0.0	0.272	0.405	0.0	0.054	0.112
37	0.0	0.278	0.406	0.0	0.054	0.111
38	0.0	0.284	0.406	0.0	0.056	0.11
39	0.0	0.29	0.405	0.0	0.057	0.108
40	0.0	0.297	0.405	0.0	0.058	0.107
41	0.0	0.304	0.404	0.0	0.058	0.105
42	0.0	0.312	0.403	0.0	0.057	0.103
43	0.0	0.32	0.402	0.0	0.057	0.102
44	0.0	0.324	0.402	0.0	0.057	0.1
45	0.0	0.324	0.402	0.0	0.06	0.099
46	0.0	0.32	0.404	0.0	0.065	0.099
47	0.0	0.312	0.406	0.0	0.072	0.099
48	0.0	0.3	0.408	0.0	0.08	0.099
49	0.0	0.287	0.411	0.0	0.088	0.1
50	0.0	0.274	0.413	0.0	0.094	0.102
51	0.0	0.261	0.415	0.0	0.1	0.103
52	0.0	0.247	0.416	0.0	0.105	0.105
53	0.0	0.233	0.417	0.0	0.109	0.108
54	0.0	0.222	0.418	0.0	0.112	0.11
55	0.0	0.216	0.417	0.0	0.113	0.112
56	0.0	0.214	0.416	0.0	0.113	0.114
57	0.0	0.216	0.414	0.0	0.111	0.115
58	0.0	0.222	0.411	0.0	0.108	0.117
59	0.0	0.228	0.407	0.0	0.106	0.118
60	0.0	0.233	0.401	0.0	0.104	0.119
61	0.0	0.238	0.393	0.0	0.102	0.12
62	0.0	0.243	0.383	0.0	0.101	0.121
63	0.0	0.247	0.372	0.0	0.1	0.121
64	0.0	0.251	0.359	0.0	0.101	0.122
65	0.0	0.255	0.345	0.0	0.105	0.122
66	0.0	0.259	0.328	0.0	0.111	0.122
67	0.0	0.263	0.31	0.0	0.119	0.122
68	0.0	0.267	0.29	0.0	0.13	0.122
69	0.0	0.272	0.276	0.0	0.139	0.122
70	0.0	0.277	0.267	0.0	0.147	0.122
71	0.0	0.282	0.265	0.0	0.153	0.122
72	0.0	0.288	0.268	0.0	0.158	0.122
73	0.0	0.294	0.277	0.0	0.161	0.122
74	0.0	0.3	0.287	0.0	0.161	0.122
75	0.0	0.305	0.3	0.0	0.16	0.122
76	0.0	0.31	0.315	0.0	0.156	0.121
77	0.0	0.314	0.331	0.0	0.15	0.121
78	0.0	0.318	0.349	0.0	0.141	0.121
79	0.0	0.322	0.364	0.0	0.134	0.12
80	0.0	0.327	0.374	0.0	0.127	0.119
81	0.0	0.331	0.38	0.0	0.122	0.119
82	0.0	0.335	0.382	0.0	0.117	0.118
83	0.0	0.339	0.379	0.0	0.114	0.117
84	0.0	0.342	0.377	0.0	0.11	0.117
85	0.0	0.346	0.375	0.0	0.106	0.116
86	0.0	0.349	0.373	0.0	0.101	0.116
87	0.0	0.351	0.372	0.0	0.096	0.116
88	0.0	0.353	0.37	0.0	0.091	0.116
89	0.0	0.355	0.368	0.0	0.088	0.116
90	0.0	0.356	0.367	0.0	0.087	0.116
91	0.0	0.357	0.365	0.0	0.089	0.117
92	0.0	0.357	0.363	0.0	0.092	0.117
93	0.0	0.357	0.362	0.0	0.098	0.118
94	0.0	0.358	0.36	0.0	0.102	0.118
95	0.0	0.36	0.359	0.0	0.106	0.118
96	0.0	0.362	0.357	0.0	0.107	0.118
97	0.0	0.365	0.356	0.0	0.108	0.118
98	0.0	0.369	0.355	0.0	0.107	0.118
99	0.0	0.372	0.354	0.0	0.106	0.118
100	0.0	0.373	0.354	0.0	0.103	0.118
101	0.0	0.372	0.354	0.0	0.1	0.118
102	0.0	0.369	0.354	0.0	0.095	0.118
103	0.0	0.365	0.354	0.0	0.09	0.118
104	0.0	0.36	0.355	0.0	0.087	0.118
105	0.0	0.353	0.355	0.0	0.086	0.119
106	0.0	0.346	0.354	0.0	0.087	0.119
107	0.0	0.337	0.353	0.0	0.09	0.119
108	0.0	0.327	0.352	0.0	0.096	0.119
109	0.0	0.32	0.352	0.0	0.102	0.12
110	0.0	0.316	0.351	0.0	0.109	0.12
111	0.0	0.316	0.352	0.0	0.117	0.121
112	0.0	0.318	0.352	0.0	0.127	0.121
113	0.0	0.324	0.353	0.0	0.137	0.122
114	0.0	0.33	0.355	0.0	0.146	0.122
115	0.0	0.334	0.356	0.0	0.155	0.123
116	0.0	0.338	0.358	0.0	0.162	0.123
117	0.0	0.341	0.36	0.0	0.17	0.123
118	0.0	0.343	0.362	0.0	0.176	0.124
119	0.0	0.343	0.364	0.0	0.18	0.124
120	0.0	0.342	0.365	0.0	0.18	0.124
121	0.0	0.339	0.366	0.0	0.177	0.124
122	0.0	0.335	0.367	0.0	0.171	0.123
123	0.0	0.329	0.367	0.0	0.162	0.123
124	0.0	0.324	0.367	0.0	0.152	0.123
125	0.0	0.32	0.368	0.0	0.142	0.123
126	0.0	0.318	0.369	0.0	0.132	0.123
127	0.0	0.316	0.371	0.0	0.121	0.123
128	0.0	0.316	0.373	0.0	0.109	0.124
129	0.0	0.316	0.375	0.0	0.101	0.124
130	0.0	0.316	0.377	0.0	0.097	0.125
131	0.0	0.316	0.379	0.0	0.097	0.126
132	0.0	0.316	0.381	0.0	0.1	0.126
133	0.0	0.316	0.383	0.0	0.108	0.127
134	0.0	0.317	0.384	0.0	0.114	0.128
135	0.0	0.319	0.385	0.0	0.119	0.128
136	0.0	0.321	0.386	0.0	0.123	0.128
137	0.0	0.324	0.387	0.0	0.127	0.129
138	0.0	0.329	0.388	0.0	0.129	0.129
139	0.0	0.331	0.389	0.0	0.13	0.129
140	0.0	0.332	0.391	0.0	0.13	0.129
141	0.0	0.331	0.393	0.0	0.128	0.13
142	0.0	0.329	0.396	0.0	0.124	0.13
143	0.0	0.324	0.4	0.0	0.119	0.131
144	0.0	0.319	0.404	0.0	0.113	0.131
145	0.0	0.311	0.408	0.0	0.107	0.133
146	0.0	0.302	0.412	0.0	0.099	0.135
147	0.0	0.292	0.417	0.0	0.091	0.139
148	0.0	0.28	0.422	0.0	0.082	0.145
149	0.0	0.27	0.426	0.0	0.075	0.155
150	0.0	0.262	0.43	0.0	0.07	0.168
151	0.0	0.258	0.434	0.0	0.067	0.184
152	0.0	0.255	0.437	0.0	0.067	0.204
153	0.0	0.255	0.439	0.0	0.068	0.227
154	0.0	0.257	0.441	0.0	0.074	0.254
155	0.0	0.261	0.443	0.0	0.085	0.283
156	0.0	0.267	0.443	0.0	0.099	0.313
157	0.0	0.276	0.443	0.0	0.119	0.344
158	0.0	0.286	0.443	0.0	0.142	0.375
159	0.0	0.293	0.442	0.0	0.166	0.404
160	0.0	0.298	0.442	0.0	0.191	0.431
161	0.0	0.299	0.441	0.0	0.217	0.457
162	0.0	0.298	0.441	0.0	0.243	0.48
163	0.0	0.294	0.44	0.0	0.27	0.501
164	0.0	0.291	0.439	0.0	0.294	0.52
165	0.0	0.291	0.439	0.0	0.314	0.537
166	0.0	0.291	0.438	0.0	0.33	0.553
167	0.0	0.294	0.438	0.0	0.343	0.568
168	0.0	0.298	0.437	0.0	0.352	0.581
169	0.0	0.304	0.437	0.0	0.362	0.593
170	0.0	0.313	0.437	0.0	0.373	0.605
171	0.0	0.325	0.438	0.0	0.385	0.615
172	0.0	0.339	0.438	0.0	0.397	0.625
173	0.0	0.355	0.439	0.0	0.41	0.635
174	0.018	0.368	0.44	0.02	0.422	0.643
175	0.054	0.377	0.441	0.06	0.435	0.652
176	0.108	0.382	0.441	0.12	0.446	0.659
177	0.18	0.384	0.442	0.2	0.457	0.666
178	0.27	0.382	0.442	0.3	0.468	0.673
179	0.36	0.379	0.441	0.4	0.479	0.679
180	0.45	0.375	0.44	0.5	0.489	0.685
181	0.54	0.371	0.438	0.6	0.5	0.691
182	0.63	0.365	0.436	0.7	0.51	0.696
183	0.72	0.359	0.433	0.8	0.52	0.701
184	0.791	0.358	0.432	0.88	0.533	0.707
185	0.845	0.363	0.431	0.94	0.549	0.712
186	0.881	0.373	0.432	0.98	0.567	0.716
187	0.899	0.388	0.433	1.0	0.587	0.721
188	0.899	0.408	0.436	1.0	0.61	0.726
189	0.899	0.428	0.441	1.0	0.631	0.73
190	0.899	0.447	0.449	1.0	0.648	0.734
191	0.899	0.464	0.458	1.0	0.662	0.738
192	0.899	0.482	0.471	1.0	0.673	0.742
193	0.899	0.498	0.485	1.0	0.682	0.746
194	0.899	0.51	0.5	1.0	0.691	0.75
195	0.899	0.518	0.517	1.0	0.701	0.753
196	0.899	0.522	0.534	1.0	0.711	0.757
197	0.899	0.522	0.553	1.0	0.723	0.76
198	0.899	0.518	0.572	1.0	0.735	0.763
199	0.899	0.513	0.591	1.0	0.747	0.767
200	0.899	0.507	0.61	1.0	0.759	0.77
201	0.899	0.499	0.629	1.0	0.77	0.773
202	0.899	0.49	0.648	1.0	0.781	0.776
203	0.899	0.48	0.666	1.0	0.791	0.78
204	0.899	0.47	0.683	1.0	0.799	0.783
205	0.899	0.46	0.699	1.0	0.804	0.786
206	0.899	0.451	0.714	1.0	0.806	0.79
207	0.899	0.443	0.728	1.0	0.806	0.793
208	0.899	0.435	0.741	1.0	0.803	0.796
209	0.899	0.429	0.752	1.0	0.801	0.799
210	0.899	0.424	0.762	1.0	0.8	0.801
211	0.899	0.422	0.769	1.0	0.8	0.803
212	0.899	0.422	0.776	1.0	0.801	0.805
213	0.899	0.424	0.78	1.0	0.803	0.806
214	0.899	0.427	0.784	1.0	0.805	0.808
215	0.899	0.43	0.787	1.0	0.805	0.809
216	0.899	0.433	0.79	1.0	0.806	0.81
217	0.899	0.437	0.792	1.0	0.805	0.811
218	0.899	0.441	0.794	1.0	0.804	0.812
219	0.899	0.445	0.796	1.0	0.803	0.814
220	0.899	0.45	0.798	1.0	0.803	0.815
221	0.899	0.456	0.8	1.0	0.803	0.817
222	0.899	0.461	0.802	1.0	0.804	0.818
223	0.899	0.467	0.804	1.0	0.805	0.82
224	0.899	0.474	0.806	1.0	0.807	0.822
225	0.899	0.481	0.809	1.0	0.811	0.824
226	0.899	0.488	0.811	1.0	0.816	0.826
227	0.899	0.496	0.814	1.0	0.822	0.828
228	0.899	0.504	0.817	1.0	0.829	0.83
229	0.899	0.513	0.819	1.0	0.835	0.832
230	0.899	0.522	0.822	1.0	0.839	0.834
231	0.899	0.531	0.824	1.0	0.842	0.835
232	0.899	0.541	0.826	1.0	0.844	0.837
233	0.899	0.551	0.827	1.0	0.844	0.839
234	0.899	0.557	0.829	1.0	0.843	0.84
235	0.899	0.559	0.831	1.0	0.841	0.842
236	0.899	0.557	0.832	1.0	0.837	0.843
237	0.899	0.551	0.834	1.0	0.832	0.844
238	0.899	0.541	0.836	1.0	0.825	0.845
239	0.899	0.533	0.837	1.0	0.821	0.846
240	0.899	0.527	0.839	1.0	0.82	0.847
241	0.899	0.522	0.841	1.0	0.822	0.847
242	0.899	0.52	0.842	1.0	0.827	0.848
243	0.899	0.52	0.844	1.0	0.836	0.848
244	0.899	0.523	0.845	1.0	0.844	0.848
245	0.899	0.528	0.847	1.0	0.853	0.849
246	0.899	0.535	0.848	1.0	0.861	0.85
247	0.899	0.545	0.849	1.0	0.87	0.851
248	0.899	0.557	0.851	1.0	0.879	0.852
249	0.899	0.568	0.852	1.0	0.885	0.854
250	0.899	0.577	0.853	1.0	0.888	0.856
251	0.899	0.584	0.854	1.0	0.887	0.858
252	0.899	0.59	0.855	1.0	0.884	0.861
253	0.899	0.594	0.856	1.0	0.876	0.863
254	0.899	0.598	0.857	1.0	0.871	0.866
255	0.899	0.601	0.858	1.0	0.868	0.869
256	0.899	0.604	0.859	1.0	0.867	0.871
257	0.899	0.606	0.861	1.0	0.867	0.874
258	0.899	0.608	0.862	1.0	0.87	0.876
259	0.899	0.609	0.863	1.0	0.872	0.879
260	0.899	0.61	0.864	1.0	0.874	0.88
261	0.899	0.609	0.865	1.0	0.876	0.882
262	0.899	0.608	0.866	1.0	0.877	0.884
263	0.899	0.606	0.867	1.0	0.878	0.885
264	0.899	0.603	0.868	1.0	0.879	0.886
265	0.899	0.598	0.87	1.0	0.88	0.887
266	0.899	0.593	0.871	1.0	0.88	0.888
267	0.899	0.586	0.873	1.0	0.879	0.888
268	0.899	0.578	0.874	1.0	0.878	0.888
269	0.899	0.573	0.876	1.0	0.878	0.887
270	0.899	0.572	0.878	1.0	0.877	0.886
271	0.899	0.575	0.879	1.0	0.876	0.885
272	0.899	0.582	0.881	1.0	0.876	0.883
273	0.899	0.592	0.883	1.0	0.875	0.88
274	0.899	0.604	0.884	1.0	0.873	0.876
275	0.899	0.618	0.886	1.0	0.87	0.872
276	0.899	0.635	0.888	1.0	0.865	0.867
277	0.899	0.653	0.889	1.0	0.858	0.861
278	0.899	0.673	0.891	1.0	0.851	0.855
279	0.899	0.689	0.893	1.0	0.844	0.848
280	0.899	0.701	0.894	1.0	0.837	0.84
281	0.899	0.708	0.896	1.0	0.832	0.832
282	0.899	0.71	0.898	1.0	0.827	0.823
283	0.899	0.708	0.899	1.0	0.823	0.814
284	0.899	0.706	0.901	1.0	0.82	0.805
285	0.899	0.703	0.902	1.0	0.819	0.795
286	0.899	0.7	0.903	1.0	0.82	0.786
287	0.899	0.696	0.904	1.0	0.822	0.777
288	0.899	0.692	0.904	1.0	0.826	0.768
289	0.899	0.688	0.905	1.0	0.83	0.759
290	0.899	0.684	0.906	1.0	0.834	0.752
291	0.899	0.68	0.906	1.0	0.838	0.745
292	0.899	0.676	0.907	1.0	0.841	0.739
293	0.899	0.671	0.907	1.0	0.844	0.734
294	0.891	0.669	0.908	1.0	0.846	0.73
295	0.875	0.669	0.908	1.0	0.847	0.726
296	0.851	0.671	0.909	1.0	0.846	0.723
297	0.82	0.676	0.909	1.0	0.844	0.72
298	0.78	0.682	0.91	1.0	0.841	0.718
299	0.74	0.688	0.91	1.0	0.837	0.717
300	0.7	0.694	0.911	1.0	0.832	0.716
301	0.66	0.7	0.911	1.0	0.828	0.715
302	0.62	0.706	0.911	1.0	0.822	0.714
303	0.58	0.712	0.911	1.0	0.817	0.713
304	0.548	0.714	0.911	1.0	0.811	0.713
305	0.524	0.711	0.911	1.0	0.805	0.712
306	0.508	0.704	0.911	1.0	0.799	0.712
307	0.5	0.692	0.911	1.0	0.793	0.711
308	0.5	0.676	0.911	1.0	0.787	0.71
309	0.5	0.661	0.911	1.0	0.782	0.709
310	0.5	0.648	0.911	1.0	0.776	0.707
311	0.5	0.636	0.911	1.0	0.771	0.705
312	0.5	0.627	0.911	1.0	0.766	0.703
313	0.5	0.618	0.911	1.0	0.762	0.701
314	0.5	0.614	0.911	1.0	0.758	0.699
315	0.5	0.614	0.911	1.0	0.754	0.696
316	0.5	0.618	0.91	1.0	0.751	0.694
317	0.5	0.627	0.91	1.0	0.749	0.691
318	0.5	0.639	0.909	1.0	0.747	0.689
319	0.5	0.648	0.909	1.0	0.743	0.687
320	0.5	0.655	0.908	1.0	0.738	0.685
321	0.5	0.658	0.907	1.0	0.73	0.683
322	0.5	0.659	0.906	1.0	0.722	0.681
323	0.5	0.657	0.905	1.0	0.711	0.679
324	0.5	0.655	0.904	1.0	0.702	0.678
325	0.5	0.653	0.903	1.0	0.694	0.676
326	0.5	0.651	0.902	1.0	0.687	0.675
327	0.5	0.649	0.901	1.0	0.682	0.673
328	0.5	0.647	0.899	1.0	0.677	0.672
329	0.5	0.645	0.898	1.0	0.676	0.67
330	0.5	0.644	0.897	1.0	0.677	0.669
331	0.5	0.643	0.895	1.0	0.681	0.667
332	0.5	0.643	0.894	1.0	0.688	0.666
333	0.5	0.643	0.892	1.0	0.698	0.665
334	0.5	0.64	0.89	1.0	0.706	0.664
335	0.5	0.634	0.889	1.0	0.711	0.663
336	0.5	0.626	0.887	1.0	0.715	0.663
337	0.5	0.614	0.884	1.0	0.716	0.662
338	0.5	0.6	0.882	1.0	0.715	0.662
339	0.5	0.588	0.88	1.0	0.713	0.662
340	0.5	0.579	0.878	1.0	0.709	0.662
341	0.5	0.572	0.876	1.0	0.704	0.662
342	0.5	0.567	0.874	1.0	0.697	0.662
343	0.5	0.565	0.873	1.0	0.689	0.662
344	0.5	0.564	0.871	1.0	0.682	0.662
345	0.5	0.564	0.87	1.0	0.677	0.661
346	0.5	0.564	0.868	1.0	0.673	0.66
347	0.5	0.565	0.867	1.0	0.67	0.659
348	0.5	0.567	0.866	1.0	0.669	0.658
349	0.5	0.568	0.865	1.0	0.667	0.657
350	0.5	0.568	0.864	1.0	0.665	0.655
351	0.5	0.566	0.862	1.0	0.662	0.654
352	0.5	0.563	0.861	1.0	0.659	0.653
353	0.5	0.559	0.859	1.0	0.655	0.651
354	0.5	0.556	0.857	1.0	0.653	0.65
355	0.5	0.552	0.855	1.0	0.653	0.649
356	0.5	0.549	0.853	1.0	0.655	0.648
357	0.5	0.547	0.851	1.0	0.66	0.647
358	0.5	0.545	0.849	1.0	0.666	0.647
359	0.5	0.545	0.847	1.0	0.671	0.648
360	0.5	0.547	0.845	1.0	0.676	0.65
361	0.5	0.551	0.843	1.0	0.68	0.654
362	0.5	0.557	0.841	1.0	0.684	0.658
363	0.5	0.565	0.839	1.0	0.686	0.664
364	0.5	0.573	0.838	1.0	0.688	0.672
365	0.5	0.58	0.836	1.0	0.688	0.681
366	0.5	0.587	0.834	1.0	0.686	0.691
367	0.5	0.594	0.833	1.0	0.683	0.702
368	0.5	0.6	0.831	1.0	0.679	0.713
369	0.5	0.602	0.829	1.0	0.676	0.725
370	0.5	0.601	0.828	1.0	0.675	0.737
371	0.5	0.596	0.826	1.0	0.677	0.748
372	0.5	0.588	0.824	1.0	0.68	0.759
373	0.5	0.576	0.823	1.0	0.685	0.769
374	0.5	0.566	0.821	1.0	0.69	0.779
375	0.5	0.558	0.82	1.0	0.695	0.788
376	0.5	0.553	0.819	1.0	0.7	0.795
377	0.5	0.551	0.818	1.0	0.705	0.802
378	0.5	0.551	0.818	1.0	0.711	0.809
379	0.5	0.55	0.817	1.0	0.716	0.814
380	0.5	0.549	0.817	1.0	0.72	0.819
381	0.5	0.546	0.816	1.0	0.724	0.824
382	0.5	0.543	0.816	1.0	0.728	0.827
383	0.5	0.539	0.815	1.0	0.732	0.831
384	0.508	0.536	0.814	1.0	0.736	0.834
385	0.524	0.534	0.814	1.0	0.74	0.837
386	0.548	0.534	0.813	1.0	0.744	0.84
387	0.58	0.535	0.813	1.0	0.748	0.842
388	0.62	0.537	0.812	1.0	0.752	0.844
389	0.66	0.543	0.812	1.0	0.757	0.846
390	0.7	0.554	0.811	1.0	0.763	0.847
391	0.74	0.57	0.811	1.0	0.771	0.849
392	0.78	0.59	0.811	1.0	0.779	0.85
393	0.82	0.614	0.811	1.0	0.788	0.851
394	0.851	0.636	0.811	1.0	0.795	0.852
395	0.875	0.653	0.811	1.0	0.8	0.853
396	0.891	0.668	0.812	1.0	0.803	0.853
397	0.899	0.68	0.812	1.0	0.804	0.854
398	0.899	0.688	0.813	1.0	0.802	0.855
399	0.899	0.691	0.814	1.0	0.8	0.855
400	0.899	0.691	0.815	1.0	0.799	0.855
401	0.899	0.685	0.816	1.0	0.798	0.855
402	0.899	0.676	0.817	1.0	0.797	0.855
403	0.899	0.661	0.819	1.0	0.796	0.855
404	0.899	0.649	0.821	1.0	0.795	0.855
405	0.899	0.64	0.823	1.0	0.795	0.854
406	0.899	0.633	0.825	1.0	0.796	0.854
407	0.899	0.629	0.828	1.0	0.797	0.854
408	0.899	0.627	0.831	1.0	0.799	0.854
409	0.899	0.625	0.833	1.0	0.802	0.854
410	0.899	0.625	0.836	1.0	0.807	0.854
411	0.899	0.625	0.84	1.0	0.813	0.854
412	0.899	0.627	0.843	1.0	0.82	0.854
413	0.899	0.629	0.846	1.0	0.828	0.855
414	0.899	0.63	0.849	1.0	0.837	0.855
415	0.899	0.631	0.852	1.0	0.845	0.856
416	0.899	0.632	0.855	1.0	0.852	0.856
417	0.899	0.633	0.857	1.0	0.859	0.857
418	0.899	0.633	0.859	1.0	0.866	0.858
419	0.899	0.633	0.862	1.0	0.87	0.859
420	0.899	0.634	0.864	1.0	0.872	0.86
421	0.899	0.635	0.865	1.0	0.87	0.861
422	0.899	0.637	0.867	1.0	0.866	0.862
423	0.899	0.639	0.869	1.0	0.859	0.863
424	0.899	0.638	0.871	1.0	0.855	0.864
425	0.899	0.633	0.872	1.0	0.854	0.865
426	0.899	0.625	0.874	1.0	0.856	0.866
427	0.899	0.614	0.876	1.0	0.861	0.867
428	0.899	0.6	0.877	1.0	0.869	0.868
429	0.899	0.589	0.879	1.0	0.876	0.869
430	0.899	0.58	0.88	1.0	0.881	0.87
431	0.899	0.574	0.881	1.0	0.885	0.871
432	0.899	0.571	0.882	1.0	0.887	0.872
433	0.899	0.571	0.882	1.0	0.888	0.873
434	0.899	0.573	0.883	1.0	0.887	0.874
435	0.899	0.576	0.883	1.0	0.886	0.876
436	0.899	0.581	0.884	1.0	0.884	0.877
437	0.899	0.588	0.884	1.0	0.88	0.879
438	0.899	0.596	0.885	1.0	0.876	0.88
439	0.899	0.602	0.886	1.0	0.872	0.882
440	0.899	0.607	0.886	1.0	0.868	0.883
441	0.899	0.611	0.887	1.0	0.866	0.885
442	0.899	0.612	0.888	1.0	0.864	0.886
443	0.899	0.612	0.889	1.0	0.863	0.887
444	0.899	0.613	0.89	1.0	0.861	0.888
445	0.899	0.616	0.891	1.0	0.86	0.889
446	0.899	0.62	0.892	1.0	0.858	0.889
447	0.899	0.624	0.893	1.0	0.856	0.889
448	0.899	0.631	0.893	1.0	0.854	0.888
449	0.899	0.635	0.894	1.0	0.854	0.887
450	0.899	0.638	0.894	1.0	0.855	0.886
451	0.899	0.639	0.894	1.0	0.857	0.885
452	0.899	0.639	0.894	1.0	0.862	0.884
453	0.899	0.637	0.894	1.0	0.867	0.883
454	0.899	0.636	0.895	1.0	0.874	0.882
455	0.899	0.635	0.895	1.0	0.882	0.881
456	0.899	0.636	0.896	1.0	0.89	0.881
457	0.899	0.637	0.897	1.0	0.9	0.88
458	0.899	0.639	0.898	1.0	0.911	0.88
459	0.899	0.643	0.899	1.0	0.919	0.88
460	0.899	0.649	0.9	1.0	0.925	0.88
461	0.899	0.657	0.902	1.0	0.929	0.881
462	0.899	0.667	0.903	1.0	0.931	0.881
463	0.899	0.68	0.905	1.0	0.931	0.882
464	0.899	0.689	0.907	1.0	0.928	0.883
465	0.899	0.697	0.908	1.0	0.924	0.884
466	0.899	0.702	0.909	1.0	0.918	0.885
467	0.899	0.704	0.911	1.0	0.909	0.886
468	0.899	0.704	0.912	1.0	0.899	0.887
469	0.899	0.7	0.913	1.0	0.893	0.888
470	0.899	0.693	0.914	1.0	0.89	0.889
471	0.899	0.682	0.914	1.0	0.892	0.89
472	0.899	0.667	0.915	1.0	0.897	0.891
473	0.899	0.649	0.916	1.0	0.907	0.891
474	0.899	0.633	0.916	1.0	0.916	0.892
475	0.899	0.618	0.917	1.0	0.926	0.892
476	0.899	0.606	0.917	1.0	0.935	0.892
477	0.899	0.596	0.918	1.0	0.945	0.892
478	0.899	0.588	0.918	1.0	0.954	0.892
479	0.899	0.583	0.919	1.0	0.962	0.892
480	0.899	0.582	0.919	1.0	0.968	0.891
481	0.899	0.585	0.919	1.0	0.973	0.89
482	0.899	0.592	0.919	1.0	0.976	0.889
483	0.899	0.602	0.919	1.0	0.977	0.887
484	0.899	0.612	0.919	1.0	0.974	0.884
485	0.899	0.622	0.919	1.0	0.965	0.881
486	0.899	0.633	0.919	1.0	0.952	0.877
487	0.899	0.643	0.918	1.0	0.934	0.872
488	0.899	0.653	0.918	1.0	0.912	0.867
489	0.899	0.662	0.917	1.0	0.893	0.861
490	0.899	0.671	0.917	1.0	0.878	0.855
491	0.899	0.679	0.917	1.0	0.867	0.848
492	0.899	0.686	0.917	1.0	0.86	0.84
493	0.899	0.692	0.917	1.0	0.857	0.832
494	0.899	0.695	0.917	1.0	0.857	0.824
495	0.899	0.694	0.917	1.0	0.859	0.816
496	0.899	0.691	0.918	1.0	0.864	0.808
497	0.899	0.684	0.919	1.0	0.871	0.8
498	0.899	0.673	0.92	1.0	0.88	0.793
499	0.899	0.666	0.921	1.0	0.886	0.787
500	0.899	0.66	0.922	1.0	0.889	0.781
501	0.899	0.658	0.923	1.0	0.889	0.775
502	0.899	0.657	0.924	1.0	0.886	0.771
503	0.899	0.659	0.926	1.0	0.879	0.767
504	0.891	0.663	0.927	1.0	0.873	0.763
505	0.875	0.669	0.927	1.0	0.868	0.76
506	0.851	0.678	0.928	1.0	0.863	0.758
507	0.82	0.688	0.929	1.0	0.858	0.755
508	0.78	0.7	0.929	1.0	0.853	0.753
509	0.74	0.711	0.93	1.0	0.848	0.751
510	0.7	0.721	0.931	1.0	0.842	0.749
511	0.66	0.729	0.932	1.0	0.835	0.747
512	0.62	0.737	0.934	1.0	0.827	0.744
513	0.58	0.743	0.936	1.0	0.819	0.742
514	0.548	0.744	0.937	1.0	0.811	0.739
515	0.524	0.739	0.939	1.0	0.806	0.737
516	0.508	0.729	0.94	1.0	0.801	0.734
517	0.5	0.714	0.941	1.0	0.799	0.731
518	0.5	0.694	0.942	1.0	0.798	0.728
519	0.5	0.678	0.943	1.0	0.797	0.725
520	0.5	0.667	0.943	1.0	0.797	0.722
521	0.5	0.66	0.944	1.0	0.798	0.719
522	0.5	0.657	0.943	1.0	0.8	0.715
523	0.5	0.659	0.943	1.0	0.802	0.712
524	0.5	0.665	0.942	1.0	0.804	0.709
525	0.5	0.674	0.941	1.0	0.805	0.706
526	0.5	0.687	0.94	1.0	0.806	0.702
527	0.5	0.704	0.938	1.0	0.806	0.699
528	0.5	0.724	0.937	1.0	0.806	0.696
529	0.5	0.739	0.935	1.0	0.802	0.694
530	0.5	0.747	0.933	1.0	0.794	0.691
531	0.5	0.749	0.931	1.0	0.782	0.689
532	0.5	0.745	0.929	1.0	0.766	0.687
533	0.5	0.735	0.927	1.0	0.746	0.686
534	0.5	0.724	0.924	1.0	0.73	0.684
535	0.5	0.713	0.922	1.0	0.719	0.682
536	0.5	0.702	0.92	1.0	0.711	0.681
537	0.5	0.69	0.918	1.0	0.707	0.679
538	0.5	0.678	0.916	1.0	0.708	0.678
539	0.5	0.666	0.913	1.0	0.71	0.676
540	0.5	0.656	0.911	1.0	0.715	0.675
541	0.5	0.646	0.909	1.0	0.723	0.674
542	0.5	0.637	0.907	1.0	0.732	0.673
543	0.5	0.629	0.904	1.0	0.744	0.672
544	0.5	0.622	0.902	1.0	0.749	0.671
545	0.5	0.616	0.899	1.0	0.749	0.671
546	0.5	0.611	0.896	1.0	0.743	0.672
547	0.5	0.608	0.893	1.0	0.732	0.672
548	0.5	0.606	0.89	1.0	0.714	0.673
549	0.5	0.603	0.887	1.0	0.7	0.673
550	0.5	0.598	0.884	1.0	0.69	0.673
551	0.5	0.593	0.881	1.0	0.684	0.673
552	0.5	0.586	0.879	1.0	0.682	0.672
553	0.5	0.578	0.877	1.0	0.684	0.672
554	0.5	0.572	0.875	1.0	0.689	0.67
555	0.5	0.57	0.873	1.0	0.696	0.669
556	0.5	0.57	0.872	1.0	0.706	0.668
557	0.5	0.573	0.871	1.0	0.719	0.666
558	0.5	0.58	0.871	1.0	0.734	0.665
559	0.5	0.583	0.87	1.0	0.745	0.664
560	0.5	0.584	0.869	1.0	0.752	0.663
561	0.5	0.583	0.868	1.0	0.754	0.662
562	0.5	0.58	0.866	1.0	0.751	0.662
563	0.5	0.573	0.864	1.0	0.744	0.662
564	0.5	0.568	0.863	1.0	0.737	0.662
565	0.5	0.564	0.861	1.0	0.73	0.662
566	0.5	0.56	0.859	1.0	0.723	0.663
567	0.5	0.557	0.858	1.0	0.716	0.665
568	0.5	0.555	0.856	1.0	0.708	0.667
569	0.5	0.558	0.855	1.0	0.702	0.67
570	0.5	0.564	0.853	1.0	0.696	0.674
571	0.5	0.576	0.852	1.0	0.691	0.679
572	0.5	0.592	0.851	1.0	0.688	0.685
573	0.5	0.612	0.849	1.0	0.685	0.692
574	0.5	0.626	0.848	1.0	0.68	0.699
575	0.5	0.632	0.847	1.0	0.675	0.708
576	0.5	0.632	0.845	1.0	0.668	0.718
577	0.5	0.624	0.843	1.0	0.66	0.727
578	0.5	0.61	0.841	1.0	0.651	0.737
579	0.5	0.598	0.838	1.0	0.647	0.746
580	0.5	0.587	0.836	1.0	0.648	0.755
581	0.5	0.577	0.834	1.0	0.654	0.763
582	0.5	0.569	0.832	1.0	0.666	0.771
583	0.5	0.563	0.829	1.0	0.683	0.778
584	0.5	0.561	0.828	1.0	0.7	0.784
585	0.5	0.563	0.826	1.0	0.716	0.79
586	0.5	0.569	0.825	1.0	0.732	0.796
587	0.5	0.58	0.824	1.0	0.747	0.802
588	0.5	0.594	0.823	1.0	0.762	0.807
589	0.5	0.606	0.823	1.0	0.774	0.812
590	0.5	0.616	0.823	1.0	0.783	0.817
591	0.5	0.624	0.822	1.0	0.79	0.822
592	0.5	0.631	0.822	1.0	0.794	0.827
593	0.5	0.635	0.822	1.0	0.796	0.832
594	0.508	0.639	0.822	1.0	0.797	0.837
595	0.524	0.643	0.822	1.0	0.799	0.841
596	0.548	0.647	0.822	1.0	0.8	0.846
597	0.58	0.651	0.822	1.0	0.801	0.85
598	0.62	0.655	0.822	1.0	0.802	0.854
599	0.66	0.659	0.822	1.0	0.802	0.857
600	0.7	0.662	0.822	1.0	0.799	0.86
601	0.74	0.665	0.822	1.0	0.795	0.862
602	0.78	0.667	0.822	1.0	0.79	0.864
603	0.82	0.669	0.822	1.0	0.782	0.866
604	0.851	0.668	0.822	1.0	0.778	0.868
605	0.875	0.664	0.822	1.0	0.776	0.869
606	0.891	0.656	0.822	1.0	0.778	0.87
607	0.899	0.645	0.822	1.0	0.783	0.871
608	0.899	0.631	0.822	1.0	0.791	0.872
609	0.899	0.619	0.822	1.0	0.799	0.873
610	0.899	0.611	0.823	1.0	0.807	0.874
611	0.899	0.605	0.823	1.0	0.816	0.875
612	0.899	0.602	0.823	1.0	0.825	0.875
613	0.899	0.602	0.824	1.0	0.833	0.876
614	0.899	0.606	0.825	1.0	0.84	0.877
615	0.899	0.613	0.826	1.0	0.845	0.877
616	0.899	0.624	0.828	1.0	0.847	0.878
617	0.899	0.639	0.829	1.0	0.848	0.879
618	0.899	0.657	0.832	1.0	0.846	0.879
619	0.899	0.673	0.834	1.0	0.846	0.88
620	0.899	0.688	0.836	1.0	0.848	0.88
621	0.899	0.7	0.839	1.0	0.852	0.881
622	0.899	0.71	0.842	1.0	0.857	0.881
623	0.899	0.718	0.844	1.0	0.864	0.882
624	0.899	0.723	0.847	1.0	0.871	0.883
625	0.899	0.725	0.849	1.0	0.879	0.883
626	0.899	0.723	0.851	1.0	0.886	0.884
627	0.899	0.718	0.853	1.0	0.894	0.885
628	0.899	0.71	0.855	1.0	0.902	0.886
629	0.899	0.703	0.857	1.0	0.906	0.887
630	0.899	0.698	0.858	1.0	0.908	0.889
631	0.899	0.693	0.86	1.0	0.908	0.89
632	0.899	0.69	0.862	1.0	0.904	0.892
633	0.899	0.688	0.863	1.0	0.897	0.894
634	0.899	0.687	0.865	1.0	0.892	0.896
635	0.899	0.686	0.867	1.0	0.887	0.897
636	0.899	0.687	0.868	1.0	0.884	0.899
637	0.899	0.688	0.87	1.0	0.882	0.9
638	0.899	0.69	0.872	1.0	0.881	0.902
639	0.899	0.691	0.873	1.0	0.881	0.903
640	0.899	0.693	0.874	1.0	0.881	0.904
641	0.899	0.693	0.875	1.0	0.881	0.905
642	0.899	0.694	0.876	1.0	0.882	0.906
643	0.899	0.694	0.877	1.0	0.884	0.906
644	0.899	0.694	0.877	1.0	0.886	0.907
645	0.899	0.694	0.878	1.0	0.887	0.907
646	0.899	0.694	0.88	1.0	0.889	0.907
647	0.899	0.694	0.881	1.0	0.892	0.908
648	0.899	0.694	0.883	1.0	0.894	0.908
649	0.899	0.694	0.885	1.0	0.896	0.908
650	0.899	0.694	0.887	1.0	0.896	0.908
651	0.899	0.694	0.889	1.0	0.897	0.908
652	0.899	0.694	0.892	1.0	0.896	0.908
653	0.899	0.694	0.894	1.0	0.895	0.908
654	0.899	0.697	0.897	1.0	0.894	0.908
655	0.899	0.704	0.9	1.0	0.893	0.909
656	0.899	0.713	0.902	1.0	0.893	0.909
657	0.899	0.727	0.904	1.0	0.893	0.91
658	0.899	0.743	0.907	1.0	0.893	0.91
659	0.899	0.754	0.909	1.0	0.895	0.911
660	0.899	0.761	0.911	1.0	0.898	0.912
661	0.899	0.762	0.913	1.0	0.903	0.912
662	0.899	0.759	0.916	1.0	0.909	0.913
663	0.899	0.751	0.918	1.0	0.917	0.914
664	0.899	0.744	0.92	1.0	0.923	0.914
665	0.899	0.737	0.922	1.0	0.927	0.915
666	0.899	0.731	0.924	1.0	0.929	0.915
667	0.899	0.727	0.926	1.0	0.929	0.916
668	0.899	0.722	0.927	1.0	0.927	0.916
669	0.899	0.718	0.929	1.0	0.924	0.916
670	0.899	0.714	0.93	1.0	0.919	0.916
671	0.899	0.71	0.932	1.0	0.914	0.916
672	0.899	0.706	0.933	1.0	0.907	0.916
673	0.899	0.702	0.934	1.0	0.899	0.915
674	0.899	0.698	0.935	1.0	0.894	0.915
675	0.899	0.694	0.936	1.0	0.893	0.914
676	0.899	0.69	0.937	1.0	0.894	0.913
677	0.899	0.686	0.938	1.0	0.899	0.912
678	0.899	0.682	0.939	1.0	0.907	0.911
679	0.899	0.681	0.941	1.0	0.915	0.911
680	0.899	0.683	0.942	1.0	0.921	0.91
681	0.899	0.689	0.943	1.0	0.927	0.91
682	0.899	0.698	0.944	1.0	0.932	0.909
683	0.899	0.71	0.945	1.0	0.936	0.909
684	0.899	0.72	0.946	1.0	0.938	0.909
685	0.899	0.727	0.947	1.0	0.939	0.909
686	0.899	0.732	0.947	1.0	0.937	0.909
687	0.899	0.735	0.947	1.0	0.934	0.909
688	0.899	0.735	0.947	1.0	0.928	0.909
689	0.899	0.735	0.947	1.0	0.926	0.908
690	0.899	0.735	0.947	1.0	0.925	0.907
691	0.899	0.735	0.946	1.0	0.927	0.906
692	0.899	0.735	0.945	1.0	0.932	0.903
693	0.899	0.735	0.944	1.0	0.939	0.9
694	0.899	0.733	0.943	1.0	0.944	0.897
695	0.899	0.73	0.942	1.0	0.946	0.893
696	0.899	0.725	0.941	1.0	0.945	0.888
697	0.899	0.718	0.941	1.0	0.942	0.882
698	0.899	0.71	0.94	1.0	0.936	0.876
699	0.899	0.702	0.94	1.0	0.931	0.87
700	0.899	0.693	0.94	1.0	0.926	0.863
701	0.899	0.683	0.94	1.0	0.922	0.855
702	0.899	0.673	0.94	1.0	0.919	0.848
703	0.899	0.663	0.941	1.0	0.916	0.84
704	0.899	0.657	0.941	1.0	0.913	0.832
705	0.899	0.655	0.942	1.0	0.911	0.824
706	0.899	0.657	0.942	1.0	0.908	0.816
707	0.899	0.663	0.943	1.0	0.906	0.808
708	0.899	0.673	0.943	1.0	0.904	0.801
709	0.899	0.683	0.944	1.0	0.902	0.794
710	0.899	0.693	0.944	1.0	0.899	0.787
711	0.899	0.702	0.945	1.0	0.896	0.78
712	0.899	0.71	0.946	1.0	0.892	0.774
713	0.899	0.718	0.946	1.0	0.888	0.769
714	0.891	0.724	0.947	1.0	0.884	0.764
715	0.875	0.726	0.947	1.0	0.881	0.76
716	0.851	0.726	0.948	1.0	0.879	0.757
717	0.82	0.722	0.948	1.0	0.877	0.754
718	0.78	0.716	0.949	1.0	0.875	0.752
719	0.74	0.711	0.949	1.0	0.873	0.75
720	0.7	0.708	0.95	1.0	0.87	0.749
721	0.66	0.705	0.95	1.0	0.866	0.749
722	0.62	0.704	0.95	1.0	0.861	0.748
723	0.58	0.704	0.95	1.0	0.856	0.748
724	0.548	0.703	0.95	1.0	0.85	0.748
725	0.524	0.7	0.95	1.0	0.845	0.747
726	0.508	0.697	0.95	1.0	0.84	0.747
727	0.5	0.692	0.95	1.0	0.835	0.747
728	0.5	0.686	0.95	1.0	0.83	0.746
729	0.5	0.681	0.95	1.0	0.824	0.745
730	0.5	0.678	0.95	1.0	0.817	0.744
731	0.5	0.677	0.95	1.0	0.808	0.743
732	0.5	0.678	0.95	1.0	0.799	0.742
733	0.5	0.68	0.95	1.0	0.788	0.74
734	0.5	0.682	0.95	1.0	0.779	0.738
735	0.5	0.684	0.949	1.0	0.771	0.735
736	0.5	0.686	0.949	1.0	0.765	0.733
737	0.5	0.688	0.948	1.0	0.76	0.73
738	0.5	0.69	0.947	1.0	0.757	0.727
739	0.5	0.691	0.945	1.0	0.754	0.724
740	0.5	0.693	0.944	1.0	0.754	0.721
741	0.5	0.693	0.943	1.0	0.754	0.718
742	0.5	0.694	0.941	1.0	0.755	0.715
743	0.5	0.694	0.939	1.0	0.758	0.712
744	0.5	0.695	0.938	1.0	0.76	0.71
745	0.5	0.696	0.936	1.0	0.76	0.707
746	0.5	0.699	0.935	1.0	0.76	0.705
747	0.5	0.702	0.934	1.0	0.759	0.704
748	0.5	0.706	0.933	1.0	0.757	0.702
749	0.5	0.709	0.931	1.0	0.752	0.701
750	0.5	0.711	0.93	1.0	0.745	0.7
751	0.5	0.711	0.927	1.0	0.734	0.699
752	0.5	0.71	0.925	1.0	0.721	0.698
753	0.5	0.708	0.922	1.0	0.705	0.697
754	0.5	0.706	0.919	1.0	0.693	0.696
755	0.5	0.704	0.916	1.0	0.685	0.695
756	0.5	0.702	0.912	1.0	0.682	0.693
757	0.5	0.7	0.908	1.0	0.683	0.692
758	0.5	0.698	0.903	1.0	0.688	0.69
759	0.5	0.694	0.899	1.0	0.692	0.688
760	0.5	0.689	0.895	1.0	0.697	0.686
761	0.5	0.682	0.891	1.0	0.701	0.684
762	0.5	0.673	0.887	1.0	0.706	0.681
763	0.5	0.663	0.883	1.0	0.71	0.678
764	0.5	0.655	0.879	1.0	0.713	0.675
765	0.5	0.649	0.876	1.0	0.714	0.672
766	0.5	0.645	0.872	1.0	0.713	0.669
767	0.5	0.643	0.869	1.0	0.711	0.667
768	0.5	0.643	0.867	1.0	0.707	0.664
769	0.5	0.644	0.864	1.0	0.705	0.662
770	0.5	0.647	0.861	1.0	0.705	0.661
771	0.5	0.65	0.859	1.0	0.708	0.66
772	0.5	0.655	0.857	1.0	0.712	0.659
773	0.5	0.661	0.854	1.0	0.719	0.659
774	0.5	0.667	0.852	1.0	0.722	0.659
775	0.5	0.672	0.85	1.0	0.722	0.66
776	0.5	0.677	0.847	1.0	0.72	0.661
777	0.5	0.682	0.844	1.0	0.713	0.663
778	0.5	0.686	0.842	1.0	0.704	0.666
779	0.5	0.688	0.839	1.0	0.696	0.669
780	0.5	0.688	0.837	1.0	0.69	0.674
781	0.5	0.686	0.835	1.0	0.685	0.679
782	0.5	0.682	0.833	1.0	0.681	0.685
783	0.5	0.676	0.831	1.0	0.679	0.691
784	0.5	0.667	0.83	1.0	0.678	0.699
785	0.5	0.657	0.828	1.0	0.678	0.707
786	0.5	0.645	0.827	1.0	0.68	0.716
787	0.5	0.631	0.827	1.0	0.683	0.725
788	0.5	0.614	0.826	1.0	0.687	0.734
789	0.5	0.6	0.826	1.0	0.692	0.743
790	0.5	0.588	0.825	1.0	0.698	0.752
791	0.5	0.578	0.824	1.0	0.706	0.76
792	0.5	0.569	0.824	1.0	0.715	0.768
793	0.5	0.563	0.823	1.0	0.725	0.776
794	0.5	0.561	0.823	1.0	0.732	0.783
795	0.5	0.562	0.823	1.0	0.737	0.789
796	0.5	0.567	0.822	1.0	0.74	0.795
797	0.5	0.576	0.822	1.0	0.741	0.8
798	0.5	0.588	0.822	1.0	0.739	0.805
799	0.5	0.6	0.822	1.0	0.739	0.81
800	0.5	0.612	0.822	1.0	0.741	0.814
801	0.5	0.624	0.822	1.0	0.745	0.818
802	0.5	0.637	0.822	1.0	0.752	0.822
803	0.5	0.649	0.822	1.0	0.76	0.826
804	0.508	0.658	0.822	1.0	0.769	0.83
805	0.524	0.664	0.822	1.0	0.779	0.834
806	0.548	0.666	0.821	1.0	0.789	0.839
807	0.58	0.665	0.82	1.0	0.8	0.843
808	0.62	0.661	0.819	1.0	0.811	0.847
809	0.66	0.658	0.817	1.0	0.817	0.85
810	0.7	0.657	0.816	1.0	0.819	0.854
811	0.74	0.656	0.814	1.0	0.816	0.858
812	0.78	0.657	0.811	1.0	0.808	0.861
813	0.82	0.659	0.808	1.0	0.796	0.865
814	0.851	0.66	0.806	1.0	0.788	0.867
815	0.875	0.661	0.804	1.0	0.785	0.87
816	0.891	0.66	0.803	1.0	0.787	0.871
817	0.899	0.659	0.802	1.0	0.794	0.873
818	0.899	0.657	0.801	1.0	0.806	0.874
819	0.899	0.654	0.801	1.0	0.818	0.875
820	0.899	0.651	0.802	1.0	0.83	0.875
821	0.899	0.646	0.803	1.0	0.843	0.876
822	0.899	0.641	0.804	1.0	0.855	0.877
823	0.899	0.635	0.807	1.0	0.868	0.877
824	0.899	0.631	0.809	1.0	0.877	0.878
825	0.899	0.629	0.812	1.0	0.883	0.879
826	0.899	0.629	0.815	1.0	0.887	0.881
827	0.899	0.631	0.819	1.0	0.887	0.882
828	0.899	0.635	0.823	1.0	0.884	0.884
829	0.899	0.641	0.827	1.0	0.881	0.886
830	0.899	0.649	0.831	1.0	0.877	0.888
831	0.899	0.659	0.835	1.0	0.871	0.89
832	0.899	0.671	0.839	1.0	0.865	0.892
833	0.899	0.686	0.844	1.0	0.858	0.894
834	0.899	0.699	0.848	1.0	0.852	0.896
835	0.899	0.712	0.852	1.0	0.849	0.898
836	0.899	0.724	0.855	1.0	0.846	0.9
837	0.899	0.735	0.858	1.0	0.846	0.902
838	0.899	0.745	0.861	1.0	0.847	0.903
839	0.899	0.749	0.864	1.0	0.847	0.905
840	0.899	0.747	0.866	1.0	0.847	0.906
841	0.899	0.739	0.869	1.0	0.846	0.907
842	0.899	0.724	0.871	1.0	0.844	0.908
843	0.899	0.704	0.873	1.0	0.842	0.909
844	0.899	0.687	0.875	1.0	0.842	0.909
845	0.899	0.673	0.877	1.0	0.845	0.909
846	0.899	0.662	0.879	1.0	0.85	0.909
847	0.899	0.655	0.881	1.0	0.858	0.909
848	0.899	0.651	0.883	1.0	0.869	0.908
849	0.899	0.652	0.884	1.0	0.88	0.908
850	0.899	0.658	0.886	1.0	0.891	0.907
851	0.899	0.668	0.888	1.0	0.902	0.907
852	0.899	0.684	0.889	1.0	0.913	0.906
853	0.899	0.704	0.891	1.0	0.924	0.906
854	0.899	0.722	0.893	1.0	0.931	0.906
855	0.899	0.736	0.895	1.0	0.935	0.907
856	0.899	0.748	0.897	1.0	0.934	0.907
857	0.899	0.757	0.899	1.0	0.93	0.908
858	0.899	0.763	0.901	1.0	0.923	0.909
859	0.899	0.768	0.903	1.0	0.917	0.91
860	0.899	0.771	0.906	1.0	0.912	0.911
861	0.899	0.772	0.908	1.0	0.91	0.912
862	0.899	0.771	0.91	1.0	0.909	0.912
863	0.899	0.769	0.912	1.0	0.909	0.913
864	0.899	0.767	0.914	1.0	0.909	0.913
865	0.899	0.765	0.916	1.0	0.908	0.913
866	0.899	0.763	0.918	1.0	0.906	0.913
867	0.899	0.761	0.919	1.0	0.903	0.913
868	0.899	0.759	0.92	1.0	0.899	0.913
869	0.899	0.753	0.921	1.0	0.896	0.912
870	0.899	0.744	0.922	1.0	0.894	0.912
871	0.899	0.731	0.922	1.0	0.893	0.911
872	0.899	0.714	0.922	1.0	0.893	0.91
873	0.899	0.694	0.922	1.0	0.893	0.91
874	0.899	0.679	0.922	1.0	0.895	0.909
875	0.899	0.669	0.922	1.0	0.897	0.909
876	0.899	0.664	0.922	1.0	0.9	0.909
877	0.899	0.665	0.922	1.0	0.903	0.908
878	0.899	0.671	0.922	1.0	0.907	0.908
879	0.899	0.681	0.922	1.0	0.911	0.909
880	0.899	0.693	0.923	1.0	0.915	0.909
881	0.899	0.709	0.923	1.0	0.918	0.91
882	0.899	0.729	0.923	1.0	0.921	0.911
883	0.899	0.751	0.924	1.0	0.925	0.912
884	0.899	0.767	0.924	1.0	0.927	0.913
885	0.899	0.778	0.925	1.0	0.929	0.915
886	0.899	0.782	0.926	1.0	0.93	0.916
887	0.899	0.78	0.926	1.0	0.93	0.918
888	0.899	0.771	0.927	1.0	0.93	0.92
889	0.899	0.763	0.927	1.0	0.93	0.922
890	0.899	0.754	0.928	1.0	0.931	0.924
891	0.899	0.744	0.928	1.0	0.932	0.925
892	0.899	0.735	0.929	1.0	0.934	0.927
893	0.899	0.724	0.929	1.0	0.936	0.928
894	0.899	0.715	0.93	1.0	0.935	0.929
895	0.899	0.705	0.931	1.0	0.933	0.93
896	0.899	0.696	0.931	1.0	0.928	0.93
897	0.899	0.688	0.932	1.0	0.921	0.93
898	0.899	0.68	0.932	1.0	0.912	0.93
899	0.899	0.674	0.933	1.0	0.908	0.929
900	0.899	0.672	0.933	1.0	0.908	0.927
901	0.899	0.672	0.934	1.0	0.913	0.925
902	0.899	0.676	0.934	1.0	0.922	0.922
903	0.899	0.682	0.935	1.0	0.936	0.918
904	0.899	0.689	0.936	1.0	0.949	0.914
905	0.899	0.699	0.936	1.0	0.959	0.91
906	0.899	0.71	0.937	1.0	0.968	0.905
907	0.899	0.722	0.938	1.0	0.975	0.899
908	0.899	0.737	0.939	1.0	0.98	0.894
909	0.899	0.751	0.94	1.0	0.978	0.887
910	0.899	0.765	0.941	1.0	0.969	0.881
911	0.899	0.78	0.942	1.0	0.953	0.875
912	0.899	0.794	0.943	1.0	0.929	0.868
913	0.899	0.808	0.943	1.0	0.898	0.861
914	0.899	0.82	0.944	1.0	0.876	0.853
915	0.899	0.828	0.944	1.0	0.862	0.846
916	0.899	0.834	0.945	1.0	0.858	0.838
917	0.899	0.837	0.946	1.0	0.862	0.83
918	0.899	0.837	0.946	1.0	0.875	0.822
919	0.899	0.834	0.947	1.0	0.887	0.815
920	0.899	0.828	0.948	1.0	0.899	0.808
921	0.899	0.82	0.948	1.0	0.91	0.802
922	0.899	0.808	0.949	1.0	0.921	0.796
923	0.899	0.794	0.951	1.0	0.931	0.791
924	0.891	0.779	0.952	1.0	0.936	0.788
925	0.875	0.764	0.953	1.0	0.936	0.785
926	0.851	0.749	0.954	1.0	0.932	0.782
927	0.82	0.733	0.955	1.0	0.923	0.781
928	0.78	0.716	0.956	1.0	0.91	0.78
929	0.74	0.705	0.957	1.0	0.897	0.779
930	0.7	0.7	0.958	1.0	0.885	0.778
931	0.66	0.699	0.959	1.0	0.874	0.776
932	0.62	0.704	0.959	1.0	0.864	0.775
933	0.58	0.714	0.96	1.0	0.854	0.773
934	0.548	0.724	0.96	1.0	0.848	0.771
935	0.524	0.732	0.961	1.0	0.846	0.769
936	0.508	0.74	0.961	1.0	0.847	0.766
937	0.5	0.747	0.961	1.0	0.852	0.764
938	0.5	0.753	0.961	1.0	0.861	0.761
939	0.5	0.755	0.961	1.0	0.868	0.759
940	0.5	0.753	0.961	1.0	0.874	0.757
941	0.5	0.747	0.96	1.0	0.879	0.755
942	0.5	0.737	0.96	1.0	0.883	0.753
943	0.5	0.722	0.959	1.0	0.886	0.752
944	0.5	0.714	0.959	1.0	0.886	0.751
945	0.5	0.712	0.958	1.0	0.882	0.75
946	0.5	0.716	0.957	1.0	0.876	0.75
947	0.5	0.727	0.956	1.0	0.866	0.75
948	0.5	0.743	0.955	1.0	0.853	0.75
949	0.5	0.758	0.954	1.0	0.84	0.75
950	0.5	0.771	0.952	1.0	0.826	0.75
951	0.5	0.782	0.951	1.0	0.813	0.75
952	0.5	0.792	0.949	1.0	0.799	0.75
953	0.5	0.8	0.948	1.0	0.785	0.75
954	0.5	0.802	0.946	1.0	0.773	0.749
955	0.5	0.799	0.944	1.0	0.764	0.749
956	0.5	0.79	0.943	1.0	0.757	0.748
957	0.5	0.776	0.941	1.0	0.753	0.746
958	0.5	0.755	0.939	1.0	0.751	0.744
959	0.5	0.737	0.938	1.0	0.752	0.742
960	0.5	0.72	0.936	1.0	0.754	0.74
961	0.5	0.706	0.934	1.0	0.758	0.738
962	0.5	0.694	0.933	1.0	0.764	0.736
963	0.5	0.684	0.931	1.0	0.772	0.733
964	0.5	0.678	0.929	1.0	0.775	0.731
965	0.5	0.678	0.927	1.0	0.773	0.729
966	0.5	0.682	0.925	1.0	0.765	0.728
967	0.5	0.692	0.923	1.0	0.753	0.726
968	0.5	0.706	0.921	1.0	0.735	0.725
969	0.5	0.719	0.919	1.0	0.723	0.723
970	0.5	0.731	0.917	1.0	0.714	0.722
971	0.5	0.742	0.914	1.0	0.711	0.721
972	0.5	0.751	0.912	1.0	0.712	0.719
973	0.5	0.759	0.91	1.0	0.717	0.718
974	0.5	0.766	0.908	1.0	0.725	0.716
975	0.5	0.771	0.906	1.0	0.733	0.715
976	0.5	0.774	0.904	1.0	0.743	0.713
977	0.5	0.776	0.902	1.0	0.754	0.712
978	0.5	0.776	0.901	1.0	0.767	0.711
979	0.5	0.773	0.899	1.0	0.772	0.71
980	0.5	0.768	0.897	1.0	0.769	0.71
981	0.5	0.761	0.896	1.0	0.759	0.71
982	0.5	0.751	0.894	1.0	0.741	0.711
983	0.5	0.739	0.892	1.0	0.716	0.711
984	0.5	0.727	0.891	1.0	0.694	0.711
985	0.5	0.717	0.889	1.0	0.674	0.711
986	0.5	0.707	0.887	1.0	0.657	0.71
987	0.5	0.698	0.886	1.0	0.644	0.71
988	0.5	0.69	0.884	1.0	0.633	0.71
989	0.5	0.686	0.882	1.0	0.629	0.71
990	0.5	0.686	0.881	1.0	0.632	0.711
991	0.5	0.69	0.88	1.0	0.642	0.712
992	0.5	0.698	0.878	1.0	0.658	0.713
993	0.5	0.71	0.877	1.0	0.682	0.716
994	0.5	0.718	0.876	1.0	0.703	0.72
995	0.5	0.72	0.875	1.0	0.72	0.724
996	0.5	0.718	0.875	1.0	0.734	0.73
997	0.5	0.71	0.874	1.0	0.746	0.736
998	0.5	0.698	0.873	1.0	0.754	0.743
999	0.5	0.688	0.873	1.0	0.76	0.75
1000	0.5	0.68	0.872	1.0	0.765	0.757
1001	0.5	0.673	0.872	1.0	0.767	0.765
1002	0.5	0.669	0.871	1.0	0.769	0.772
1003	0.5	0.667	0.871	1.0	0.768	0.779
1004	0.5	0.669	0.87	1.0	0.769	0.786
1005	0.5	0.676	0.868	1.0	0.772	0.794
1006	0.5	0.686	0.867	1.0	0.777	0.801
1007	0.5	0.7	0.865	1.0	0.784	0.808
1008	0.5	0.718	0.863	1.0	0.792	0.815
1009	0.5	0.73	0.861	1.0	0.797	0.821
1010	0.5	0.736	0.858	1.0	0.8	0.828
1011	0.5	0.734	0.856	1.0	0.8	0.835
1012	0.5	0.727	0.854	1.0	0.797	0.841
1013	0.5	0.712	0.852	1.0	0.791	0.846
1014	0.508	0.697	0.849	1.0	0.788	0.852
1015	0.524	0.681	0.847	1.0	0.787	0.856
1016	0.548	0.664	0.845	1.0	0.789	0.86
1017	0.58	0.647	0.843	1.0	0.793	0.864
1018	0.62	0.629	0.841	1.0	0.799	0.866
1019	0.66	0.616	0.838	1.0	0.806	0.869
1020	0.7	0.608	0.835	1.0	0.814	0.871
1021	0.74	0.605	0.833	1.0	0.822	0.872
1022	0.78	0.608	0.829	1.0	0.831	0.874
1023	0.82	0.616	0.826	1.0	0.842	0.875
1024	0.851	0.624	0.823	1.0	0.848	0.877
1025	0.875	0.63	0.82	1.0	0.852	0.878
1026	0.891	0.636	0.818	1.0	0.852	0.88
1027	0.899	0.641	0.816	1.0	0.849	0.881
1028	0.899	0.645	0.814	1.0	0.842	0.883
1029	0.899	0.65	0.813	1.0	0.837	0.884
1030	0.899	0.657	0.813	1.0	0.834	0.886
1031	0.899	0.664	0.813	1.0	0.832	0.887
1032	0.899	0.673	0.814	1.0	0.831	0.888
1033	0.899	0.684	0.816	1.0	0.832	0.89
1034	0.899	0.695	0.818	1.0	0.833	0.891
1035	0.899	0.707	0.821	1.0	0.834	0.892
1036	0.899	0.719	0.824	1.0	0.833	0.893
1037	0.899	0.733	0.828	1.0	0.833	0.894
1038	0.899	0.747	0.833	1.0	0.832	0.895
1039	0.899	0.755	0.837	1.0	0.833	0.895
1040	0.899	0.757	0.841	1.0	0.836	0.896
1041	0.899	0.753	0.845	1.0	0.841	0.896
1042	0.899	0.743	0.849	1.0	0.848	0.896
1043	0.899	0.727	0.853	1.0	0.857	0.897
1044	0.899	0.713	0.857	1.0	0.867	0.897
1045	0.899	0.702	0.86	1.0	0.878	0.897
1046	0.899	0.695	0.863	1.0	0.89	0.898
1047	0.899	0.69	0.866	1.0	0.903	0.898
1048	0.899	0.688	0.868	1.0	0.917	0.899
1049	0.899	0.689	0.87	1.0	0.927	0.9
1050	0.899	0.693	0.872	1.0	0.934	0.901
1051	0.899	0.701	0.874	1.0	0.937	0.902
1052	0.899	0.712	0.877	1.0	0.936	0.904
1053	0.899	0.727	0.879	1.0	0.931	0.906
1054	0.899	0.737	0.881	1.0	0.925	0.908
1055	0.899	0.743	0.883	1.0	0.916	0.91
1056	0.899	0.745	0.886	1.0	0.905	0.912
1057	0.899	0.743	0.888	1.0	0.892	0.914
1058	0.899	0.737	0.89	1.0	0.877	0.916
1059	0.899	0.732	0.892	1.0	0.866	0.918
1060	0.899	0.728	0.894	1.0	0.859	0.919
1061	0.899	0.726	0.896	1.0	0.857	0.92
1062	0.899	0.724	0.898	1.0	0.858	0.921
1063	0.899	0.724	0.899	1.0	0.864	0.922
1064	0.899	0.723	0.901	1.0	0.871	0.922
1065	0.899	0.721	0.902	1.0	0.882	0.922
1066	0.899	0.717	0.904	1.0	0.894	0.922
1067	0.899	0.712	0.905	1.0	0.909	0.922
1068	0.899	0.706	0.906	1.0	0.926	0.922
1069	0.899	0.702	0.907	1.0	0.938	0.922
1070	0.899	0.699	0.908	1.0	0.947	0.922
1071	0.899	0.698	0.909	1.0	0.951	0.923
1072	0.899	0.698	0.909	1.0	0.951	0.924
1073	0.899	0.7	0.91	1.0	0.946	0.925
1074	0.899	0.705	0.911	1.0	0.942	0.926
1075	0.899	0.714	0.911	1.0	0.938	0.927
1076	0.899	0.726	0.912	1.0	0.934	0.928
1077	0.899	0.741	0.913	1.0	0.931	0.93
1078	0.899	0.759	0.914	1.0	0.928	0.931
1079	0.899	0.776	0.916	1.0	0.923	0.932
1080	0.899	0.792	0.917	1.0	0.918	0.933
1081	0.899	0.807	0.919	1.0	0.911	0.934
1082	0.899	0.82	0.921	1.0	0.904	0.935
1083	0.899	0.833	0.923	1.0	0.895	0.935
1084	0.899	0.839	0.925	1.0	0.889	0.936
1085	0.899	0.839	0.927	1.0	0.887	0.936
1086	0.899	0.833	0.929	1.0	0.888	0.936
1087	0.899	0.82	0.931	1.0	0.892	0.935
1088	0.899	0.802	0.933	1.0	0.9	0.935
1089	0.899	0.784	0.934	1.0	0.908	0.935
1090	0.899	0.768	0.936	1.0	0.917	0.935
1091	0.899	0.752	0.937	1.0	0.927	0.935
1092	0.899	0.737	0.938	1.0	0.937	0.935
1093	0.899	0.722	0.939	1.0	0.949	0.935
1094	0.899	0.716	0.941	1.0	0.957	0.935
1095	0.899	0.716	0.942	1.0	0.961	0.935
1096	0.899	0.724	0.943	1.0	0.962	0.936
1097	0.899	0.739	0.944	1.0	0.961	0.936
1098	0.899	0.761	0.945	1.0	0.955	0.937
1099	0.899	0.781	0.946	1.0	0.951	0.937
1100	0.899	0.798	0.947	1.0	0.949	0.938
1101	0.899	0.811	0.948	1.0	0.948	0.938
1102	0.899	0.822	0.949	1.0	0.949	0.939
1103	0.899	0.831	0.951	1.0	0.951	0.939
1104	0.899	0.837	0.952	1.0	0.953	0.94
1105	0.899	0.841	0.952	1.0	0.955	0.94
1106	0.899	0.843	0.953	1.0	0.957	0.94
1107	0.899	0.843	0.954	1.0	0.959	0.94
1108	0.899	0.841	0.954	1.0	0.961	0.94
1109	0.899	0.836	0.955	1.0	0.961	0.939
1110	0.899	0.827	0.956	1.0	0.959	0.938
1111	0.899	0.815	0.957	1.0	0.954	0.936
1112	0.899	0.8	0.958	1.0	0.948	0.934
1113	0.899	0.782	0.959	1.0	0.939	0.931
1114	0.899	0.767	0.96	1.0	0.93	0.928
1115	0.899	0.757	0.961	1.0	0.921	0.924
1116	0.899	0.751	0.962	1.0	0.913	0.92
1117	0.899	0.749	0.963	1.0	0.905	0.914
1118	0.899	0.751	0.964	1.0	0.896	0.909
1119	0.899	0.756	0.965	1.0	0.89	0.902
1120	0.899	0.762	0.966	1.0	0.885	0.895
1121	0.899	0.772	0.966	1.0	0.882	0.888
1122	0.899	0.784	0.966	1.0	0.88	0.88
1123	0.899	0.798	0.965	1.0	0.879	0.872
1124	0.899	0.809	0.964	1.0	0.88	0.863
1125	0.899	0.818	0.964	1.0	0.882	0.854
1126	0.899	0.824	0.963	1.0	0.885	0.845
1127	0.899	0.827	0.963	1.0	0.889	0.836
1128	0.899	0.827	0.962	1.0	0.894	0.827
1129	0.899	0.827	0.962	1.0	0.897	0.818
1130	0.899	0.827	0.962	1.0	0.9	0.81
1131	0.899	0.827	0.962	1.0	0.901	0.802
1132	0.899	0.827	0.962	1.0	0.9	0.795
1133	0.899	0.827	0.963	1.0	0.899	0.788
1134	0.891	0.826	0.963	1.0	0.893	0.783
1135	0.875	0.824	0.964	1.0	0.883	0.778
1136	0.851	0.822	0.964	1.0	0.869	0.774
1137	0.82	0.818	0.965	1.0	0.85	0.771
1138	0.78	0.814	0.966	1.0	0.828	0.769
1139	0.74	0.809	0.966	1.0	0.811	0.767
1140	0.7	0.801	0.966	1.0	0.801	0.765
1141	0.66	0.792	0.967	1.0	0.796	0.762
1142	0.62	0.782	0.967	1.0	0.798	0.76
1143	0.58	0.769	0.967	1.0	0.806	0.757
1144	0.548	0.757	0.967	1.0	0.815	0.755
1145	0.524	0.745	0.966	1.0	0.826	0.752
1146	0.508	0.733	0.966	1.0	0.837	0.75
1147	0.5	0.72	0.966	1.0	0.85	0.747
1148	0.5	0.708	0.965	1.0	0.863	0.746
1149	0.5	0.698	0.964	1.0	0.872	0.744
1150	0.5	0.691	0.964	1.0	0.877	0.743
1151	0.5	0.686	0.963	1.0	0.876	0.742
1152	0.5	0.684	0.962	1.0	0.871	0.742
1153	0.5	0.684	0.961	1.0	0.862	0.741
1154	0.5	0.686	0.959	1.0	0.853	0.741
1155	0.5	0.691	0.958	1.0	0.843	0.741
1156	0.5	0.698	0.957	1.0	0.834	0.741
1157	0.5	0.708	0.955	1.0	0.826	0.74
1158	0.5	0.72	0.953	1.0	0.817	0.74
1159	0.5	0.731	0.952	1.0	0.809	0.739
1160	0.5	0.741	0.95	1.0	0.803	0.738
1161	0.5	0.75	0.948	1.0	0.796	0.736
1162	0.5	0.757	0.946	1.0	0.791	0.734
1163	0.5	0.763	0.943	1.0	0.787	0.733
1164	0.5	0.762	0.941	1.0	0.783	0.731
1165	0.5	0.755	0.939	1.0	0.781	0.729
1166	0.5	0.74	0.937	1.0	0.78	0.727
1167	0.5	0.718	0.936	1.0	0.78	0.725
1168	0.5	0.69	0.934	1.0	0.781	0.724
1169	0.5	0.668	0.932	1.0	0.778	0.722
1170	0.5	0.652	0.931	1.0	0.77	0.721
1171	0.5	0.643	0.929	1.0	0.757	0.721
1172	0.5	0.641	0.927	1.0	0.74	0.72
1173	0.5	0.645	0.926	1.0	0.718	0.719
1174	0.5	0.652	0.924	1.0	0.702	0.718
1175	0.5	0.663	0.922	1.0	0.693	0.717
1176	0.5	0.677	0.919	1.0	0.69	0.716
1177	0.5	0.694	0.917	1.0	0.693	0.715
1178	0.5	0.714	0.914	1.0	0.703	0.713
1179	0.5	0.73	0.911	1.0	0.714	0.711
1180	0.5	0.74	0.908	1.0	0.726	0.709
1181	0.5	0.746	0.906	1.0	0.74	0.708
1182	0.5	0.747	0.903	1.0	0.755	0.706
1183	0.5	0.743	0.9	1.0	0.771	0.705
1184	0.5	0.737	0.897	1.0	0.782	0.703
1185	0.5	0.73	0.895	1.0	0.787	0.702
1186	0.5	0.721	0.892	1.0	0.786	0.701
1187	0.5	0.71	0.89	1.0	0.78	0.701
1188	0.5	0.698	0.888	1.0	0.768	0.7
1189	0.5	0.688	0.886	1.0	0.759	0.699
1190	0.5	0.681	0.884	1.0	0.754	0.699
1191	0.5	0.676	0.882	1.0	0.752	0.699
1192	0.5	0.673	0.881	1.0	0.754	0.698
1193	0.5	0.673	0.88	1.0	0.759	0.698
1194	0.5	0.676	0.879	1.0	0.762	0.699
1195	0.5	0.682	0.878	1.0	0.763	0.699
1196	0.5	0.691	0.877	1.0	0.76	0.701
1197	0.5	0.702	0.876	1.0	0.756	0.702
1198	0.5	0.716	0.874	1.0	0.749	0.704
1199	0.5	0.724	0.873	1.0	0.742	0.707
1200	0.5	0.725	0.872	1.0	0.736	0.71
1201	0.5	0.72	0.87	1.0	0.73	0.715
1202	0.5	0.708	0.869	1.0	0.724	0.72
1203	0.5	0.69	0.867	1.0	0.719	0.725
1204	0.5	0.675	0.866	1.0	0.715	0.732
1205	0.5	0.664	0.864	1.0	0.714	0.739
1206	0.5	0.657	0.863	1.0	0.716	0.748
1207	0.5	0.653	0.862	1.0	0.72	0.756
1208	0.5	0.653	0.861	1.0	0.726	0.766
1209	0.5	0.654	0.86	1.0	0.732	0.775
1210	0.5	0.657	0.859	1.0	0.737	0.785
1211	0.5	0.66	0.858	1.0	0.743	0.794
1212	0.5	0.665	0.857	1.0	0.749	0.804
1213	0.5	0.671	0.857	1.0	0.754	0.814
1214	0.5	0.676	0.856	1.0	0.759	0.823
1215	0.5	0.679	0.856	1.0	0.763	0.832
1216	0.5	0.68	0.856	1.0	0.766	0.84
1217	0.5	0.68	0.856	1.0	0.769	0.848
1218	0.5	0.678	0.856	1.0	0.771	0.855
1219	0.5	0.679	0.855	1.0	0.772	0.861
1220	0.5	0.683	0.855	1.0	0.774	0.867
1221	0.5	0.691	0.855	1.0	0.775	0.872
1222	0.5	0.702	0.854	1.0	0.775	0.877
1223	0.5	0.716	0.854	1.0	0.775	0.881
1224	0.508	0.726	0.853	1.0	0.777	0.884
1225	0.524	0.73	0.852	1.0	0.78	0.887
1226	0.548	0.73	0.852	1.0	0.784	0.89
1227	0.58	0.724	0.851	1.0	0.79	0.893
1228	0.62	0.714	0.849	1.0	0.797	0.895
1229	0.66	0.707	0.848	1.0	0.803	0.897
1230	0.7	0.702	0.848	1.0	0.808	0.899
1231	0.74	0.701	0.847	1.0	0.812	0.901
1232	0.78	0.702	0.846	1.0	0.815	0.903
1233	0.82	0.706	0.846	1.0	0.817	0.904
1234	0.851	0.712	0.845	1.0	0.818	0.906
1235	0.875	0.72	0.845	1.0	0.818	0.907
1236	0.891	0.731	0.845	1.0	0.817	0.908
1237	0.899	0.743	0.844	1.0	0.816	0.909
1238	0.899	0.757	0.844	1.0	0.814	0.91
1239	0.899	0.77	0.844	1.0	0.814	0.91
1240	0.899	0.781	0.844	1.0	0.817	0.91
1241	0.899	0.79	0.844	1.0	0.823	0.91
1242	0.899	0.798	0.844	1.0	0.832	0.91
1243	0.899	0.804	0.844	1.0	0.843	0.91
1244	0.899	0.807	0.845	1.0	0.854	0.909
1245	0.899	0.808	0.845	1.0	0.865	0.909
1246	0.899	0.805	0.845	1.0	0.875	0.909
1247	0.899	0.8	0.846	1.0	0.885	0.908
1248	0.899	0.792	0.846	1.0	0.894	0.908
1249	0.899	0.785	0.847	1.0	0.901	0.909
1250	0.899	0.78	0.848	1.0	0.904	0.909
1251	0.899	0.777	0.85	1.0	0.905	0.909
1252	0.899	0.776	0.852	1.0	0.902	0.91
1253	0.899	0.776	0.854	1.0	0.897	0.911
1254	0.899	0.779	0.856	1.0	0.89	0.912
1255	0.899	0.785	0.859	1.0	0.881	0.913
1256	0.899	0.795	0.862	1.0	0.869	0.914
1257	0.899	0.808	0.865	1.0	0.856	0.915
1258	0.899	0.824	0.868	1.0	0.841	0.916
1259	0.899	0.836	0.872	1.0	0.831	0.917
1260	0.899	0.841	0.875	1.0	0.827	0.918
1261	0.899	0.842	0.878	1.0	0.828	0.919
1262	0.899	0.837	0.882	1.0	0.835	0.92
1263	0.899	0.827	0.885	1.0	0.847	0.921
1264	0.899	0.815	0.888	1.0	0.86	0.922
1265	0.899	0.801	0.891	1.0	0.873	0.923
1266	0.899	0.786	0.894	1.0	0.887	0.924
1267	0.899	0.769	0.897	1.0	0.902	0.925
1268	0.899	0.751	0.9	1.0	0.916	0.926
1269	0.899	0.737	0.903	1.0	0.926	0.927
1270	0.899	0.727	0.905	1.0	0.932	0.929
1271	0.899	0.72	0.907	1.0	0.932	0.931
1272	0.899	0.718	0.909	1.0	0.928	0.933
1273	0.899	0.72	0.911	1.0	0.919	0.936
1274	0.899	0.724	0.912	1.0	0.912	0.938
1275	0.899	0.729	0.914	1.0	0.907	0.94
1276	0.899	0.736	0.915	1.0	0.904	0.943
1277	0.899	0.745	0.916	1.0	0.902	0.945
1278	0.899	0.755	0.917	1.0	0.903	0.947
1279	0.899	0.764	0.918	1.0	0.902	0.949
1280	0.899	0.773	0.92	1.0	0.901	0.95
1281	0.899	0.781	0.921	1.0	0.9	0.952
1282	0.899	0.788	0.923	1.0	0.897	0.953
1283	0.899	0.794	0.924	1.0	0.894	0.953
1284	0.899	0.798	0.926	1.0	0.892	0.954
1285	0.899	0.8	0.928	1.0	0.892	0.954
1286	0.899	0.8	0.929	1.0	0.893	0.954
1287	0.899	0.798	0.931	1.0	0.895	0.954
1288	0.899	0.794	0.933	1.0	0.899	0.953
1289	0.899	0.791	0.934	1.0	0.903	0.953
1290	0.899	0.789	0.935	1.0	0.908	0.952
1291	0.899	0.789	0.936	1.0	0.913	0.952
1292	0.899	0.79	0.937	1.0	0.918	0.951
1293	0.899	0.792	0.938	1.0	0.925	0.951
1294	0.899	0.799	0.938	1.0	0.932	0.95
1295	0.899	0.812	0.939	1.0	0.94	0.949
1296	0.899	0.83	0.939	1.0	0.949	0.949
1297	0.899	0.853	0.939	1.0	0.959	0.948
1298	0.899	0.882	0.939	1.0	0.97	0.947
1299	0.899	0.908	0.939	1.0	0.979	0.947
1300	0.899	0.933	0.939	1.0	0.987	0.946
1301	0.899	0.955	0.94	1.0	0.993	0.945
1302	0.899	0.976	0.94	1.0	0.997	0.945
1303	0.899	0.994	0.941	1.0	1.0	0.944
1304	0.899	1.006	0.941	1.0	0.997	0.944
1305	0.899	1.012	0.942	1.0	0.989	0.944
1306	0.899	1.012	0.943	1.0	0.976	0.944
1307	0.899	1.006	0.944	1.0	0.957	0.944
1308	0.899	0.994	0.945	1.0	0.934	0.944
1309	0.899	0.979	0.946	1.0	0.915	0.944
1310	0.899	0.962	0.947	1.0	0.903	0.944
1311	0.899	0.942	0.948	1.0	0.896	0.944
1312	0.899	0.92	0.949	1.0	0.894	0.945
1313	0.899	0.896	0.951	1.0	0.899	0.945
1314	0.899	0.875	0.952	1.0	0.906	0.945
1315	0.899	0.858	0.953	1.0	0.916	0.945
1316	0.899	0.844	0.954	1.0	0.929	0.945
1317	0.899	0.835	0.955	1.0	0.946	0.945
1318	0.899	0.829	0.956	1.0	0.965	0.945
1319	0.899	0.822	0.957	1.0	0.979	0.945
1320	0.899	0.816	0.958	1.0	0.989	0.944
1321	0.899	0.81	0.959	1.0	0.994	0.943
1322	0.899	0.804	0.961	1.0	0.995	0.942
1323	0.899	0.798	0.962	1.0	0.991	0.941
1324	0.899	0.793	0.963	1.0	0.984	0.939
1325	0.899	0.789	0.964	1.0	0.975	0.936
1326	0.899	0.787	0.965	1.0	0.964	0.934
1327	0.899	0.786	0.966	1.0	0.951	0.93
1328	0.899	0.786	0.967	1.0	0.935	0.927
1329	0.899	0.789	0.968	1.0	0.922	0.922
1330	0.899	0.794	0.969	1.0	0.911	0.918
1331	0.899	0.803	0.97	1.0	0.902	0.913
1332	0.899	0.814	0.971	1.0	0.896	0.907
1333	0.899	0.829	0.971	1.0	0.891	0.901
1334	0.899	0.839	0.972	1.0	0.889	0.895
1335	0.899	0.846	0.972	1.0	0.889	0.889
1336	0.899	0.849	0.973	1.0	0.891	0.882
1337	0.899	0.849	0.973	1.0	0.895	0.876
1338	0.899	0.845	0.974	1.0	0.901	0.87
1339	0.899	0.841	0.974	1.0	0.905	0.864
1340	0.899	0.838	0.975	1.0	0.906	0.858
1341	0.899	0.835	0.976	1.0	0.905	0.852
1342	0.899	0.833	0.976	1.0	0.902	0.847
1343	0.899	0.831	0.977	1.0	0.896	0.842
1344	0.891	0.832	0.977	1.0	0.893	0.837
1345	0.875	0.836	0.977	1.0	0.89	0.832
1346	0.851	0.844	0.978	1.0	0.889	0.827
1347	0.82	0.855	0.978	1.0	0.89	0.823
1348	0.78	0.869	0.978	1.0	0.893	0.819
1349	0.74	0.882	0.978	1.0	0.893	0.815
1350	0.7	0.892	0.978	1.0	0.891	0.812
1351	0.66	0.9	0.978	1.0	0.886	0.809
1352	0.62	0.906	0.978	1.0	0.878	0.806
1353	0.58	0.91	0.978	1.0	0.869	0.803
1354	0.548	0.908	0.978	1.0	0.861	0.801
1355	0.524	0.9	0.977	1.0	0.856	0.798
1356	0.508	0.886	0.977	1.0	0.854	0.796
1357	0.5	0.865	0.977	1.0	0.854	0.794
1358	0.5	0.839	0.976	1.0	0.856	0.791
1359	0.5	0.818	0.975	1.0	0.858	0.789
1360	0.5	0.803	0.974	1.0	0.86	0.787
1361	0.5	0.793	0.973	1.0	0.863	0.785
1362	0.5	0.79	0.972	1.0	0.865	0.783
1363	0.5	0.792	0.97	1.0	0.868	0.781
1364	0.5	0.798	0.969	1.0	0.866	0.78
1365	0.5	0.809	0.967	1.0	0.86	0.78
1366	0.5	0.825	0.966	1.0	0.849	0.78
1367	0.5	0.845	0.966	1.0	0.834	0.78
1368	0.5	0.869	0.965	1.0	0.815	0.78
1369	0.5	0.885	0.965	1.0	0.801	0.781
1370	0.5	0.891	0.964	1.0	0.79	0.781
1371	0.5	0.889	0.964	1.0	0.784	0.782
1372	0.5	0.878	0.964	1.0	0.782	0.782
1373	0.5	0.857	0.964	1.0	0.785	0.783
1374	0.5	0.839	0.964	1.0	0.786	0.783
1375	0.5	0.824	0.963	1.0	0.785	0.784
1376	0.5	0.811	0.962	1.0	0.782	0.784
1377	0.5	0.8	0.961	1.0	0.777	0.784
1378	0.5	0.792	0.959	1.0	0.77	0.783
1379	0.5	0.784	0.957	1.0	0.765	0.782
1380	0.5	0.777	0.955	1.0	0.761	0.781
1381	0.5	0.77	0.953	1.0	0.758	0.778
1382	0.5	0.763	0.951	1.0	0.756	0.775
1383	0.5	0.757	0.949	1.0	0.756	0.772
1384	0.5	0.753	0.947	1.0	0.758	0.768
1385	0.5	0.751	0.944	1.0	0.762	0.764
1386	0.5	0.751	0.942	1.0	0.767	0.76
1387	0.5	0.753	0.94	1.0	0.775	0.756
1388	0.5	0.757	0.938	1.0	0.785	0.752
1389	0.5	0.764	0.936	1.0	0.793	0.749
1390	0.5	0.775	0.934	1.0	0.799	0.746
1391	0.5	0.789	0.932	1.0	0.802	0.744
1392	0.5	0.806	0.93	1.0	0.803	0.742
1393	0.5	0.827	0.928	1.0	0.802	0.741
1394	0.5	0.842	0.927	1.0	0.797	0.741
1395	0.5	0.853	0.925	1.0	0.789	0.74
1396	0.5	0.858	0.924	1.0	0.778	0.74
1397	0.5	0.859	0.923	1.0	0.763	0.74
1398	0.5	0.855	0.922	1.0	0.745	0.739
1399	0.5	0.852	0.92	1.0	0.731	0.739
1400	0.5	0.851	0.919	1.0	0.721	0.738
1401	0.5	0.85	0.917	1.0	0.716	0.737
1402	0.5	0.851	0.915	1.0	0.715	0.736
1403	0.5	0.853	0.913	1.0	0.718	0.735
1404	0.5	0.85	0.91	1.0	0.723	0.733
1405	0.5	0.841	0.908	1.0	0.73	0.732
1406	0.5	0.827	0.905	1.0	0.738	0.73
1407	0.5	0.808	0.903	1.0	0.749	0.729
1408	0.5	0.784	0.9	1.0	0.761	0.729
1409	0.5	0.762	0.898	1.0	0.767	0.729
1410	0.5	0.742	0.896	1.0	0.767	0.73
1411	0.5	0.725	0.894	1.0	0.762	0.732
1412	0.5	0.71	0.893	1.0	0.752	0.735
1413	0.5	0.698	0.893	1.0	0.735	0.739
1414	0.5	0.693	0.892	1.0	0.725	0.744
1415	0.5	0.694	0.892	1.0	0.721	0.75
1416	0.5	0.703	0.892	1.0	0.724	0.757
1417	0.5	0.718	0.892	1.0	0.732	0.766
1418	0.5	0.741	0.892	1.0	0.747	0.775
1419	0.5	0.759	0.891	1.0	0.761	0.784
1420	0.5	0.772	0.891	1.0	0.774	0.795
1421	0.5	0.781	0.89	1.0	0.787	0.806
1422	0.5	0.786	0.889	1.0	0.799	0.816
1423	0.5	0.786	0.888	1.0	0.81	0.827
1424	0.5	0.782	0.887	1.0	0.818	0.837
1425	0.5	0.775	0.886	1.0	0.823	0.847
1426	0.5	0.764	0.885	1.0	0.825	0.856
1427	0.5	0.749	0.884	1.0	0.824	0.865
1428	0.5	0.731	0.883	1.0	0.82	0.872
1429	0.5	0.716	0.882	1.0	0.817	0.879
1430	0.5	0.705	0.881	1.0	0.816	0.885
1431	0.5	0.698	0.88	1.0	0.815	0.891
1432	0.5	0.694	0.879	1.0	0.817	0.896
1433	0.5	0.694	0.879	1.0	0.819	0.9
1434	0.508	0.693	0.879	1.0	0.82	0.904
1435	0.524	0.691	0.878	1.0	0.82	0.907
1436	0.548	0.689	0.879	1.0	0.819	0.91
1437	0.58	0.686	0.879	1.0	0.816	0.913
1438	0.62	0.682	0.879	1.0	0.812	0.915
1439	0.66	0.679	0.88	1.0	0.812	0.917
1440	0.7	0.678	0.88	1.0	0.816	0.918
1441	0.74	0.679	0.88	1.0	0.824	0.918
1442	0.78	0.682	0.879	1.0	0.835	0.919
1443	0.82	0.686	0.879	1.0	0.85	0.919
1444	0.851	0.695	0.878	1.0	0.863	0.918
1445	0.875	0.71	0.878	1.0	0.873	0.918
1446	0.891	0.73	0.877	1.0	0.882	0.917
1447	0.899	0.755	0.877	1.0	0.887	0.917
1448	0.899	0.786	0.876	1.0	0.891	0.916
1449	0.899	0.809	0.876	1.0	0.892	0.915
1450	0.899	0.826	0.876	1.0	0.891	0.915
1451	0.899	0.836	0.876	1.0	0.887	0.914
1452	0.899	0.839	0.877	1.0	0.881	0.914
1453	0.899	0.835	0.878	1.0	0.873	0.913
1454	0.899	0.831	0.88	1.0	0.867	0.913
1455	0.899	0.827	0.881	1.0	0.865	0.912
1456	0.899	0.822	0.882	1.0	0.865	0.912
1457	0.899	0.818	0.884	1.0	0.867	0.911
1458	0.899	0.814	0.886	1.0	0.873	0.911
1459	0.899	0.812	0.887	1.0	0.878	0.911
1460	0.899	0.812	0.889	1.0	0.884	0.91
1461	0.899	0.814	0.891	1.0	0.89	0.91
1462	0.899	0.818	0.893	1.0	0.896	0.91
1463	0.899	0.824	0.896	1.0	0.902	0.909
1464	0.899	0.826	0.898	1.0	0.907	0.91
1465	0.899	0.822	0.9	1.0	0.912	0.91
1466	0.899	0.813	0.902	1.0	0.916	0.91
1467	0.899	0.8	0.903	1.0	0.92	0.911
1468	0.899	0.782	0.905	1.0	0.923	0.912
1469	0.899	0.766	0.907	1.0	0.923	0.913
1470	0.899	0.752	0.908	1.0	0.921	0.915
1471	0.899	0.741	0.909	1.0	0.915	0.917
1472	0.899	0.733	0.911	1.0	0.906	0.918
1473	0.899	0.727	0.912	1.0	0.895	0.92
1474	0.899	0.723	0.913	1.0	0.888	0.922
1475	0.899	0.722	0.914	1.0	0.886	0.924
1476	0.899	0.723	0.915	1.0	0.889	0.925
1477	0.899	0.727	0.916	1.0	0.897	0.927
1478	0.899	0.733	0.917	1.0	0.909	0.929
1479	0.899	0.736	0.918	1.0	0.922	0.93
1480	0.899	0.738	0.919	1.0	0.934	0.932
1481	0.899	0.736	0.92	1.0	0.946	0.933
1482	0.899	0.733	0.921	1.0	0.959	0.935
1483	0.899	0.727	0.921	1.0	0.971	0.936
1484	0.899	0.722	0.922	1.0	0.978	0.938
1485	0.899	0.718	0.922	1.0	0.981	0.94
1486	0.899	0.716	0.923	1.0	0.979	0.942
1487	0.899	0.714	0.923	1.0	0.973	0.944
1488	0.899	0.714	0.924	1.0	0.962	0.945
1489	0.899	0.716	0.925	1.0	0.952	0.947
1490	0.899	0.72	0.926	1.0	0.945	0.949
1491	0.899	0.727	0.927	1.0	0.94	0.951
1492	0.899	0.735	0.928	1.0	0.936	0.952
1493	0.899	0.745	0.93	1.0	0.934	0.954
1494	0.899	0.756	0.932	1.0	0.932	0.956
1495	0.899	0.768	0.934	1.0	0.929	0.957
1496	0.899	0.78	0.936	1.0	0.927	0.959
1497	0.899	0.794	0.938	1.0	0.923	0.96
1498	0.899	0.808	0.94	1.0	0.919	0.961
1499	0.899	0.82	0.942	1.0	0.917	0.962
1500	0.899	0.828	0.944	1.0	0.916	0.963
1501	0.899	0.834	0.945	1.0	0.917	0.963
1502	0.899	0.837	0.947	1.0	0.918	0.964
1503	0.899	0.837	0.948	1.0	0.921	0.964
1504	0.899	0.838	0.949	1.0	0.923	0.965
1505	0.899	0.839	0.95	1.0	0.923	0.965
1506	0.899	0.842	0.952	1.0	0.922	0.965
1507	0.899	0.845	0.953	1.0	0.919	0.965
1508	0.899	0.849	0.955	1.0	0.914	0.966
1509	0.899	0.856	0.957	1.0	0.91	0.966
1510	0.899	0.864	0.959	1.0	0.907	0.966
1511	0.899	0.876	0.961	1.0	0.904	0.966
1512	0.899	0.89	0.963	1.0	0.902	0.966
1513	0.899	0.906	0.965	1.0	0.899	0.965
1514	0.899	0.921	0.967	1.0	0.901	0.965
1515	0.899	0.934	0.968	1.0	0.907	0.965
1516	0.899	0.945	0.97	1.0	0.917	0.964
1517	0.899	0.955	0.971	1.0	0.93	0.964
1518	0.899	0.963	0.971	1.0	0.947	0.963
1519	0.899	0.972	0.972	1.0	0.961	0.963
1520	0.899	0.981	0.972	1.0	0.971	0.963
1521	0.899	0.99	0.973	1.0	0.977	0.963
1522	0.899	1.0	0.973	1.0	0.98	0.963
1523	0.899	1.01	0.974	1.0	0.978	0.964
1524	0.899	1.016	0.975	1.0	0.975	0.964
1525	0.899	1.017	0.975	1.0	0.968	0.965
1526	0.899	1.014	0.976	1.0	0.96	0.965
1527	0.899	1.006	0.977	1.0	0.949	0.965
1528	0.899	0.994	0.978	1.0	0.935	0.966
1529	0.899	0.984	0.979	1.0	0.925	0.965
1530	0.899	0.976	0.98	1.0	0.918	0.965
1531	0.899	0.969	0.981	1.0	0.914	0.964
1532	0.899	0.965	0.982	1.0	0.914	0.962
1533	0.899	0.963	0.982	1.0	0.918	0.96
1534	0.899	0.961	0.983	1.0	0.919	0.958
1535	0.899	0.958	0.983	1.0	0.918	0.955
1536	0.899	0.955	0.983	1.0	0.914	0.951
1537	0.899	0.951	0.983	1.0	0.908	0.947
1538	0.899	0.947	0.983	1.0	0.9	0.943
1539	0.899	0.941	0.983	1.0	0.892	0.938
1540	0.899	0.933	0.983	1.0	0.885	0.933
1541	0.899	0.922	0.983	1.0	0.878	0.927
1542	0.899	0.91	0.982	1.0	0.872	0.922
1543	0.899	0.896	0.982	1.0	0.866	0.916
1544	0.899	0.889	0.981	1.0	0.863	0.91
1545	0.899	0.888	0.981	1.0	0.861	0.904
1546	0.899	0.895	0.98	1.0	0.862	0.899
1547	0.899	0.908	0.979	1.0	0.865	0.893
1548	0.899	0.929	0.979	1.0	0.871	0.887
1549	0.899	0.949	0.978	1.0	0.872	0.881
1550	0.899	0.968	0.978	1.0	0.871	0.876
1551	0.899	0.987	0.978	1.0	0.866	0.87
1552	0.899	1.006	0.978	1.0	0.858	0.865
1553	0.899	1.024	0.978	1.0	0.847	0.859
1554	0.891	1.037	0.978	1.0	0.839	0.853
1555	0.875	1.043	0.977	1.0	0.835	0.847
1556	0.851	1.043	0.977	1.0	0.835	0.842
1557	0.82	1.037	0.977	1.0	0.839	0.836
1558	0.78	1.024	0.976	1.0	0.846	0.832
1559	0.74	1.011	0.976	1.0	0.853	0.828
1560	0.7	0.995	0.976	1.0	0.858	0.825
1561	0.66	0.978	0.976	1.0	0.863	0.823
1562	0.62	0.959	0.976	1.0	0.867	0.822
1563	0.58	0.939	0.977	1.0	0.87	0.821
1564	0.548	0.918	0.977	1.0	0.87	0.821
1565	0.524	0.898	0.978	1.0	0.868	0.821
1566	0.508	0.878	0.978	1.0	0.864	0.821
1567	0.5	0.857	0.979	1.0	0.857	0.822
1568	0.5	0.837	0.979	1.0	0.848	0.822
1569	0.5	0.821	0.98	1.0	0.839	0.822
1570	0.5	0.811	0.979	1.0	0.831	0.823
1571	0.5	0.805	0.978	1.0	0.822	0.823
1572	0.5	0.804	0.977	1.0	0.814	0.822
1573	0.5	0.808	0.976	1.0	0.807	0.822
1574	0.5	0.817	0.974	1.0	0.799	0.821
1575	0.5	0.83	0.972	1.0	0.791	0.821
1576	0.5	0.847	0.971	1.0	0.782	0.819
1577	0.5	0.869	0.969	1.0	0.774	0.818
1578	0.5	0.896	0.967	1.0	0.765	0.816
1579	0.5	0.913	0.966	1.0	0.76	0.814
1580	0.5	0.922	0.965	1.0	0.757	0.812
1581	0.5	0.922	0.964	1.0	0.757	0.809
1582	0.5	0.912	0.963	1.0	0.761	0.805
1583	0.5	0.894	0.962	1.0	0.767	0.802
1584	0.5	0.88	0.962	1.0	0.774	0.799
1585	0.5	0.869	0.961	1.0	0.782	0.795
1586	0.5	0.863	0.961	1.0	0.79	0.792
1587	0.5	0.861	0.96	1.0	0.799	0.789
1588	0.5	0.863	0.959	1.0	0.809	0.787
1589	0.5	0.867	0.959	1.0	0.814	0.784
1590	0.5	0.873	0.958	1.0	0.815	0.782
1591	0.5	0.882	0.956	1.0	0.811	0.78
1592	0.5	0.892	0.955	1.0	0.803	0.778
1593	0.5	0.904	0.953	1.0	0.791	0.777
1594	0.5	0.913	0.952	1.0	0.78	0.775
1595	0.5	0.918	0.95	1.0	0.772	0.773
1596	0.5	0.919	0.948	1.0	0.766	0.771
1597	0.5	0.916	0.946	1.0	0.762	0.769
1598	0.5	0.91	0.943	1.0	0.76	0.767
1599	0.5	0.905	0.941	1.0	0.76	0.765
1600	0.5	0.9	0.939	1.0	0.762	0.764
1601	0.5	0.897	0.937	1.0	0.767	0.762
1602	0.5	0.894	0.936	1.0	0.774	0.762
1603	0.5	0.892	0.934	1.0	0.783	0.761
1604	0.5	0.886	0.932	1.0	0.789	0.761
1605	0.5	0.876	0.93	1.0	0.791	0.762
1606	0.5	0.861	0.928	1.0	0.789	0.763
1607	0.5	0.843	0.926	1.0	0.783	0.763
1608	0.5	0.82	0.924	1.0	0.773	0.764
1609	0.5	0.804	0.922	1.0	0.765	0.766
1610	0.5	0.794	0.919	1.0	0.758	0.767
1611	0.5	0.79	0.917	1.0	0.753	0.768
1612	0.5	0.792	0.915	1.0	0.749	0.769
1613	0.5	0.8	0.913	1.0	0.746	0.769
1614	0.5	0.808	0.911	1.0	0.744	0.77
1615	0.5	0.815	0.909	1.0	0.743	0.771
1616	0.5	0.822	0.907	1.0	0.743	0.772
1617	0.5	0.829	0.905	1.0	0.743	0.773
1618	0.5	0.835	0.903	1.0	0.745	0.774
1619	0.5	0.836	0.902	1.0	0.744	0.776
1620	0.5	0.832	0.901	1.0	0.742	0.778
1621	0.5	0.824	0.9	1.0	0.739	0.781
1622	0.5	0.81	0.899	1.0	0.734	0.784
1623	0.5	0.792	0.898	1.0	0.727	0.788
1624	0.5	0.78	0.898	1.0	0.721	0.793
1625	0.5	0.773	0.898	1.0	0.718	0.798
1626	0.5	0.773	0.898	1.0	0.716	0.804
1627	0.5	0.78	0.898	1.0	0.716	0.81
1628	0.5	0.792	0.899	1.0	0.718	0.816
1629	0.5	0.804	0.899	1.0	0.722	0.823
1630	0.5	0.816	0.899	1.0	0.727	0.83
1631	0.5	0.829	0.899	1.0	0.734	0.837
1632	0.5	0.841	0.898	1.0	0.743	0.844
1633	0.5	0.853	0.897	1.0	0.754	0.85
1634	0.5	0.862	0.895	1.0	0.764	0.857
1635	0.5	0.869	0.894	1.0	0.772	0.863
1636	0.5	0.873	0.893	1.0	0.779	0.869
1637	0.5	0.873	0.891	1.0	0.785	0.874
1638	0.5	0.871	0.889	1.0	0.79	0.879
1639	0.5	0.87	0.888	1.0	0.795	0.884
1640	0.5	0.87	0.886	1.0	0.799	0.889
1641	0.5	0.87	0.885	1.0	0.803	0.893
1642	0.5	0.871	0.884	1.0	0.807	0.897
1643	0.5	0.873	0.883	1.0	0.811	0.901
1644	0.508	0.873	0.882	1.0	0.813	0.905
1645	0.524	0.871	0.881	1.0	0.814	0.908
1646	0.548	0.867	0.88	1.0	0.813	0.911
1647	0.58	0.861	0.879	1.0	0.811	0.914
1648	0.62	0.853	0.879	1.0	0.807	0.917
1649	0.66	0.844	0.878	1.0	0.805	0.919
1650	0.7	0.834	0.878	1.0	0.803	0.921
1651	0.74	0.824	0.878	1.0	0.802	0.922
1652	0.78	0.812	0.878	1.0	0.803	0.923
1653	0.82	0.8	0.878	1.0	0.804	0.924
1654	0.851	0.791	0.878	1.0	0.807	0.925
1655	0.875	0.784	0.878	1.0	0.812	0.926
1656	0.891	0.78	0.878	1.0	0.818	0.926
1657	0.899	0.78	0.879	1.0	0.826	0.927
1658	0.899	0.782	0.879	1.0	0.836	0.927
1659	0.899	0.783	0.88	1.0	0.843	0.927
1660	0.899	0.783	0.881	1.0	0.848	0.928
1661	0.899	0.783	0.882	1.0	0.851	0.928
1662	0.899	0.782	0.883	1.0	0.851	0.929
1663	0.899	0.78	0.884	1.0	0.85	0.929
1664	0.899	0.78	0.885	1.0	0.849	0.929
1665	0.899	0.782	0.886	1.0	0.851	0.929
1666	0.899	0.786	0.887	1.0	0.854	0.93
1667	0.899	0.792	0.888	1.0	0.859	0.93
1668	0.899	0.8	0.889	1.0	0.865	0.93
1669	0.899	0.809	0.89	1.0	0.872	0.93
1670	0.899	0.819	0.891	1.0	0.879	0.931
1671	0.899	0.829	0.892	1.0	0.886	0.931
1672	0.899	0.841	0.893	1.0	0.894	0.932
1673	0.899	0.853	0.893	1.0	0.903	0.933
1674	0.899	0.862	0.894	1.0	0.909	0.934
1675	0.899	0.867	0.894	1.0	0.912	0.936
1676	0.899	0.868	0.895	1.0	0.913	0.938
1677	0.899	0.865	0.896	1.0	0.912	0.94
1678	0.899	0.859	0.896	1.0	0.908	0.942
1679	0.899	0.853	0.897	1.0	0.904	0.944
1680	0.899	0.848	0.898	1.0	0.9	0.946
1681	0.899	0.843	0.898	1.0	0.895	0.948
1682	0.899	0.839	0.899	1.0	0.89	0.95
1683	0.899	0.835	0.901	1.0	0.885	0.952
1684	0.899	0.833	0.902	1.0	0.881	0.953
1685	0.899	0.833	0.902	1.0	0.877	0.954
1686	0.899	0.835	0.903	1.0	0.875	0.955
1687	0.899	0.839	0.904	1.0	0.873	0.956
1688	0.899	0.845	0.904	1.0	0.872	0.957
1689	0.899	0.848	0.905	1.0	0.874	0.957
1690	0.899	0.849	0.906	1.0	0.877	0.958
1691	0.899	0.846	0.907	1.0	0.883	0.958
1692	0.899	0.841	0.909	1.0	0.89	0.959
1693	0.899	0.833	0.911	1.0	0.9	0.959
1694	0.899	0.828	0.912	1.0	0.908	0.96
1695	0.899	0.826	0.915	1.0	0.913	0.96
1696	0.899	0.828	0.917	1.0	0.917	0.961
1697	0.899	0.833	0.919	1.0	0.919	0.962
1698	0.899	0.841	0.922	1.0	0.918	0.962
1699	0.899	0.853	0.925	1.0	0.916	0.963
1700	0.899	0.871	0.928	1.0	0.912	0.964
1701	0.899	0.892	0.931	1.0	0.907	0.964
1702	0.899	0.918	0.933	1.0	0.899	0.964
1703	0.899	0.949	0.936	1.0	0.89	0.964
1704	0.899	0.974	0.939	1.0	0.884	0.964
1705	0.899	0.994	0.942	1.0	0.881	0.964
1706	0.899	1.009	0.944	1.0	0.882	0.964
1707	0.899	1.018	0.947	1.0	0.886	0.964
1708	0.899	1.022	0.95	1.0	0.893	0.964
1709	0.899	1.022	0.952	1.0	0.899	0.964
1710	0.899	1.018	0.955	1.0	0.904	0.963
1711	0.899	1.01	0.956	1.0	0.908	0.963
1712	0.899	0.998	0.958	1.0	0.911	0.963
1713	0.899	0.982	0.959	1.0	0.912	0.963
1714	0.899	0.968	0.96	1.0	0.913	0.963
1715	0.899	0.956	0.961	1.0	0.914	0.963
1716	0.899	0.947	0.962	1.0	0.913	0.963
1717	0.899	0.941	0.963	1.0	0.912	0.962
1718	0.899	0.937	0.964	1.0	0.91	0.962
1719	0.899	0.936	0.966	1.0	0.909	0.962
1720	0.899	0.94	0.967	1.0	0.91	0.962
1721	0.899	0.947	0.968	1.0	0.911	0.962
1722	0.899	0.957	0.969	1.0	0.914	0.962
1723	0.899	0.971	0.97	1.0	0.918	0.962
1724	0.899	0.982	0.971	1.0	0.918	0.962
1725	0.899	0.989	0.972	1.0	0.915	0.962
1726	0.899	0.992	0.972	1.0	0.908	0.962
1727	0.899	0.992	0.972	1.0	0.898	0.963
1728	0.899	0.988	0.972	1.0	0.883	0.963
1729	0.899	0.982	0.972	1.0	0.873	0.964
1730	0.899	0.975	0.972	1.0	0.867	0.964
1731	0.899	0.966	0.972	1.0	0.865	0.964
1732	0.899	0.955	0.972	1.0	0.867	0.964
1733	0.899	0.943	0.972	1.0	0.873	0.964
1734	0.899	0.935	0.972	1.0	0.879	0.964
1735	0.899	0.931	0.972	1.0	0.886	0.964
1736	0.899	0.931	0.972	1.0	0.893	0.965
1737	0.899	0.935	0.972	1.0	0.901	0.965
1738	0.899	0.943	0.972	1.0	0.909	0.965
1739	0.899	0.947	0.972	1.0	0.914	0.965
1740	0.899	0.948	0.972	1.0	0.916	0.964
1741	0.899	0.945	0.972	1.0	0.916	0.964
1742	0.899	0.939	0.972	1.0	0.912	0.964
1743	0.899	0.929	0.972	1.0	0.905	0.963
1744	0.899	0.92	0.972	1.0	0.9	0.962
1745	0.899	0.914	0.973	1.0	0.896	0.96
1746	0.899	0.91	0.973	1.0	0.894	0.959
1747	0.899	0.908	0.973	1.0	0.893	0.957
1748	0.899	0.908	0.974	1.0	0.893	0.954
1749	0.899	0.913	0.974	1.0	0.894	0.952
1750	0.899	0.922	0.975	1.0	0.894	0.949
1751	0.899	0.935	0.976	1.0	0.895	0.945
1752	0.899	0.953	0.976	1.0	0.895	0.942
1753	0.899	0.976	0.977	1.0	0.896	0.938
1754	0.899	0.991	0.977	1.0	0.896	0.934
1755	0.899	0.998	0.978	1.0	0.895	0.93
1756	0.899	0.999	0.978	1.0	0.893	0.925
1757	0.899	0.992	0.979	1.0	0.89	0.921
1758	0.899	0.978	0.979	1.0	0.887	0.916
1759	0.899	0.967	0.98	1.0	0.883	0.911
1760	0.899	0.959	0.981	1.0	0.879	0.906
1761	0.899	0.954	0.981	1.0	0.876	0.901
1762	0.899	0.953	0.982	1.0	0.872	0.895
1763	0.899	0.955	0.982	1.0	0.869	0.889
1764	0.899	0.955	0.983	1.0	0.866	0.883
1765	0.899	0.953	0.983	1.0	0.863	0.876
1766	0.899	0.949	0.983	1.0	0.861	0.869
1767	0.899	0.943	0.983	1.0	0.859	0.861
1768	0.899	0.935	0.983	1.0	0.858	0.854
1769	0.891	0.926	0.983	1.0	0.857	0.846
1770	0.875	0.917	0.983	1.0	0.857	0.838
1771	0.851	0.908	0.983	1.0	0.858	0.83
1772	0.82	0.898	0.983	1.0	0.86	0.824
1773	0.78	0.888	0.983	1.0	0.862	0.818
1774	0.74	0.882	0.983	1.0	0.865	0.813
1775	0.7	0.882	0.983	1.0	0.867	0.809
1776	0.66	0.887	0.982	1.0	0.869	0.807
1777	0.62	0.896	0.981	1.0	0.87	0.805
1778	0.58	0.91	0.98	1.0	0.872	0.805
1779	0.548	0.921	0.979	1.0	0.871	0.805
1780	0.524	0.928	0.978	1.0	0.868	0.806
1781	0.508	0.931	0.977	1.0	0.862	0.808
1782	0.5	0.931	0.976	1.0	0.854	0.81
1783	0.5	0.927	0.974	1.0	0.843	0.812
1784	0.5	0.921	0.973	1.0	0.834	0.814
1785	0.5	0.913	0.972	1.0	0.828	0.815
1786	0.5	0.904	0.971	1.0	0.824	0.816
1787	0.5	0.894	0.97	1.0	0.821	0.816
1788	0.5	0.882	0.969	1.0	0.821	0.816
1789	0.5	0.87	0.968	1.0	0.821	0.816
1790	0.5	0.858	0.966	1.0	0.821	0.815
1791	0.5	0.847	0.965	1.0	0.821	0.814
1792	0.5	0.837	0.963	1.0	0.821	0.813
1793	0.5	0.827	0.962	1.0	0.822	0.812
1794	0.5	0.817	0.96	1.0	0.819	0.81
1795	0.5	0.809	0.959	1.0	0.812	0.808
1796	0.5	0.801	0.957	1.0	0.802	0.807
1797	0.5	0.794	0.956	1.0	0.789	0.805
1798	0.5	0.788	0.955	1.0	0.772	0.802
1799	0.5	0.788	0.954	1.0	0.761	0.8
1800	0.5	0.794	0.953	1.0	0.755	0.797
1801	0.5	0.806	0.952	1.0	0.754	0.794
1802	0.5	0.824	0.951	1.0	0.758	0.791
1803	0.5	0.849	0.949	1.0	0.768	0.787
1804	0.5	0.872	0.948	1.0	0.778	0.784
1805	0.5	0.893	0.947	1.0	0.788	0.782
1806	0.5	0.913	0.945	1.0	0.798	0.779
1807	0.5	0.931	0.944	1.0	0.809	0.777
1808	0.5	0.947	0.942	1.0	0.82	0.776
1809	0.5	0.956	0.941	1.0	0.826	0.776
1810	0.5	0.958	0.939	1.0	0.829	0.775
1811	0.5	0.952	0.937	1.0	0.827	0.776
1812	0.5	0.939	0.936	1.0	0.821	0.777
1813	0.5	0.918	0.934	1.0	0.81	0.778
1814	0.5	0.902	0.932	1.0	0.801	0.779
1815	0.5	0.889	0.931	1.0	0.793	0.779
1816	0.5	0.879	0.93	1.0	0.786	0.78
1817	0.5	0.873	0.928	1.0	0.781	0.78
1818	0.5	0.871	0.927	1.0	0.776	0.78
1819	0.5	0.869	0.926	1.0	0.771	0.78
1820	0.5	0.867	0.925	1.0	0.765	0.779
1821	0.5	0.865	0.924	1.0	0.759	0.778
1822	0.5	0.863	0.923	1.0	0.752	0.777
1823	0.5	0.861	0.922	1.0	0.744	0.775
1824	0.5	0.856	0.921	1.0	0.739	0.773
1825	0.5	0.847	0.919	1.0	0.736	0.771
1826	0.5	0.836	0.918	1.0	0.737	0.768
1827	0.5	0.82	0.917	1.0	0.739	0.765
1828	0.5	0.802	0.916	1.0	0.745	0.761
1829	0.5	0.789	0.915	1.0	0.749	0.757
1830	0.5	0.782	0.914	1.0	0.752	0.751
1831	0.5	0.781	0.913	1.0	0.753	0.745
1832	0.5	0.786	0.913	1.0	0.752	0.737
1833	0.5	0.796	0.912	1.0	0.751	0.729
1834	0.5	0.808	0.912	1.0	0.745	0.719
1835	0.5	0.822	0.911	1.0	0.737	0.708
1836	0.5	0.839	0.911	1.0	0.725	0.696
1837	0.5	0.857	0.91	1.0	0.71	0.683
1838	0.5	0.878	0.909	1.0	0.692	0.669
1839	0.5	0.891	0.909	1.0	0.675	0.655
1840	0.5	0.898	0.908	1.0	0.658	0.64
1841	0.5	0.897	0.907	1.0	0.643	0.625
1842	0.5	0.89	0.906	1.0	0.628	0.609
1843	0.5	0.876	0.905	1.0	0.614	0.594
1844	0.5	0.862	0.904	1.0	0.601	0.579
1845	0.5	0.849	0.903	1.0	0.588	0.565
1846	0.5	0.838	0.902	1.0	0.575	0.551
1847	0.5	0.827	0.901	1.0	0.562	0.538
1848	0.5	0.816	0.899	1.0	0.55	0.526
1849	0.5	0.807	0.898	1.0	0.538	0.515
1850	0.5	0.798	0.897	1.0	0.527	0.505
1851	0.5	0.791	0.895	1.0	0.516	0.495
1852	0.5	0.784	0.894	1.0	0.506	0.487
1853	0.5	0.778	0.892	1.0	0.496	0.48
1854	0.49	0.773	0.891	1.0	0.486	0.474
1855	0.47	0.771	0.889	1.0	0.476	0.468
1856	0.44	0.771	0.888	1.0	0.466	0.462
1857	0.4	0.773	0.887	1.0	0.456	0.458
1858	0.35	0.778	0.886	1.0	0.446	0.453
1859	0.3	0.782	0.885	1.0	0.436	0.449
1860	0.25	0.788	0.884	1.0	0.426	0.446
1861	0.2	0.795	0.883	1.0	0.417	0.443
1862	0.15	0.802	0.882	1.0	0.407	0.439
1863	0.1	0.81	0.882	1.0	0.397	0.436
1864	0.06	0.812	0.881	1.0	0.389	0.433
1865	0.03	0.808	0.88	1.0	0.381	0.43
1866	0.01	0.798	0.878	1.0	0.374	0.427
1867	0.0	0.782	0.876	1.0	0.368	0.423
1868	0.0	0.759	0.874	1.0	0.364	0.419
1869	0.0	0.74	0.871	1.0	0.361	0.416
1870	0.0	0.723	0.868	1.0	0.36	0.412
1871	0.0	0.709	0.865	1.0	0.362	0.408
1872	0.0	0.698	0.862	1.0	0.365	0.404
1873	0.0	0.69	0.858	1.0	0.371	0.4
1874	0.0	0.684	0.854	1.0	0.374	0.396
1875	0.0	0.68	0.849	1.0	0.376	0.393
1876	0.0	0.678	0.845	1.0	0.376	0.39
1877	0.0	0.678	0.84	1.0	0.375	0.388
1878	0.0	0.68	0.835	1.0	0.371	0.385
1879	0.0	0.678	0.83	1.0	0.364	0.383
1880	0.0	0.674	0.825	1.0	0.353	0.381
1881	0.0	0.666	0.82	1.0	0.338	0.379
1882	0.0	0.655	0.815	1.0	0.32	0.378
1883	0.0	0.641	0.81	1.0	0.298	0.376
1884	0.0	0.63	0.805	1.0	0.28	0.374
1885	0.0	0.623	0.8	1.0	0.264	0.371
1886	0.0	0.62	0.795	1.0	0.253	0.369
1887	0.0	0.62	0.79	1.0	0.245	0.367
1888	0.0	0.624	0.785	1.0	0.24	0.364
1889	0.0	0.626	0.78	1.0	0.239	0.362
1890	0.0	0.624	0.775	1.0	0.241	0.361
1891	0.0	0.62	0.77	1.0	0.246	0.36
1892	0.0	0.612	0.765	1.0	0.254	0.359
1893	0.0	0.602	0.76	1.0	0.266	0.358
1894	0.0	0.591	0.755	1.0	0.278	0.357
1895	0.0	0.579	0.751	1.0	0.291	0.357
1896	0.0	0.567	0.747	1.0	0.304	0.356
1897	0.0	0.553	0.743	1.0	0.318	0.355
1898	0.0	0.539	0.74	1.0	0.332	0.354
1899	0.0	0.528	0.737	1.0	0.342	0.352
1900	0.0	0.52	0.734	1.0	0.348	0.35
1901	0.0	0.516	0.732	1.0	0.349	0.348
1902	0.0	0.514	0.73	1.0	0.347	0.346
1903	0.0	0.516	0.728	1.0	0.341	0.343
1904	0.0	0.518	0.727	1.0	0.33	0.341
1905	0.0	0.519	0.725	1.0	0.314	0.34
1906	0.0	0.52	0.723	1.0	0.294	0.338
1907	0.0	0.52	0.721	1.0	0.269	0.336
1908	0.0	0.52	0.718	1.0	0.24	0.334
1909	0.0	0.518	0.716	1.0	0.219	0.332
1910	0.0	0.512	0.712	1.0	0.204	0.328
1911	0.0	0.503	0.708	1.0	0.197	0.325
1912	0.0	0.492	0.704	1.0	0.197	0.321
1913	0.0	0.478	0.699	1.0	0.205	0.318
1914	0.0	0.47	0.694	1.0	0.213	0.315
1915	0.0	0.469	0.689	1.0	0.223	0.313
1916	0.0	0.474	0.685	1.0	0.235	0.311
1917	0.0	0.486	0.68	1.0	0.247	0.31
1918	0.0	0.504	0.676	1.0	0.261	0.31
1919	0.0	0.519	0.671	1.0	0.269	0.311
1920	0.0	0.53	0.667	1.0	0.271	0.313
1921	0.0	0.537	0.663	1.0	0.266	0.315
1922	0.0	0.541	0.659	1.0	0.256	0.318
1923	0.0	0.541	0.655	1.0	0.239	0.321
1924	0.0	0.537	0.651	1.0	0.224	0.324
1925	0.0	0.53	0.648	1.0	0.211	0.326
1926	0.0	0.519	0.645	1.0	0.2	0.328
1927	0.0	0.504	0.642	1.0	0.19	0.33
1928	0.0	0.486	0.639	1.0	0.182	0.332
1929	0.0	0.473	0.637	1.0	0.175	0.334
1930	0.0	0.466	0.635	1.0	0.17	0.336
1931	0.0	0.465	0.633	1.0	0.167	0.337
1932	0.0	0.469	0.632	1.0	0.165	0.339
1933	0.0	0.48	0.632	1.0	0.165	0.342
1934	0.0	0.48	0.63	1.0	0.164	0.344
1935	0.0	0.471	0.628	1.0	0.163	0.346
1936	0.0	0.451	0.625	1.0	0.162	0.349
1937	0.0	0.422	0.622	1.0	0.16	0.351
1938	0.0	0.384	0.617	1.0	0.159	0.354
1939	0.0	0.359	0.612	1.0	0.161	0.356
1940	0.0	0.348	0.607	1.0	0.166	0.359
1941	0.0	0.351	0.601	1.0	0.175	0.361
1942	0.0	0.367	0.594	1.0	0.187	0.364
1943	0.0	0.398	0.587	1.0	0.203	0.366
1944	0.0	0.431	0.581	1.0	0.217	0.368
1945	0.0	0.465	0.576	1.0	0.229	0.369
1946	0.0	0.502	0.572	1.0	0.239	0.37
1947	0.0	0.541	0.569	1.0	0.248	0.37
1948	0.0	0.582	0.567	1.0	0.254	0.37
1949	0.0	0.611	0.567	1.0	0.257	0.368
1950	0.0	0.628	0.567	1.0	0.258	0.366
1951	0.0	0.633	0.569	1.0	0.256	0.364
1952	0.0	0.627	0.572	1.0	0.251	0.36
1953	0.0	0.608	0.576	1.0	0.244	0.357
1954	0.0	0.596	0.579	1.0	0.235	0.353
1955	0.0	0.59	0.583	1.0	0.225	0.348
1956	0.0	0.59	0.587	1.0	0.213	0.344
1957	0.0	0.596	0.59	1.0	0.201	0.339
1958	0.0	0.608	0.593	1.0	0.187	0.335
1959	0.0	0.62	0.596	1.0	0.174	0.331
1960	0.0	0.631	0.598	1.0	0.162	0.327
1961	0.0	0.642	0.6	1.0	0.152	0.323
1962	0.0	0.653	0.601	1.0	0.143	0.321
1963	0.0	0.663	0.602	1.0	0.134	0.318
1964	0.0	0.674	0.602	1.0	0.13	0.317
1965	0.0	0.685	0.602	1.0	0.129	0.316
1966	0.0	0.696	0.603	1.0	0.132	0.315
1967	0.0	0.708	0.603	1.0	0.138	0.315
1968	0.0	0.72	0.603	1.0	0.147	0.316
1969	0.0	0.729	0.603	1.0	0.157	0.316
1970	0.0	0.733	0.602	1.0	0.166	0.317
1971	0.0	0.733	0.602	1.0	0.174	0.318
1972	0.0	0.729	0.602	1.0	0.182	0.319
1973	0.0	0.72	0.601	1.0	0.189	0.319
1974	0.0	0.708	0.601	1.0	0.196	0.32
1975	0.0	0.691	0.6	1.0	0.201	0.321
1976	0.0	0.669	0.6	1.0	0.205	0.322
1977	0.0	0.643	0.6	1.0	0.208	0.323
1978	0.0	0.612	0.6	1.0	0.209	0.324
1979	0.0	0.582	0.6	1.0	0.21	0.325
1980	0.0	0.553	0.601	1.0	0.21	0.327
1981	0.0	0.525	0.602	1.0	0.209	0.328
1982	0.0	0.498	0.603	1.0	0.207	0.33
1983	0.0	0.471	0.605	1.0	0.204	0.332
1984	0.0	0.449	0.606	1.0	0.203	0.333
1985	0.0	0.431	0.608	1.0	0.204	0.334
1986	0.0	0.416	0.609	1.0	0.206	0.335
1987	0.0	0.406	0.609	1.0	0.211	0.336
1988	0.0	0.4	0.61	1.0	0.218	0.336
1989	0.0	0.398	0.61	1.0	0.228	0.336
1990	0.0	0.401	0.611	1.0	0.24	0.335
1991	0.0	0.409	0.611	1.0	0.255	0.334
1992	0.0	0.42	0.611	1.0	0.273	0.333
1993	0.0	0.437	0.611	1.0	0.293	0.331
1994	0.0	0.45	0.611	1.0	0.308	0.329
1995	0.0	0.461	0.61	1.0	0.317	0.327
1996	0.0	0.469	0.61	1.0	0.321	0.325
1997	0.0	0.473	0.609	1.0	0.318	0.323
1998	0.0	0.476	0.608	1.0	0.311	0.321
1999	0.0	0.478	0.607	1.0	0.299	0.32
2000	0.0	0.482	0.605	1.0	0.285	0.318
2001	0.0	0.487	0.604	1.0	0.266	0.317
2002	0.0	0.492	0.602	1.0	0.244	0.316
2003	0.0	0.498	0.601	1.0	0.218	0.316
2004	0.0	0.506	0.599	1.0	0.195	0.316
2005	0.0	0.516	0.599	1.0	0.177	0.316
2006	0.0	0.529	0.598	1.0	0.161	0.316
2007	0.0	0.543	0.598	1.0	0.149	0.317
2008	0.0	0.559	0.599	1.0	0.141	0.318
2009	0.0	0.571	0.599	1.0	0.134	0.319
2010	0.0	0.58	0.599	1.0	0.13	0.32
2011	0.0	0.584	0.599	1.0	0.127	0.321
2012	0.0	0.584	0.599	1.0	0.126	0.322
2013	0.0	0.58	0.598	1.0	0.127	0.323
2014	0.0	0.573	0.597	1.0	0.13	0.323
2015	0.0	0.565	0.596	1.0	0.133	0.324
2016	0.0	0.555	0.594	1.0	0.136	0.325
2017	0.0	0.543	0.592	1.0	0.141	0.325
2018	0.0	0.529	0.589	1.0	0.146	0.325
2019	0.0	0.516	0.586	1.0	0.151	0.325
2020	0.0	0.506	0.583	1.0	0.156	0.325
2021	0.0	0.498	0.581	1.0	0.159	0.324
2022	0.0	0.492	0.578	1.0	0.162	0.323
2023	0.0	0.488	0.575	1.0	0.165	0.322
2024	0.0	0.485	0.573	1.0	0.167	0.321
2025	0.0	0.483	0.571	1.0	0.17	0.319
2026	0.0	0.483	0.57	1.0	0.172	0.317
2027	0.0	0.484	0.569	1.0	0.174	0.315
2028	0.0	0.486	0.569	1.0	0.176	0.312
2029	0.0	0.489	0.57	1.0	0.177	0.31
2030	0.0	0.492	0.572	1.0	0.176	0.308
2031	0.0	0.497	0.575	1.0	0.173	0.307
2032	0.0	0.502	0.578	1.0	0.169	0.305
2033	0.0	0.508	0.583	1.0	0.164	0.304
2034	0.0	0.512	0.587	1.0	0.158	0.304
2035	0.0	0.514	0.591	1.0	0.152	0.303
2036	0.0	0.514	0.595	1.0	0.146	0.303
2037	0.0	0.512	0.598	1.0	0.14	0.304
2038	0.0	0.508	0.602	1.0	0.134	0.304
2039	0.0	0.505	0.604	1.0	0.13	0.305
2040	0.0	0.502	0.606	1.0	0.128	0.306
2041	0.0	0.501	0.608	1.0	0.129	0.308
2042	0.0	0.5	0.608	1.0	0.131	0.309
2043	0.0	0.5	0.608	1.0	0.136	0.31
2044	0.0	0.498	0.608	1.0	0.14	0.311
2045	0.0	0.495	0.608	1.0	0.143	0.311
2046	0.0	0.49	0.607	1.0	0.146	0.312
2047	0.0	0.484	0.606	1.0	0.147	0.312
2048	0.0	0.476	0.605	1.0	0.148	0.311
2049	0.0	0.465	0.604	1.0	0.148	0.31
2050	0.0	0.453	0.603	1.0	0.147	0.309
2051	0.0	0.439	0.602	1.0	0.146	0.307
2052	0.0	0.422	0.602	1.0	0.143	0.306
2053	0.0	0.404	0.601	1.0	0.139	0.304
2054	0.0	0.389	0.601	1.0	0.136	0.302
2055	0.0	0.378	0.601	1.0	0.136	0.301
2056	0.0	0.371	0.601	1.0	0.136	0.299
2057	0.0	0.367	0.601	1.0	0.139	0.299
2058	0.0	0.367	0.602	1.0	0.143	0.298
2059	0.0	0.369	0.602	1.0	0.147	0.298
2060	0.0	0.372	0.603	1.0	0.152	0.298
2061	0.0	0.377	0.603	1.0	0.157	0.298
2062	0.0	0.384	0.604	1.0	0.164	0.298
2063	0.0	0.392	0.604	1.0	0.17	0.299
2064	0.0	0.401	0.605	1.0	0.175	0.299
2065	0.0	0.411	0.605	1.0	0.178	0.3
2066	0.0	0.421	0.605	1.0	0.18	0.3
2067	0.0	0.433	0.604	1.0	0.18	0.301
2068	0.0	0.445	0.604	1.0	0.178	0.302
2069	0.0	0.453	0.603	1.0	0.176	0.303
2070	0.0	0.457	0.603	1.0	0.174	0.304
2071	0.0	0.457	0.602	1.0	0.171	0.305
2072	0.0	0.453	0.602	1.0	0.168	0.306
2073	0.0	0.445	0.601	1.0	0.165	0.307
2074	0.0	0.434	0.601	1.0	0.165	0.308
2075	0.0	0.421	0.6	1.0	0.169	0.309
2076	0.0	0.406	0.6	1.0	0.177	0.31
2077	0.0	0.388	0.6	1.0	0.188	0.312
2078	0.0	0.367	0.6	1.0	0.203	0.313
2079	0.0	0.352	0.6	1.0	0.215	0.314
2080	0.0	0.342	0.6	1.0	0.224	0.314
2081	0.0	0.338	0.599	1.0	0.23	0.314
2082	0.0	0.339	0.599	1.0	0.232	0.315
2083	0.0	0.345	0.598	1.0	0.231	0.315
2084	0.0	0.351	0.598	1.0	0.228	0.315
2085	0.0	0.358	0.597	1.0	0.222	0.315
2086	0.0	0.366	0.597	1.0	0.214	0.315
2087	0.0	0.373	0.596	1.0	0.204	0.315
2088	0.0	0.382	0.596	1.0	0.192	0.316
2089	0.0	0.389	0.595	1.0	0.182	0.318
2090	0.0	0.394	0.595	1.0	0.176	0.32
2091	0.0	0.399	0.595	1.0	0.173	0.322
2092	0.0	0.402	0.596	1.0	0.172	0.326
2093	0.0	0.404	0.596	1.0	0.175	0.329
2094	0.0	0.407	0.597	1.0	0.179	0.333
2095	0.0	0.409	0.598	1.0	0.183	0.336
2096	0.0	0.413	0.599	1.0	0.188	0.34
2097	0.0	0.416	0.601	1.0	0.194	0.343
2098	0.0	0.42	0.602	1.0	0.2	0.345
2099	0.0	0.425	0.604	1.0	0.204	0.347
2100	0.0	0.43	0.606	1.0	0.205	0.347
2101	0.0	0.435	0.607	1.0	0.203	0.347
2102	0.0	0.441	0.609	1.0	0.199	0.346
2103	0.0	0.447	0.611	1.0	0.191	0.344
2104	0.0	0.45	0.612	1.0	0.182	0.342
2105	0.0	0.449	0.614	1.0	0.171	0.339
2106	0.0	0.446	0.616	1.0	0.159	0.335
2107	0.0	0.439	0.617	1.0	0.145	0.331
2108	0.0	0.429	0.619	1.0	0.129	0.327
2109	0.0	0.42	0.62	1.0	0.119	0.323
2110	0.0	0.413	0.622	1.0	0.116	0.319
2111	0.0	0.408	0.623	1.0	0.118	0.316
2112	0.0	0.404	0.624	1.0	0.126	0.312
2113	0.0	0.402	0.626	1.0	0.14	0.309
2114	0.0	0.408	0.627	1.0	0.152	0.307
2115	0.0	0.421	0.627	1.0	0.162	0.304
2116	0.0	0.442	0.628	1.0	0.17	0.302
2117	0.0	0.471	0.629	1.0	0.177	0.3
2118	0.0	0.508	0.629	1.0	0.181	0.298
2119	0.0	0.539	0.63	1.0	0.183	0.296
2120	0.0	0.564	0.631	1.0	0.182	0.294
2121	0.0	0.584	0.631	1.0	0.178	0.292
2122	0.0	0.598	0.632	1.0	0.172	0.29
2123	0.0	0.606	0.632	1.0	0.162	0.288
2124	0.0	0.607	0.633	1.0	0.154	0.286
2125	0.0	0.602	0.633	1.0	0.147	0.284
2126	0.0	0.589	0.633	1.0	0.141	0.282
2127	0.0	0.569	0.632	1.0	0.135	0.28
2128	0.0	0.543	0.632	1.0	0.131	0.279
2129	0.0	0.516	0.631	1.0	0.127	0.277
2130	0.0	0.49	0.63	1.0	0.123	0.277
2131	0.0	0.463	0.629	1.0	0.118	0.276
2132	0.0	0.437	0.627	1.0	0.114	0.276
2133	0.0	0.41	0.626	1.0	0.109	0.277
2134	0.0	0.388	0.624	1.0	0.105	0.279
2135	0.0	0.369	0.622	1.0	0.102	0.281
2136	0.0	0.355	0.62	1.0	0.1	0.283
2137	0.0	0.345	0.618	1.0	0.098	0.286
2138	0.0	0.339	0.616	1.0	0.097	0.29
2139	0.0	0.334	0.613	1.0	0.1	0.293
2140	0.0	0.331	0.611	1.0	0.106	0.297
2141	0.0	0.33	0.61	1.0	0.116	0.301
2142	0.0	0.331	0.608	1.0	0.13	0.305
2143	0.0	0.333	0.606	1.0	0.147	0.309
2144	0.0	0.331	0.605	1.0	0.163	0.312
2145	0.0	0.326	0.603	1.0	0.177	0.315
2146	0.0	0.317	0.602	1.0	0.19	0.318
2147	0.0	0.304	0.602	1.0	0.202	0.32
2148	0.0	0.288	0.601	1.0	0.213	0.322
2149	0.0	0.273	0.601	1.0	0.219	0.324
2150	0.0	0.26	0.6	1.0	0.223	0.325
2151	0.0	0.249	0.599	1.0	0.223	0.326
2152	0.0	0.239	0.599	1.0	0.219	0.326
2153	0.0	0.231	0.598	1.0	0.212	0.326
2154	0.0	0.226	0.598	1.0	0.205	0.326
2155	0.0	0.225	0.597	1.0	0.199	0.325
2156	0.0	0.228	0.597	1.0	0.194	0.325
2157	0.0	0.235	0.596	1.0	0.189	0.324
2158	0.0	0.245	0.596	1.0	0.185	0.323
2159	0.0	0.26	0.595	1.0	0.183	0.322
2160	0.0	0.279	0.595	1.0	0.182	0.322
2161	0.0	0.302	0.596	1.0	0.182	0.321
2162	0.0	0.331	0.597	1.0	0.184	0.321
2163	0.0	0.363	0.598	1.0	0.188	0.32
2164	0.0	0.393	0.599	1.0	0.191	0.32
2165	0.0	0.42	0.6	1.0	0.193	0.32
2166	0.0	0.444	0.6	1.0	0.195	0.32
2167	0.0	0.465	0.601	1.0	0.196	0.32
2168	0.0	0.484	0.602	1.0	0.197	0.32
2169	0.0	0.499	0.602	1.0	0.196	0.319
2170	0.0	0.511	0.602	1.0	0.196	0.319
2171	0.0	0.519	0.602	1.0	0.195	0.319
2172	0.0	0.524	0.602	1.0	0.193	0.319
2173	0.0	0.527	0.601	1.0	0.191	0.319
2174	0.0	0.527	0.601	1.0	0.188	0.318
2175	0.0	0.527	0.6	1.0	0.185	0.318
2176	0.0	0.525	0.599	1.0	0.181	0.318
2177	0.0	0.522	0.599	1.0	0.177	0.318
2178	0.0	0.518	0.598	1.0	0.172	0.317
2179	0.0	0.513	0.598	1.0	0.168	0.317
2180	0.0	0.508	0.597	1.0	0.164	0.317
2181	0.0	0.501	0.597	1.0	0.161	0.316
2182	0.0	0.494	0.596	1.0	0.158	0.315
2183	0.0	0.486	0.596	1.0	0.156	0.315
2184	0.0	0.48	0.595	1.0	0.158	0.315
2185	0.0	0.476	0.595	1.0	0.164	0.314
2186	0.0	0.473	0.595	1.0	0.174	0.314
2187	0.0	0.473	0.594	1.0	0.187	0.315
2188	0.0	0.476	0.594	1.0	0.205	0.315
2189	0.0	0.478	0.594	1.0	0.221	0.316
2190	0.0	0.48	0.594	1.0	0.235	0.317
2191	0.0	0.482	0.594	1.0	0.247	0.318
2192	0.0	0.484	0.594	1.0	0.257	0.32
2193	0.0	0.486	0.594	1.0	0.265	0.322
2194	0.0	0.487	0.594	1.0	0.272	0.324
2195	0.0	0.486	0.594	1.0	0.277	0.327
2196	0.0	0.484	0.594	1.0	0.28	0.329
2197	0.0	0.482	0.594	1.0	0.281	0.332
2198	0.0	0.478	0.594	1.0	0.281	0.335
2199	0.0	0.474	0.595	1.0	0.281	0.337
2200	0.0	0.472	0.595	1.0	0.281	0.339
2201	0.0	0.47	0.595	1.0	0.28	0.341
2202	0.0	0.469	0.596	1.0	0.28	0.342
2203	0.0	0.469	0.596	1.0	0.279	0.342
2204	0.0	0.467	0.597	1.0	0.276	0.342
2205	0.0	0.463	0.598	1.0	0.271	0.341
2206	0.0	0.457	0.6	1.0	0.263	0.339
2207	0.0	0.449	0.602	1.0	0.252	0.337
2208	0.0	0.439	0.604	1.0	0.239	0.335
2209	0.0	0.431	0.606	1.0	0.226	0.333
2210	0.0	0.427	0.607	1.0	0.214	0.331
2211	0.0	0.425	0.609	1.0	0.202	0.329
2212	0.0	0.427	0.609	1.0	0.19	0.327
2213	0.0	0.431	0.61	1.0	0.178	0.325
2214	0.0	0.438	0.61	1.0	0.168	0.323
2215	0.0	0.447	0.609	1.0	0.16	0.322
2216	0.0	0.46	0.608	1.0	0.154	0.32
2217	0.0	0.476	0.606	1.0	0.149	0.318
2218	0.0	0.494	0.603	1.0	0.147	0.316
2219	0.0	0.513	0.6	1.0	0.144	0.313
2220	0.0	0.533	0.598	1.0	0.141	0.311
2221	0.0	0.554	0.596	1.0	0.138	0.309
2222	0.0	0.576	0.595	1.0	0.135	0.307
2223	0.0	0.598	0.594	1.0	0.132	0.305
2224	0.0	0.615	0.593	1.0	0.13	0.303
2225	0.0	0.626	0.593	1.0	0.128	0.302
2226	0.0	0.631	0.593	1.0	0.127	0.302
2227	0.0	0.631	0.593	1.0	0.127	0.301
2228	0.0	0.624	0.593	1.0	0.127	0.302
2229	0.0	0.614	0.594	1.0	0.129	0.302
2230	0.0	0.599	0.594	1.0	0.132	0.304
2231	0.0	0.579	0.595	1.0	0.137	0.305
2232	0.0	0.555	0.596	1.0	0.142	0.306
2233	0.0	0.527	0.596	1.0	0.149	0.307
2234	0.0	0.504	0.597	1.0	0.156	0.308
2235	0.0	0.488	0.597	1.0	0.163	0.309
2236	0.0	0.478	0.598	1.0	0.169	0.309
2237	0.0	0.473	0.598	1.0	0.175	0.308
2238	0.0	0.476	0.599	1.0	0.18	0.308
2239	0.0	0.474	0.599	1.0	0.186	0.307
2240	0.0	0.47	0.6	1.0	0.192	0.306
2241	0.0	0.462	0.601	1.0	0.197	0.305
2242	0.0	0.451	0.601	1.0	0.203	0.304
2243	0.0	0.437	0.602	1.0	0.21	0.303
2244	0.0	0.422	0.602	1.0	0.214	0.302
2245	0.0	0.406	0.603	1.0	0.216	0.302
2246	0.0	0.389	0.604	1.0	0.217	0.302
2247	0.0	0.371	0.605	1.0	0.215	0.302
2248	0.0	0.353	0.606	1.0	0.212	0.303
2249	0.0	0.341	0.607	1.0	0.209	0.304
2250	0.0	0.336	0.607	1.0	0.205	0.305
2251	0.0	0.337	0.607	1.0	0.202	0.307
2252	0.0	0.345	0.607	1.0	0.198	0.308
2253	0.0	0.359	0.607	1.0	0.194	0.309
2254	0.0	0.374	0.606	1.0	0.191	0.311
2255	0.0	0.389	0.605	1.0	0.188	0.312
2256	0.0	0.404	0.604	1.0	0.185	0.313
2257	0.0	0.42	0.603	1.0	0.182	0.315
2258	0.0	0.437	0.602	1.0	0.18	0.316
2259	0.0	0.448	0.601	1.0	0.176	0.317
2260	0.0	0.453	0.599	1.0	0.171	0.318
2261	0.0	0.454	0.597	1.0	0.164	0.319
2262	0.0	0.449	0.594	1.0	0.155	0.32
2263	0.0	0.439	0.592	1.0	0.144	0.321
2264	0.0	0.43	0.588	1.0	0.135	0.322
2265	0.0	0.422	0.585	1.0	0.127	0.323
2266	0.0	0.416	0.581	1.0	0.122	0.323
2267	0.0	0.41	0.576	1.0	0.118	0.324
2268	0.0	0.406	0.571	1.0	0.116	0.324
2269	0.0	0.407	0.567	1.0	0.114	0.323
2270	0.0	0.411	0.564	1.0	0.114	0.323
2271	0.0	0.421	0.561	1.0	0.113	0.322
2272	0.0	0.435	0.56	1.0	0.114	0.322
2273	0.0	0.453	0.559	1.0	0.115	0.321
2274	0.0	0.469	0.559	1.0	0.115	0.32
2275	0.0	0.482	0.56	1.0	0.115	0.319
2276	0.0	0.493	0.561	1.0	0.115	0.318
2277	0.0	0.502	0.563	1.0	0.114	0.318
2278	0.0	0.508	0.565	1.0	0.112	0.317
2279	0.0	0.513	0.567	1.0	0.112	0.317
