t	P	Rf	HR	Cad	Target_O2	NN_O2
0	0.314	0.404	0.562	1.0	0.429	0.375
1	0.314	0.408	0.563	1.0	0.432	0.381
2	0.314	0.414	0.564	1.0	0.44	0.377
3	0.314	0.423	0.564	1.0	0.441	0.379
4	0.314	0.435	0.566	1.0	0.436	0.374
5	0.314	0.444	0.566	1.0	0.437	0.378
6	0.314	0.448	0.566	1.0	0.444	0.377
7	0.314	0.453	0.566	1.0	0.45	0.378
8	0.314	0.461	0.565	1.0	0.455	0.379
9	0.314	0.47	0.564	1.0	0.462	0.376
10	0.314	0.478	0.562	1.0	0.47	0.379
11	0.314	0.484	0.561	1.0	0.47	0.377
12	0.314	0.49	0.559	1.0	0.462	0.38
13	0.314	0.496	0.558	1.0	0.447	0.38
14	0.314	0.501	0.557	1.0	0.442	0.38
15	0.314	0.505	0.557	1.0	0.445	0.377
16	0.314	0.509	0.558	1.0	0.448	0.379
17	0.314	0.509	0.558	1.0	0.45	0.375
18	0.314	0.508	0.558	1.0	0.448	0.377
19	0.314	0.506	0.557	1.0	0.444	0.374
20	0.314	0.504	0.556	1.0	0.443	0.383
21	0.314	0.504	0.555	1.0	0.45	0.385
22	0.314	0.506	0.554	1.0	0.461	0.388
23	0.314	0.503	0.552	1.0	0.476	0.39
24	0.314	0.494	0.551	1.0	0.48	0.393
25	0.314	0.478	0.549	1.0	0.472	0.395
26	0.314	0.472	0.547	1.0	0.464	0.396
27	0.314	0.474	0.546	1.0	0.455	0.395
28	0.314	0.473	0.546	1.0	0.451	0.392
29	0.314	0.472	0.547	1.0	0.45	0.389
30	0.314	0.469	0.548	1.0	0.446	0.385
31	0.314	0.466	0.549	1.0	0.439	0.382
32	0.314	0.46	0.55	1.0	0.436	0.379
33	0.314	0.464	0.55	1.0	0.437	0.377
34	0.314	0.476	0.551	1.0	0.44	0.376
35	0.314	0.494	0.551	1.0	0.446	0.377
36	0.314	0.502	0.55	1.0	0.449	0.378
37	0.314	0.5	0.549	1.0	0.449	0.38
38	0.314	0.499	0.548	1.0	0.451	0.382
39	0.314	0.492	0.547	1.0	0.453	0.384
40	0.314	0.479	0.546	1.0	0.456	0.386
41	0.314	0.459	0.545	1.0	0.459	0.386
42	0.314	0.45	0.545	1.0	0.462	0.386
43	0.314	0.448	0.545	1.0	0.464	0.387
44	0.314	0.445	0.545	1.0	0.463	0.387
45	0.314	0.442	0.545	1.0	0.461	0.387
46	0.314	0.441	0.544	1.0	0.461	0.387
47	0.314	0.437	0.544	1.0	0.462	0.388
48	0.314	0.432	0.544	1.0	0.463	0.388
49	0.314	0.439	0.544	1.0	0.463	0.389
50	0.314	0.458	0.545	1.0	0.458	0.39
51	0.314	0.483	0.545	1.0	0.447	0.391
52	0.314	0.497	0.546	1.0	0.44	0.392
53	0.314	0.502	0.546	1.0	0.436	0.391
54	0.314	0.505	0.546	1.0	0.435	0.39
55	0.314	0.509	0.546	1.0	0.432	0.386
56	0.314	0.512	0.546	1.0	0.426	0.383
57	0.314	0.518	0.545	1.0	0.419	0.38
58	0.314	0.527	0.544	1.0	0.41	0.379
59	0.314	0.528	0.543	1.0	0.401	0.38
60	0.314	0.523	0.541	1.0	0.399	0.383
61	0.314	0.517	0.541	1.0	0.405	0.386
62	0.314	0.51	0.54	1.0	0.409	0.391
63	0.314	0.507	0.539	1.0	0.413	0.395
64	0.314	0.507	0.539	1.0	0.416	0.399
65	0.314	0.506	0.538	1.0	0.418	0.403
66	0.314	0.504	0.537	1.0	0.421	0.406
67	0.314	0.503	0.535	1.0	0.428	0.407
68	0.314	0.501	0.533	1.0	0.437	0.405
69	0.314	0.498	0.531	1.0	0.443	0.399
70	0.314	0.495	0.529	1.0	0.445	0.392
71	0.314	0.496	0.528	1.0	0.448	0.385
72	0.314	0.501	0.526	1.0	0.451	0.378
73	0.314	0.502	0.525	1.0	0.452	0.372
74	0.314	0.498	0.525	1.0	0.451	0.368
75	0.314	0.497	0.526	1.0	0.451	0.366
76	0.314	0.497	0.528	1.0	0.451	0.366
77	0.314	0.497	0.53	1.0	0.452	0.367
78	0.314	0.499	0.533	1.0	0.452	0.369
79	0.314	0.503	0.535	1.0	0.455	0.372
80	0.314	0.508	0.538	1.0	0.46	0.375
81	0.314	0.505	0.539	1.0	0.46	0.377
82	0.314	0.493	0.541	1.0	0.455	0.379
83	0.314	0.478	0.542	1.0	0.448	0.379
84	0.314	0.472	0.543	1.0	0.44	0.379
85	0.314	0.475	0.544	1.0	0.431	0.377
86	0.314	0.48	0.546	1.0	0.431	0.374
87	0.314	0.487	0.547	1.0	0.434	0.371
88	0.314	0.49	0.549	1.0	0.434	0.369
89	0.314	0.491	0.551	1.0	0.432	0.368
90	0.314	0.493	0.552	1.0	0.431	0.369
91	0.314	0.502	0.553	1.0	0.433	0.37
92	0.314	0.516	0.554	1.0	0.436	0.373
93	0.314	0.533	0.555	1.0	0.442	0.377
94	0.314	0.54	0.556	1.0	0.45	0.381
95	0.314	0.536	0.556	1.0	0.462	0.385
96	0.314	0.531	0.555	1.0	0.463	0.389
97	0.314	0.524	0.555	1.0	0.454	0.394
98	0.314	0.521	0.554	1.0	0.451	0.399
99	0.314	0.521	0.554	1.0	0.454	0.403
100	0.314	0.517	0.553	1.0	0.458	0.406
101	0.314	0.51	0.553	1.0	0.462	0.409
102	0.314	0.507	0.552	1.0	0.469	0.411
103	0.314	0.507	0.551	1.0	0.475	0.413
104	0.314	0.509	0.549	1.0	0.479	0.415
105	0.314	0.515	0.548	1.0	0.483	0.418
106	0.314	0.518	0.547	1.0	0.491	0.421
107	0.314	0.52	0.547	1.0	0.492	0.424
108	0.314	0.518	0.547	1.0	0.493	0.426
109	0.314	0.513	0.547	1.0	0.493	0.426
110	0.314	0.512	0.548	1.0	0.496	0.426
111	0.314	0.516	0.548	1.0	0.504	0.426
112	0.314	0.518	0.548	1.0	0.507	0.428
113	0.314	0.52	0.549	1.0	0.506	0.433
114	0.314	0.521	0.549	1.0	0.5	0.44
115	0.314	0.521	0.549	1.0	0.487	0.448
116	0.314	0.522	0.549	1.0	0.475	0.457
117	0.314	0.526	0.549	1.0	0.477	0.466
118	0.314	0.532	0.549	1.0	0.476	0.476
119	0.314	0.541	0.549	1.0	0.497	0.486
120	0.314	0.544	0.549	1.0	0.513	0.498
121	0.314	0.542	0.55	1.0	0.525	0.511
122	0.314	0.532	0.55	1.0	0.534	0.527
123	0.314	0.514	0.55	1.0	0.546	0.544
124	0.314	0.488	0.55	1.0	0.564	0.561
125	0.314	0.477	0.549	1.0	0.588	0.578
126	0.314	0.478	0.548	1.0	0.607	0.595
127	0.314	0.48	0.546	1.0	0.621	0.612
128	0.314	0.484	0.543	1.0	0.64	0.628
129	0.314	0.486	0.54	1.0	0.638	0.642
130	0.314	0.491	0.537	1.0	0.636	0.653
131	0.314	0.498	0.535	1.0	0.633	0.66
132	0.314	0.511	0.534	1.0	0.634	0.663
133	0.314	0.531	0.534	1.0	0.639	0.664
134	0.314	0.559	0.534	1.0	0.644	0.663
135	0.314	0.568	0.535	1.0	0.648	0.661
136	0.314	0.559	0.536	1.0	0.654	0.659
137	0.314	0.55	0.537	1.0	0.662	0.658
138	0.314	0.54	0.537	1.0	0.665	0.658
139	0.314	0.531	0.538	1.0	0.662	0.658
140	0.314	0.524	0.538	1.0	0.661	0.658
141	0.314	0.518	0.537	1.0	0.661	0.657
142	0.314	0.513	0.536	1.0	0.657	0.656
143	0.314	0.509	0.535	1.0	0.649	0.655
144	0.314	0.508	0.534	1.0	0.636	0.654
145	0.314	0.508	0.534	1.0	0.634	0.654
146	0.314	0.509	0.534	1.0	0.643	0.654
147	0.314	0.512	0.535	1.0	0.655	0.655
148	0.314	0.516	0.536	1.0	0.669	0.657
149	0.314	0.519	0.537	1.0	0.68	0.659
150	0.314	0.522	0.538	1.0	0.688	0.661
151	0.314	0.523	0.539	1.0	0.692	0.664
152	0.314	0.522	0.54	1.0	0.697	0.667
153	0.314	0.514	0.541	1.0	0.706	0.671
154	0.314	0.499	0.542	1.0	0.72	0.674
155	0.314	0.482	0.543	1.0	0.727	0.678
156	0.314	0.474	0.544	1.0	0.724	0.681
157	0.314	0.472	0.545	1.0	0.719	0.683
158	0.314	0.471	0.545	1.0	0.712	0.684
159	0.314	0.47	0.545	1.0	0.707	0.685
160	0.314	0.467	0.546	1.0	0.704	0.684
161	0.314	0.467	0.547	1.0	0.703	0.682
162	0.314	0.472	0.547	1.0	0.704	0.68
163	0.314	0.481	0.548	1.0	0.707	0.679
164	0.314	0.496	0.549	1.0	0.705	0.678
165	0.314	0.515	0.548	1.0	0.697	0.678
166	0.336	0.525	0.547	1.0	0.684	0.678
167	0.378	0.527	0.546	1.0	0.679	0.677
168	0.42	0.525	0.545	1.0	0.684	0.676
169	0.462	0.52	0.545	1.0	0.683	0.675
170	0.504	0.518	0.544	1.0	0.683	0.675
171	0.546	0.52	0.543	1.0	0.685	0.675
172	0.588	0.528	0.543	1.0	0.688	0.676
173	0.631	0.537	0.543	1.0	0.687	0.676
174	0.673	0.549	0.544	1.0	0.691	0.676
175	0.715	0.561	0.547	1.0	0.7	0.675
176	0.736	0.574	0.551	1.0	0.714	0.674
177	0.736	0.588	0.556	1.0	0.718	0.674
178	0.736	0.601	0.562	1.0	0.714	0.675
179	0.736	0.613	0.569	1.0	0.715	0.675
180	0.736	0.623	0.576	1.0	0.716	0.675
181	0.736	0.632	0.583	1.0	0.715	0.674
182	0.736	0.639	0.591	1.0	0.717	0.673
183	0.736	0.633	0.598	1.0	0.722	0.671
184	0.736	0.616	0.606	1.0	0.722	0.67
185	0.736	0.588	0.614	1.0	0.723	0.669
186	0.736	0.56	0.621	1.0	0.724	0.668
187	0.736	0.531	0.628	1.0	0.728	0.667
188	0.736	0.504	0.636	1.0	0.73	0.666
189	0.736	0.499	0.643	1.0	0.731	0.666
190	0.736	0.495	0.649	1.0	0.724	0.666
191	0.736	0.491	0.654	1.0	0.709	0.667
192	0.736	0.478	0.659	1.0	0.703	0.669
193	0.736	0.471	0.663	1.0	0.704	0.671
194	0.736	0.477	0.666	1.0	0.71	0.673
195	0.736	0.496	0.668	1.0	0.717	0.675
196	0.736	0.514	0.67	1.0	0.723	0.678
197	0.736	0.533	0.672	1.0	0.728	0.682
198	0.736	0.554	0.673	1.0	0.731	0.685
199	0.736	0.559	0.673	1.0	0.73	0.689
200	0.736	0.562	0.673	1.0	0.735	0.691
201	0.736	0.562	0.674	1.0	0.747	0.693
202	0.736	0.559	0.674	1.0	0.751	0.695
203	0.736	0.552	0.676	1.0	0.747	0.697
204	0.736	0.547	0.677	1.0	0.742	0.697
205	0.736	0.546	0.679	1.0	0.736	0.697
206	0.736	0.546	0.68	1.0	0.729	0.697
207	0.736	0.547	0.682	1.0	0.723	0.696
208	0.736	0.545	0.684	1.0	0.719	0.695
209	0.736	0.538	0.686	1.0	0.719	0.694
210	0.736	0.528	0.687	1.0	0.722	0.693
211	0.736	0.516	0.689	1.0	0.728	0.692
212	0.736	0.509	0.691	1.0	0.73	0.691
213	0.736	0.507	0.692	1.0	0.728	0.69
214	0.736	0.496	0.693	1.0	0.736	0.69
215	0.736	0.485	0.695	1.0	0.741	0.69
216	0.736	0.481	0.695	1.0	0.745	0.69
217	0.736	0.473	0.696	1.0	0.745	0.689
218	0.736	0.465	0.697	1.0	0.746	0.688
219	0.736	0.462	0.697	1.0	0.748	0.686
220	0.736	0.467	0.698	1.0	0.75	0.684
221	0.736	0.473	0.698	1.0	0.75	0.684
222	0.736	0.48	0.699	1.0	0.753	0.684
223	0.736	0.491	0.699	1.0	0.76	0.684
224	0.736	0.509	0.699	1.0	0.756	0.684
225	0.736	0.521	0.699	1.0	0.752	0.683
226	0.736	0.524	0.699	1.0	0.749	0.682
227	0.736	0.528	0.698	1.0	0.749	0.68
228	0.736	0.532	0.698	1.0	0.747	0.679
229	0.736	0.528	0.697	1.0	0.748	0.677
230	0.736	0.516	0.697	1.0	0.75	0.676
231	0.736	0.512	0.697	1.0	0.746	0.673
232	0.736	0.517	0.697	1.0	0.737	0.671
233	0.736	0.527	0.696	1.0	0.721	0.668
234	0.736	0.527	0.695	1.0	0.727	0.664
235	0.736	0.52	0.695	1.0	0.735	0.662
236	0.736	0.508	0.695	1.0	0.744	0.662
237	0.736	0.503	0.695	1.0	0.751	0.662
238	0.736	0.509	0.695	1.0	0.757	0.664
239	0.736	0.516	0.695	1.0	0.755	0.666
240	0.736	0.526	0.696	1.0	0.751	0.668
241	0.736	0.53	0.697	1.0	0.751	0.67
242	0.736	0.529	0.698	1.0	0.758	0.671
243	0.736	0.522	0.699	1.0	0.772	0.673
244	0.736	0.524	0.7	1.0	0.762	0.675
245	0.736	0.533	0.701	1.0	0.749	0.677
246	0.736	0.548	0.702	1.0	0.739	0.676
247	0.736	0.558	0.703	1.0	0.734	0.674
248	0.736	0.559	0.704	1.0	0.73	0.672
249	0.736	0.561	0.705	1.0	0.731	0.671
250	0.736	0.561	0.706	1.0	0.732	0.672
251	0.736	0.559	0.707	1.0	0.736	0.673
252	0.736	0.56	0.707	1.0	0.741	0.674
253	0.736	0.564	0.709	1.0	0.742	0.674
254	0.736	0.56	0.71	1.0	0.743	0.674
255	0.736	0.552	0.712	1.0	0.75	0.675
256	0.736	0.541	0.714	1.0	0.754	0.676
257	0.736	0.528	0.716	1.0	0.755	0.677
258	0.736	0.521	0.718	1.0	0.753	0.677
259	0.736	0.521	0.72	1.0	0.754	0.677
260	0.736	0.516	0.722	1.0	0.755	0.675
261	0.736	0.505	0.724	1.0	0.751	0.673
262	0.736	0.497	0.725	1.0	0.742	0.671
263	0.736	0.49	0.726	1.0	0.741	0.669
264	0.736	0.489	0.727	1.0	0.742	0.667
265	0.736	0.492	0.728	1.0	0.741	0.665
266	0.736	0.497	0.729	1.0	0.741	0.664
267	0.736	0.506	0.729	1.0	0.741	0.663
268	0.736	0.509	0.73	1.0	0.74	0.662
269	0.736	0.508	0.73	1.0	0.736	0.661
270	0.736	0.513	0.729	1.0	0.728	0.659
271	0.736	0.525	0.729	1.0	0.732	0.657
272	0.736	0.53	0.728	1.0	0.733	0.657
273	0.736	0.528	0.727	1.0	0.722	0.658
274	0.736	0.525	0.725	1.0	0.706	0.658
275	0.736	0.52	0.723	1.0	0.701	0.658
276	0.736	0.519	0.72	1.0	0.708	0.657
277	0.736	0.522	0.718	1.0	0.714	0.656
278	0.736	0.523	0.716	1.0	0.725	0.656
279	0.736	0.522	0.715	1.0	0.733	0.656
280	0.736	0.52	0.714	1.0	0.744	0.658
281	0.736	0.518	0.714	1.0	0.749	0.661
282	0.736	0.521	0.713	1.0	0.757	0.664
283	0.736	0.528	0.713	1.0	0.769	0.667
284	0.736	0.537	0.712	1.0	0.784	0.671
285	0.736	0.543	0.712	1.0	0.787	0.675
286	0.736	0.541	0.712	1.0	0.78	0.679
287	0.736	0.531	0.712	1.0	0.773	0.682
288	0.736	0.534	0.713	1.0	0.765	0.684
289	0.736	0.543	0.713	1.0	0.766	0.684
290	0.736	0.557	0.713	1.0	0.764	0.683
291	0.736	0.569	0.713	1.0	0.76	0.682
292	0.736	0.577	0.713	1.0	0.757	0.679
293	0.736	0.582	0.714	1.0	0.755	0.676
294	0.736	0.584	0.714	1.0	0.756	0.673
295	0.736	0.59	0.714	1.0	0.757	0.67
296	0.736	0.599	0.714	1.0	0.758	0.668
297	0.736	0.611	0.715	1.0	0.76	0.666
298	0.736	0.615	0.715	1.0	0.764	0.666
299	0.736	0.614	0.715	1.0	0.759	0.666
300	0.736	0.609	0.715	1.0	0.756	0.666
301	0.736	0.599	0.715	1.0	0.754	0.665
302	0.736	0.584	0.714	1.0	0.753	0.665
303	0.736	0.564	0.714	1.0	0.753	0.664
304	0.736	0.568	0.713	1.0	0.754	0.663
305	0.736	0.572	0.713	1.0	0.754	0.663
306	0.736	0.574	0.713	1.0	0.754	0.663
307	0.736	0.575	0.713	1.0	0.751	0.664
308	0.736	0.572	0.713	1.0	0.745	0.665
309	0.736	0.572	0.713	1.0	0.747	0.666
310	0.736	0.573	0.713	1.0	0.751	0.668
311	0.736	0.583	0.713	1.0	0.754	0.67
312	0.736	0.598	0.713	1.0	0.758	0.672
313	0.736	0.619	0.714	1.0	0.762	0.674
314	0.736	0.604	0.714	1.0	0.764	0.676
315	0.736	0.58	0.715	1.0	0.764	0.678
316	0.736	0.572	0.716	1.0	0.767	0.68
317	0.736	0.579	0.716	1.0	0.77	0.681
318	0.736	0.589	0.716	1.0	0.775	0.682
319	0.736	0.594	0.715	1.0	0.773	0.682
320	0.736	0.591	0.714	1.0	0.77	0.682
321	0.736	0.587	0.714	1.0	0.768	0.681
322	0.736	0.586	0.713	1.0	0.764	0.68
323	0.736	0.586	0.713	1.0	0.757	0.678
324	0.736	0.597	0.713	1.0	0.758	0.677
325	0.736	0.622	0.714	1.0	0.756	0.675
326	0.736	0.632	0.714	1.0	0.752	0.674
327	0.736	0.628	0.714	1.0	0.749	0.672
328	0.736	0.628	0.714	1.0	0.746	0.671
329	0.736	0.628	0.715	1.0	0.745	0.67
330	0.736	0.637	0.715	1.0	0.744	0.67
331	0.736	0.639	0.716	1.0	0.744	0.669
332	0.736	0.634	0.716	1.0	0.747	0.669
333	0.736	0.639	0.716	1.0	0.753	0.669
334	0.736	0.643	0.716	1.0	0.751	0.669
335	0.736	0.645	0.714	1.0	0.751	0.669
336	0.736	0.644	0.714	1.0	0.753	0.668
337	0.736	0.641	0.713	1.0	0.756	0.668
338	0.736	0.632	0.712	1.0	0.759	0.668
339	0.736	0.625	0.712	1.0	0.763	0.669
340	0.736	0.62	0.711	1.0	0.765	0.669
341	0.736	0.634	0.712	1.0	0.77	0.669
342	0.736	0.642	0.712	1.0	0.772	0.67
343	0.736	0.628	0.713	1.0	0.774	0.671
344	0.736	0.605	0.714	1.0	0.773	0.672
345	0.736	0.591	0.714	1.0	0.768	0.672
346	0.736	0.586	0.715	1.0	0.757	0.673
347	0.736	0.58	0.715	1.0	0.739	0.673
348	0.736	0.573	0.716	1.0	0.75	0.672
349	0.736	0.572	0.716	1.0	0.759	0.672
350	0.736	0.573	0.717	1.0	0.767	0.673
351	0.736	0.565	0.716	1.0	0.771	0.676
352	0.736	0.568	0.716	1.0	0.777	0.681
353	0.736	0.583	0.716	1.0	0.778	0.686
354	0.736	0.605	0.716	1.0	0.783	0.692
355	0.736	0.617	0.717	1.0	0.794	0.699
356	0.736	0.619	0.718	1.0	0.81	0.705
357	0.736	0.625	0.718	1.0	0.832	0.712
358	0.736	0.635	0.72	1.0	0.825	0.719
359	0.736	0.641	0.721	1.0	0.819	0.725
360	0.736	0.641	0.722	1.0	0.814	0.729
361	0.736	0.638	0.723	1.0	0.809	0.732
362	0.736	0.632	0.725	1.0	0.805	0.733
363	0.736	0.624	0.726	1.0	0.805	0.733
364	0.736	0.619	0.728	1.0	0.801	0.733
365	0.736	0.618	0.728	1.0	0.802	0.732
366	0.736	0.622	0.729	1.0	0.801	0.731
367	0.736	0.622	0.729	1.0	0.8	0.73
368	0.736	0.621	0.729	1.0	0.798	0.729
369	0.736	0.619	0.729	1.0	0.798	0.728
370	0.736	0.615	0.729	1.0	0.795	0.727
371	0.736	0.608	0.729	1.0	0.795	0.726
372	0.736	0.603	0.729	1.0	0.794	0.725
373	0.736	0.601	0.729	1.0	0.797	0.725
374	0.736	0.597	0.729	1.0	0.801	0.725
375	0.736	0.591	0.729	1.0	0.8	0.726
376	0.736	0.585	0.73	1.0	0.798	0.727
377	0.736	0.583	0.73	1.0	0.796	0.728
378	0.736	0.583	0.731	1.0	0.799	0.73
379	0.736	0.583	0.732	1.0	0.791	0.731
380	0.736	0.589	0.732	1.0	0.774	0.733
381	0.736	0.594	0.733	1.0	0.761	0.734
382	0.736	0.598	0.733	1.0	0.75	0.735
383	0.736	0.602	0.733	1.0	0.743	0.735
384	0.736	0.609	0.733	1.0	0.742	0.736
385	0.736	0.619	0.733	1.0	0.747	0.737
386	0.736	0.628	0.734	1.0	0.754	0.738
387	0.736	0.634	0.734	1.0	0.762	0.741
388	0.736	0.64	0.735	1.0	0.767	0.745
389	0.736	0.643	0.735	1.0	0.782	0.75
390	0.736	0.644	0.736	1.0	0.806	0.756
391	0.736	0.649	0.736	1.0	0.824	0.761
392	0.736	0.65	0.737	1.0	0.839	0.767
393	0.736	0.647	0.738	1.0	0.848	0.772
394	0.736	0.65	0.738	1.0	0.851	0.776
395	0.736	0.651	0.738	1.0	0.848	0.778
396	0.736	0.649	0.738	1.0	0.842	0.78
397	0.736	0.651	0.738	1.0	0.836	0.78
398	0.736	0.655	0.738	1.0	0.83	0.779
399	0.736	0.659	0.737	1.0	0.826	0.776
400	0.736	0.66	0.737	1.0	0.825	0.773
401	0.736	0.66	0.737	1.0	0.827	0.77
402	0.736	0.663	0.737	1.0	0.821	0.768
403	0.736	0.672	0.737	1.0	0.813	0.765
404	0.736	0.676	0.737	1.0	0.809	0.763
405	0.736	0.677	0.738	1.0	0.808	0.762
406	0.744	0.68	0.738	1.0	0.812	0.761
407	0.761	0.684	0.738	1.0	0.816	0.761
408	0.778	0.683	0.739	1.0	0.818	0.762
409	0.794	0.682	0.74	1.0	0.819	0.763
410	0.811	0.683	0.741	1.0	0.817	0.764
411	0.828	0.686	0.742	1.0	0.815	0.765
412	0.844	0.69	0.742	1.0	0.818	0.767
413	0.861	0.689	0.743	1.0	0.817	0.768
414	0.878	0.68	0.744	1.0	0.807	0.77
415	0.894	0.669	0.745	1.0	0.806	0.77
416	0.903	0.651	0.746	1.0	0.816	0.771
417	0.903	0.625	0.747	1.0	0.825	0.771
418	0.903	0.622	0.748	1.0	0.833	0.772
419	0.903	0.616	0.749	1.0	0.839	0.773
420	0.903	0.609	0.751	1.0	0.844	0.774
421	0.903	0.602	0.753	1.0	0.846	0.775
422	0.903	0.597	0.755	1.0	0.848	0.776
423	0.903	0.597	0.757	1.0	0.858	0.777
424	0.903	0.603	0.759	1.0	0.876	0.778
425	0.903	0.615	0.761	1.0	0.882	0.781
426	0.903	0.635	0.762	1.0	0.875	0.783
427	0.903	0.66	0.764	1.0	0.869	0.785
428	0.903	0.666	0.765	1.0	0.864	0.785
429	0.903	0.672	0.766	1.0	0.86	0.785
430	0.903	0.677	0.767	1.0	0.857	0.785
431	0.903	0.679	0.768	1.0	0.861	0.784
432	0.903	0.686	0.768	1.0	0.865	0.784
433	0.903	0.686	0.769	1.0	0.866	0.784
434	0.903	0.682	0.77	1.0	0.864	0.784
435	0.903	0.68	0.77	1.0	0.859	0.784
436	0.903	0.676	0.771	1.0	0.855	0.784
437	0.903	0.672	0.771	1.0	0.855	0.784
438	0.903	0.665	0.772	1.0	0.857	0.783
439	0.903	0.654	0.773	1.0	0.859	0.783
440	0.903	0.653	0.774	1.0	0.862	0.784
441	0.903	0.652	0.775	1.0	0.86	0.785
442	0.903	0.645	0.775	1.0	0.858	0.787
443	0.903	0.641	0.776	1.0	0.86	0.787
444	0.903	0.642	0.776	1.0	0.865	0.788
445	0.903	0.641	0.777	1.0	0.872	0.788
446	0.903	0.639	0.778	1.0	0.877	0.789
447	0.903	0.637	0.778	1.0	0.869	0.79
448	0.903	0.639	0.779	1.0	0.848	0.791
449	0.903	0.635	0.78	1.0	0.846	0.792
450	0.903	0.616	0.78	1.0	0.862	0.792
451	0.903	0.599	0.781	1.0	0.87	0.792
452	0.903	0.584	0.782	1.0	0.875	0.792
453	0.903	0.571	0.783	1.0	0.874	0.793
454	0.903	0.553	0.784	1.0	0.874	0.793
455	0.903	0.53	0.785	1.0	0.875	0.794
456	0.903	0.533	0.786	1.0	0.874	0.794
457	0.903	0.537	0.786	1.0	0.884	0.795
458	0.903	0.542	0.786	1.0	0.905	0.796
459	0.903	0.554	0.786	1.0	0.91	0.798
460	0.903	0.577	0.786	1.0	0.893	0.8
461	0.903	0.6	0.786	1.0	0.886	0.802
462	0.903	0.616	0.785	1.0	0.883	0.804
463	0.903	0.632	0.784	1.0	0.872	0.805
464	0.903	0.651	0.783	1.0	0.848	0.806
465	0.903	0.672	0.782	1.0	0.86	0.806
466	0.903	0.666	0.782	1.0	0.87	0.806
467	0.903	0.659	0.782	1.0	0.876	0.806
468	0.903	0.652	0.782	1.0	0.874	0.806
469	0.903	0.648	0.782	1.0	0.867	0.806
470	0.903	0.641	0.782	1.0	0.86	0.806
471	0.903	0.628	0.783	1.0	0.868	0.807
472	0.903	0.619	0.784	1.0	0.874	0.807
473	0.903	0.607	0.786	1.0	0.888	0.808
474	0.903	0.596	0.788	1.0	0.915	0.808
475	0.903	0.587	0.789	1.0	0.902	0.81
476	0.903	0.585	0.79	1.0	0.891	0.812
477	0.903	0.583	0.791	1.0	0.88	0.813
478	0.903	0.576	0.793	1.0	0.877	0.815
479	0.903	0.572	0.794	1.0	0.88	0.816
480	0.903	0.574	0.795	1.0	0.892	0.817
481	0.903	0.576	0.795	1.0	0.884	0.817
482	0.903	0.577	0.795	1.0	0.879	0.818
483	0.903	0.572	0.796	1.0	0.877	0.818
484	0.903	0.559	0.796	1.0	0.875	0.818
485	0.903	0.556	0.797	1.0	0.878	0.818
486	0.903	0.558	0.798	1.0	0.879	0.818
487	0.903	0.56	0.799	1.0	0.886	0.818
488	0.903	0.564	0.801	1.0	0.892	0.817
489	0.903	0.559	0.802	1.0	0.895	0.817
490	0.903	0.553	0.804	1.0	0.895	0.817
491	0.903	0.553	0.806	1.0	0.898	0.817
492	0.903	0.559	0.807	1.0	0.895	0.817
493	0.903	0.576	0.808	1.0	0.892	0.817
494	0.903	0.6	0.809	1.0	0.889	0.818
495	0.903	0.61	0.81	1.0	0.888	0.819
496	0.903	0.607	0.811	1.0	0.885	0.82
497	0.903	0.605	0.811	1.0	0.874	0.821
498	0.903	0.605	0.812	1.0	0.856	0.821
499	0.903	0.607	0.812	1.0	0.833	0.82
500	0.903	0.604	0.812	1.0	0.84	0.819
501	0.903	0.609	0.812	1.0	0.848	0.818
502	0.903	0.613	0.812	1.0	0.862	0.818
503	0.903	0.615	0.813	1.0	0.872	0.818
504	0.903	0.611	0.814	1.0	0.878	0.819
505	0.903	0.606	0.814	1.0	0.877	0.82
506	0.903	0.603	0.815	1.0	0.88	0.821
507	0.903	0.597	0.816	1.0	0.889	0.822
508	0.903	0.604	0.817	1.0	0.903	0.823
509	0.903	0.613	0.818	1.0	0.923	0.825
510	0.903	0.623	0.819	1.0	0.914	0.827
511	0.903	0.622	0.82	1.0	0.904	0.828
512	0.903	0.62	0.82	1.0	0.897	0.827
513	0.903	0.616	0.821	1.0	0.89	0.826
514	0.903	0.62	0.821	1.0	0.881	0.825
515	0.903	0.63	0.822	1.0	0.873	0.823
516	0.903	0.642	0.823	1.0	0.861	0.821
517	0.903	0.647	0.824	1.0	0.843	0.819
518	0.903	0.629	0.825	1.0	0.821	0.816
519	0.903	0.624	0.825	1.0	0.843	0.812
520	0.903	0.631	0.826	1.0	0.859	0.809
521	0.903	0.634	0.827	1.0	0.868	0.807
522	0.903	0.634	0.828	1.0	0.867	0.807
523	0.903	0.633	0.828	1.0	0.871	0.808
524	0.903	0.63	0.829	1.0	0.876	0.809
525	0.903	0.627	0.83	1.0	0.882	0.81
526	0.903	0.63	0.83	1.0	0.896	0.811
527	0.903	0.643	0.83	1.0	0.915	0.813
528	0.903	0.666	0.831	1.0	0.941	0.815
529	0.903	0.678	0.831	1.0	0.922	0.817
530	0.903	0.682	0.832	1.0	0.905	0.819
531	0.903	0.69	0.832	1.0	0.891	0.82
532	0.903	0.699	0.833	1.0	0.881	0.82
533	0.903	0.698	0.834	1.0	0.875	0.819
534	0.903	0.684	0.834	1.0	0.877	0.817
535	0.903	0.691	0.834	1.0	0.879	0.814
536	0.903	0.691	0.834	1.0	0.877	0.812
537	0.903	0.691	0.834	1.0	0.874	0.81
538	0.903	0.683	0.834	1.0	0.874	0.81
539	0.903	0.681	0.834	1.0	0.874	0.81
540	0.903	0.683	0.834	1.0	0.876	0.811
541	0.903	0.673	0.834	1.0	0.881	0.812
542	0.903	0.665	0.833	1.0	0.892	0.814
543	0.903	0.669	0.833	1.0	0.895	0.816
544	0.903	0.693	0.832	1.0	0.892	0.818
545	0.903	0.695	0.832	1.0	0.891	0.82
546	0.903	0.697	0.832	1.0	0.893	0.821
547	0.903	0.697	0.831	1.0	0.897	0.822
548	0.903	0.707	0.831	1.0	0.894	0.823
549	0.903	0.714	0.83	1.0	0.898	0.823
550	0.903	0.703	0.83	1.0	0.9	0.823
551	0.903	0.712	0.83	1.0	0.901	0.823
552	0.903	0.716	0.83	1.0	0.896	0.823
553	0.903	0.716	0.83	1.0	0.877	0.824
554	0.903	0.71	0.83	1.0	0.844	0.824
555	0.903	0.705	0.83	1.0	0.865	0.824
556	0.903	0.7	0.83	1.0	0.877	0.824
557	0.903	0.697	0.83	1.0	0.88	0.825
558	0.903	0.692	0.83	1.0	0.888	0.825
559	0.903	0.685	0.83	1.0	0.891	0.825
560	0.903	0.687	0.83	1.0	0.896	0.826
561	0.903	0.68	0.83	1.0	0.899	0.826
562	0.903	0.679	0.83	1.0	0.902	0.828
563	0.903	0.683	0.83	1.0	0.921	0.829
564	0.903	0.685	0.83	1.0	0.956	0.831
565	0.903	0.689	0.83	1.0	0.939	0.834
566	0.903	0.685	0.83	1.0	0.927	0.836
567	0.903	0.674	0.83	1.0	0.923	0.838
568	0.903	0.659	0.831	1.0	0.921	0.839
569	0.903	0.641	0.831	1.0	0.914	0.84
570	0.903	0.644	0.832	1.0	0.906	0.841
571	0.903	0.647	0.832	1.0	0.902	0.841
572	0.903	0.645	0.833	1.0	0.898	0.841
573	0.903	0.65	0.834	1.0	0.899	0.84
574	0.903	0.654	0.834	1.0	0.899	0.839
575	0.903	0.656	0.835	1.0	0.899	0.838
576	0.903	0.666	0.836	1.0	0.903	0.836
577	0.903	0.684	0.837	1.0	0.904	0.834
578	0.903	0.703	0.838	1.0	0.903	0.832
579	0.903	0.721	0.838	1.0	0.906	0.83
580	0.903	0.716	0.839	1.0	0.909	0.827
581	0.903	0.714	0.839	1.0	0.908	0.823
582	0.903	0.717	0.839	1.0	0.912	0.819
583	0.903	0.715	0.839	1.0	0.906	0.815
584	0.903	0.714	0.838	1.0	0.902	0.81
585	0.903	0.707	0.838	1.0	0.897	0.804
586	0.903	0.691	0.837	1.0	0.881	0.797
587	0.903	0.667	0.837	1.0	0.856	0.79
588	0.903	0.636	0.836	1.0	0.845	0.782
589	0.903	0.64	0.836	1.0	0.848	0.774
590	0.903	0.641	0.836	1.0	0.85	0.767
591	0.903	0.639	0.836	1.0	0.85	0.762
592	0.903	0.641	0.837	1.0	0.842	0.757
593	0.903	0.643	0.837	1.0	0.842	0.753
594	0.903	0.645	0.838	1.0	0.843	0.749
595	0.903	0.653	0.838	1.0	0.846	0.746
596	0.903	0.67	0.839	1.0	0.858	0.742
597	0.903	0.691	0.839	1.0	0.876	0.739
598	0.903	0.719	0.84	1.0	0.877	0.737
599	0.903	0.721	0.841	1.0	0.865	0.734
600	0.903	0.725	0.842	1.0	0.852	0.729
601	0.903	0.732	0.843	1.0	0.843	0.723
602	0.903	0.715	0.843	1.0	0.842	0.714
603	0.903	0.703	0.844	1.0	0.842	0.703
604	0.903	0.7	0.844	1.0	0.836	0.69
605	0.903	0.693	0.845	1.0	0.828	0.677
606	0.903	0.69	0.845	1.0	0.822	0.664
607	0.903	0.691	0.846	1.0	0.817	0.653
608	0.903	0.693	0.847	1.0	0.816	0.643
609	0.903	0.693	0.847	1.0	0.817	0.635
610	0.903	0.696	0.847	1.0	0.817	0.627
611	0.903	0.699	0.847	1.0	0.819	0.621
612	0.903	0.715	0.847	1.0	0.815	0.615
613	0.903	0.724	0.847	1.0	0.797	0.609
614	0.903	0.728	0.847	1.0	0.772	0.602
615	0.903	0.731	0.848	1.0	0.758	0.592
616	0.903	0.734	0.849	1.0	0.756	0.58
617	0.903	0.735	0.849	1.0	0.755	0.565
618	0.903	0.741	0.85	1.0	0.75	0.549
619	0.903	0.739	0.85	1.0	0.741	0.533
620	0.903	0.736	0.851	1.0	0.733	0.519
621	0.903	0.734	0.851	1.0	0.726	0.507
622	0.903	0.74	0.851	1.0	0.72	0.499
623	0.903	0.735	0.852	1.0	0.722	0.494
624	0.903	0.722	0.852	1.0	0.729	0.491
625	0.903	0.728	0.852	1.0	0.721	0.49
626	0.903	0.725	0.852	1.0	0.695	0.489
627	0.903	0.711	0.852	1.0	0.666	0.487
628	0.903	0.704	0.853	1.0	0.664	0.483
629	0.903	0.705	0.853	1.0	0.662	0.478
630	0.903	0.708	0.854	1.0	0.66	0.472
631	0.903	0.716	0.855	1.0	0.658	0.468
632	0.903	0.72	0.855	1.0	0.652	0.466
633	0.903	0.731	0.856	1.0	0.644	0.465
634	0.903	0.75	0.856	1.0	0.639	0.466
635	0.903	0.75	0.857	1.0	0.638	0.467
636	0.903	0.759	0.857	1.0	0.641	0.468
637	0.903	0.774	0.858	1.0	0.649	0.471
638	0.903	0.778	0.859	1.0	0.635	0.474
639	0.903	0.784	0.859	1.0	0.623	0.477
640	0.903	0.789	0.86	1.0	0.614	0.479
641	0.903	0.784	0.861	1.0	0.605	0.479
642	0.903	0.778	0.861	1.0	0.598	0.477
643	0.903	0.78	0.862	1.0	0.595	0.473
644	0.903	0.775	0.862	1.0	0.597	0.469
645	0.874	0.774	0.863	1.0	0.594	0.464
646	0.816	0.774	0.863	1.0	0.588	0.459
647	0.759	0.778	0.864	1.0	0.578	0.455
648	0.701	0.78	0.864	1.0	0.569	0.451
649	0.644	0.778	0.864	1.0	0.562	0.448
650	0.586	0.777	0.864	1.0	0.557	0.445
651	0.528	0.775	0.864	1.0	0.547	0.443
652	0.471	0.782	0.864	1.0	0.532	0.442
653	0.413	0.78	0.863	1.0	0.511	0.441
654	0.356	0.78	0.862	1.0	0.503	0.439
655	0.327	0.772	0.862	1.0	0.504	0.437
656	0.327	0.752	0.861	1.0	0.513	0.438
657	0.327	0.719	0.86	1.0	0.525	0.44
658	0.327	0.703	0.859	1.0	0.531	0.445
659	0.327	0.696	0.859	1.0	0.53	0.451
660	0.327	0.685	0.858	1.0	0.527	0.457
661	0.327	0.676	0.857	1.0	0.53	0.463
662	0.327	0.659	0.857	1.0	0.538	0.469
663	0.327	0.65	0.856	1.0	0.552	0.474
664	0.327	0.645	0.856	1.0	0.55	0.479
665	0.327	0.643	0.855	1.0	0.541	0.483
666	0.327	0.652	0.855	1.0	0.532	0.484
667	0.327	0.67	0.855	1.0	0.523	0.482
668	0.327	0.676	0.854	1.0	0.519	0.478
669	0.327	0.671	0.852	1.0	0.517	0.473
670	0.327	0.659	0.85	1.0	0.512	0.467
671	0.327	0.641	0.848	1.0	0.506	0.46
672	0.327	0.636	0.845	1.0	0.495	0.453
673	0.327	0.636	0.843	1.0	0.481	0.446
674	0.327	0.636	0.84	1.0	0.463	0.439
675	0.327	0.639	0.837	1.0	0.471	0.431
676	0.327	0.642	0.834	1.0	0.477	0.425
677	0.327	0.643	0.83	1.0	0.48	0.421
678	0.327	0.647	0.827	1.0	0.482	0.421
679	0.327	0.652	0.824	1.0	0.483	0.423
680	0.327	0.662	0.821	1.0	0.485	0.428
681	0.327	0.683	0.818	1.0	0.486	0.434
682	0.327	0.694	0.816	1.0	0.49	0.44
683	0.327	0.681	0.813	1.0	0.502	0.446
684	0.327	0.657	0.81	1.0	0.516	0.453
685	0.327	0.647	0.807	1.0	0.502	0.46
686	0.327	0.65	0.805	1.0	0.491	0.467
687	0.327	0.657	0.802	1.0	0.481	0.471
688	0.327	0.658	0.799	1.0	0.473	0.473
689	0.327	0.653	0.797	1.0	0.471	0.471
690	0.327	0.656	0.795	1.0	0.469	0.468
691	0.327	0.657	0.792	1.0	0.466	0.464
692	0.327	0.655	0.788	1.0	0.466	0.461
693	0.327	0.673	0.785	1.0	0.462	0.457
694	0.327	0.697	0.782	1.0	0.469	0.453
695	0.327	0.698	0.778	1.0	0.479	0.449
696	0.327	0.676	0.775	1.0	0.485	0.444
697	0.327	0.645	0.772	1.0	0.486	0.44
698	0.327	0.644	0.768	1.0	0.487	0.437
699	0.327	0.649	0.764	1.0	0.483	0.434
700	0.327	0.651	0.76	1.0	0.483	0.432
701	0.327	0.655	0.757	1.0	0.486	0.431
702	0.327	0.658	0.755	1.0	0.49	0.429
703	0.327	0.651	0.753	1.0	0.493	0.429
704	0.327	0.653	0.75	1.0	0.49	0.429
705	0.327	0.663	0.748	1.0	0.485	0.43
706	0.327	0.682	0.745	1.0	0.48	0.432
707	0.327	0.711	0.742	1.0	0.473	0.435
708	0.327	0.715	0.738	1.0	0.459	0.437
709	0.327	0.716	0.735	1.0	0.438	0.437
710	0.327	0.714	0.731	1.0	0.43	0.435
711	0.327	0.714	0.726	1.0	0.435	0.432
712	0.327	0.716	0.722	1.0	0.438	0.429
713	0.327	0.719	0.717	1.0	0.442	0.428
714	0.327	0.717	0.712	1.0	0.445	0.429
715	0.327	0.715	0.708	1.0	0.449	0.433
716	0.327	0.711	0.704	1.0	0.454	0.439
717	0.327	0.708	0.7	1.0	0.465	0.445
718	0.327	0.703	0.697	1.0	0.484	0.452
719	0.327	0.699	0.694	1.0	0.512	0.459
720	0.327	0.696	0.691	1.0	0.524	0.466
721	0.327	0.681	0.689	1.0	0.521	0.472
722	0.327	0.659	0.686	1.0	0.521	0.477
723	0.327	0.629	0.684	1.0	0.516	0.479
724	0.327	0.622	0.682	1.0	0.514	0.479
725	0.327	0.622	0.681	1.0	0.512	0.476
726	0.327	0.627	0.68	1.0	0.507	0.47
727	0.327	0.625	0.679	1.0	0.505	0.463
728	0.327	0.623	0.678	1.0	0.503	0.454
729	0.327	0.622	0.677	1.0	0.497	0.445
730	0.327	0.63	0.677	1.0	0.493	0.437
731	0.327	0.645	0.676	1.0	0.49	0.429
732	0.327	0.666	0.676	1.0	0.483	0.422
733	0.327	0.694	0.676	1.0	0.486	0.415
734	0.327	0.7	0.676	1.0	0.485	0.408
735	0.327	0.698	0.675	1.0	0.481	0.401
736	0.327	0.7	0.675	1.0	0.481	0.396
737	0.327	0.706	0.674	1.0	0.48	0.392
738	0.327	0.712	0.673	1.0	0.476	0.389
739	0.327	0.714	0.672	1.0	0.478	0.389
740	0.327	0.707	0.67	1.0	0.477	0.389
741	0.327	0.703	0.669	1.0	0.472	0.39
742	0.327	0.69	0.668	1.0	0.459	0.39
743	0.327	0.666	0.666	1.0	0.432	0.391
744	0.327	0.632	0.665	1.0	0.457	0.391
745	0.327	0.634	0.664	1.0	0.47	0.391
746	0.327	0.63	0.663	1.0	0.468	0.393
747	0.327	0.624	0.662	1.0	0.477	0.398
748	0.327	0.616	0.662	1.0	0.482	0.404
749	0.327	0.611	0.662	1.0	0.478	0.411
750	0.327	0.604	0.662	1.0	0.479	0.419
751	0.327	0.595	0.662	1.0	0.486	0.427
752	0.327	0.597	0.662	1.0	0.498	0.435
753	0.327	0.622	0.662	1.0	0.52	0.442
754	0.327	0.655	0.662	1.0	0.494	0.449
755	0.327	0.65	0.661	1.0	0.475	0.455
756	0.327	0.647	0.661	1.0	0.465	0.458
757	0.327	0.646	0.66	1.0	0.44	0.458
758	0.327	0.647	0.659	1.0	0.447	0.454
759	0.327	0.652	0.657	1.0	0.458	0.449
760	0.327	0.659	0.655	1.0	0.467	0.446
761	0.327	0.671	0.654	1.0	0.477	0.445
762	0.327	0.674	0.652	1.0	0.489	0.447
763	0.327	0.657	0.65	1.0	0.499	0.449
764	0.327	0.653	0.649	1.0	0.5	0.453
765	0.327	0.655	0.647	1.0	0.509	0.456
766	0.327	0.652	0.646	1.0	0.525	0.458
767	0.327	0.653	0.645	1.0	0.545	0.46
768	0.327	0.651	0.643	1.0	0.537	0.462
769	0.327	0.644	0.642	1.0	0.529	0.462
770	0.327	0.636	0.641	1.0	0.52	0.46
771	0.327	0.628	0.639	1.0	0.513	0.455
772	0.327	0.624	0.639	1.0	0.505	0.448
773	0.327	0.633	0.638	1.0	0.497	0.44
774	0.327	0.636	0.638	1.0	0.495	0.431
775	0.327	0.639	0.637	1.0	0.489	0.422
776	0.327	0.641	0.636	1.0	0.48	0.414
777	0.327	0.627	0.637	1.0	0.474	0.406
778	0.327	0.604	0.637	1.0	0.471	0.401
779	0.327	0.573	0.638	1.0	0.474	0.396
780	0.327	0.552	0.638	1.0	0.476	0.394
781	0.327	0.54	0.639	1.0	0.473	0.392
782	0.327	0.536	0.639	1.0	0.471	0.392
783	0.327	0.534	0.641	1.0	0.472	0.393
784	0.327	0.533	0.642	1.0	0.475	0.395
785	0.327	0.531	0.643	1.0	0.471	0.399
786	0.327	0.529	0.644	1.0	0.458	0.404
787	0.327	0.538	0.644	1.0	0.453	0.408
788	0.327	0.559	0.644	1.0	0.457	0.411
789	0.327	0.591	0.644	1.0	0.451	0.414
790	0.327	0.616	0.643	1.0	0.446	0.417
791	0.327	0.634	0.642	1.0	0.443	0.421
792	0.327	0.651	0.64	1.0	0.442	0.425
793	0.327	0.665	0.639	1.0	0.443	0.429
794	0.327	0.672	0.637	1.0	0.443	0.433
795	0.327	0.678	0.635	1.0	0.453	0.436
796	0.327	0.685	0.634	1.0	0.472	0.438
797	0.327	0.695	0.633	1.0	0.482	0.441
798	0.327	0.705	0.632	1.0	0.483	0.444
799	0.327	0.717	0.632	1.0	0.488	0.446
800	0.327	0.727	0.632	1.0	0.489	0.447
801	0.327	0.734	0.632	1.0	0.487	0.445
802	0.327	0.725	0.632	1.0	0.485	0.442
803	0.327	0.723	0.632	1.0	0.483	0.438
804	0.327	0.725	0.631	1.0	0.484	0.434
805	0.327	0.73	0.631	1.0	0.485	0.431
806	0.327	0.734	0.63	1.0	0.484	0.428
807	0.327	0.737	0.629	1.0	0.48	0.426
808	0.327	0.741	0.628	1.0	0.475	0.425
809	0.327	0.735	0.628	1.0	0.469	0.425
810	0.327	0.728	0.627	1.0	0.465	0.424
811	0.327	0.717	0.626	1.0	0.464	0.424
812	0.327	0.705	0.626	1.0	0.46	0.424
813	0.327	0.672	0.624	1.0	0.454	0.423
814	0.327	0.672	0.624	1.0	0.449	0.422
815	0.327	0.67	0.623	1.0	0.445	0.42
816	0.327	0.67	0.622	1.0	0.446	0.418
817	0.327	0.662	0.621	1.0	0.45	0.418
818	0.327	0.651	0.62	1.0	0.455	0.418
819	0.327	0.644	0.619	1.0	0.455	0.421
820	0.327	0.64	0.618	1.0	0.45	0.427
821	0.327	0.638	0.617	1.0	0.437	0.435
822	0.327	0.65	0.616	1.0	0.431	0.445
823	0.327	0.673	0.617	1.0	0.432	0.456
824	0.327	0.663	0.617	1.0	0.443	0.468
825	0.327	0.643	0.618	1.0	0.451	0.478
826	0.327	0.615	0.619	1.0	0.457	0.486
827	0.327	0.584	0.621	1.0	0.461	0.491
828	0.327	0.591	0.622	1.0	0.463	0.492
829	0.327	0.603	0.624	1.0	0.47	0.49
830	0.327	0.614	0.626	1.0	0.488	0.486
831	0.327	0.616	0.628	1.0	0.517	0.482
832	0.327	0.617	0.63	1.0	0.541	0.48
833	0.327	0.622	0.631	1.0	0.553	0.48
834	0.327	0.628	0.632	1.0	0.551	0.482
835	0.327	0.642	0.633	1.0	0.549	0.487
836	0.327	0.662	0.634	1.0	0.548	0.494
837	0.327	0.698	0.635	1.0	0.548	0.5
838	0.327	0.697	0.635	1.0	0.551	0.507
839	0.327	0.692	0.636	1.0	0.556	0.513
840	0.327	0.691	0.636	1.0	0.557	0.518
841	0.327	0.699	0.635	1.0	0.554	0.52
842	0.327	0.702	0.634	1.0	0.548	0.522
843	0.327	0.698	0.633	1.0	0.548	0.522
844	0.327	0.692	0.632	1.0	0.558	0.521
845	0.327	0.688	0.632	1.0	0.568	0.521
846	0.327	0.691	0.631	1.0	0.576	0.523
847	0.327	0.685	0.63	1.0	0.58	0.526
848	0.327	0.678	0.628	1.0	0.577	0.531
849	0.327	0.672	0.627	1.0	0.566	0.536
850	0.327	0.664	0.626	1.0	0.589	0.541
851	0.327	0.657	0.624	1.0	0.613	0.546
852	0.327	0.653	0.624	1.0	0.637	0.553
853	0.327	0.651	0.623	1.0	0.659	0.562
854	0.327	0.66	0.622	1.0	0.671	0.572
855	0.327	0.654	0.621	1.0	0.68	0.583
856	0.327	0.627	0.62	1.0	0.686	0.593
857	0.327	0.615	0.62	1.0	0.704	0.604
858	0.327	0.618	0.619	1.0	0.727	0.614
859	0.327	0.623	0.619	1.0	0.756	0.624
860	0.327	0.622	0.618	1.0	0.75	0.635
861	0.327	0.616	0.618	1.0	0.74	0.645
862	0.327	0.613	0.617	1.0	0.735	0.652
863	0.327	0.615	0.616	1.0	0.736	0.658
864	0.327	0.603	0.616	1.0	0.732	0.661
865	0.327	0.609	0.615	1.0	0.734	0.663
866	0.327	0.633	0.615	1.0	0.738	0.664
867	0.327	0.642	0.614	1.0	0.736	0.664
868	0.327	0.637	0.614	1.0	0.742	0.665
869	0.327	0.628	0.613	1.0	0.746	0.665
870	0.327	0.622	0.612	1.0	0.75	0.666
871	0.327	0.619	0.612	1.0	0.753	0.667
872	0.327	0.616	0.611	1.0	0.756	0.668
873	0.327	0.612	0.611	1.0	0.757	0.67
874	0.327	0.614	0.611	1.0	0.765	0.672
875	0.327	0.616	0.611	1.0	0.752	0.674
876	0.327	0.617	0.611	1.0	0.723	0.675
877	0.327	0.616	0.611	1.0	0.745	0.676
878	0.327	0.613	0.611	1.0	0.756	0.676
879	0.327	0.613	0.611	1.0	0.767	0.678
880	0.327	0.614	0.612	1.0	0.775	0.681
881	0.327	0.612	0.614	1.0	0.78	0.685
882	0.327	0.606	0.614	1.0	0.778	0.689
883	0.327	0.596	0.615	1.0	0.781	0.692
884	0.341	0.582	0.616	1.0	0.779	0.696
885	0.368	0.565	0.616	1.0	0.791	0.701
886	0.409	0.544	0.616	1.0	0.827	0.706
887	0.45	0.531	0.617	1.0	0.813	0.712
888	0.491	0.526	0.618	1.0	0.799	0.719
889	0.531	0.526	0.618	1.0	0.787	0.724
890	0.572	0.525	0.618	1.0	0.78	0.728
891	0.613	0.527	0.618	1.0	0.776	0.73
892	0.654	0.534	0.618	1.0	0.776	0.73
893	0.695	0.548	0.618	1.0	0.759	0.729
894	0.722	0.562	0.617	1.0	0.735	0.725
895	0.736	0.577	0.616	1.0	0.736	0.718
896	0.736	0.592	0.615	1.0	0.75	0.709
897	0.736	0.604	0.614	1.0	0.759	0.701
898	0.736	0.613	0.612	1.0	0.765	0.695
899	0.736	0.62	0.611	1.0	0.765	0.692
900	0.736	0.632	0.61	1.0	0.766	0.69
901	0.736	0.649	0.609	1.0	0.771	0.688
902	0.736	0.662	0.61	1.0	0.772	0.686
903	0.736	0.674	0.611	1.0	0.788	0.684
904	0.736	0.688	0.614	1.0	0.816	0.683
905	0.736	0.703	0.616	1.0	0.821	0.682
906	0.736	0.72	0.619	1.0	0.81	0.681
907	0.736	0.737	0.624	1.0	0.803	0.676
908	0.736	0.753	0.629	1.0	0.802	0.669
909	0.736	0.763	0.634	1.0	0.806	0.661
910	0.736	0.769	0.639	1.0	0.81	0.653
911	0.736	0.772	0.645	1.0	0.81	0.645
912	0.736	0.766	0.651	1.0	0.818	0.637
913	0.736	0.747	0.656	1.0	0.82	0.628
914	0.736	0.749	0.661	1.0	0.821	0.618
915	0.736	0.748	0.666	1.0	0.82	0.607
916	0.736	0.743	0.671	1.0	0.815	0.597
917	0.736	0.726	0.675	1.0	0.813	0.589
918	0.736	0.698	0.68	1.0	0.813	0.583
919	0.736	0.66	0.686	1.0	0.811	0.579
920	0.736	0.659	0.691	1.0	0.808	0.578
921	0.736	0.655	0.696	1.0	0.809	0.58
922	0.736	0.658	0.701	1.0	0.808	0.585
923	0.736	0.666	0.706	1.0	0.808	0.591
924	0.736	0.654	0.712	1.0	0.81	0.598
925	0.736	0.648	0.717	1.0	0.805	0.606
926	0.736	0.648	0.723	1.0	0.803	0.614
927	0.736	0.657	0.729	1.0	0.805	0.622
928	0.736	0.681	0.733	1.0	0.805	0.63
929	0.736	0.721	0.737	1.0	0.8	0.637
930	0.736	0.722	0.741	1.0	0.799	0.642
931	0.736	0.721	0.744	1.0	0.799	0.645
932	0.736	0.725	0.747	1.0	0.796	0.648
933	0.736	0.735	0.75	1.0	0.794	0.651
934	0.736	0.744	0.752	1.0	0.79	0.657
935	0.736	0.747	0.754	1.0	0.795	0.666
936	0.736	0.747	0.756	1.0	0.799	0.677
937	0.736	0.748	0.757	1.0	0.796	0.686
938	0.736	0.75	0.758	1.0	0.791	0.692
939	0.736	0.749	0.759	1.0	0.797	0.699
940	0.736	0.751	0.761	1.0	0.8	0.706
941	0.736	0.758	0.762	1.0	0.8	0.713
942	0.736	0.76	0.763	1.0	0.803	0.719
943	0.736	0.76	0.764	1.0	0.801	0.721
944	0.736	0.762	0.765	1.0	0.802	0.72
945	0.736	0.747	0.766	1.0	0.808	0.715
946	0.736	0.716	0.768	1.0	0.802	0.709
947	0.736	0.717	0.769	1.0	0.803	0.702
948	0.736	0.716	0.771	1.0	0.81	0.695
949	0.736	0.716	0.772	1.0	0.801	0.688
950	0.736	0.705	0.774	1.0	0.78	0.68
951	0.736	0.691	0.775	1.0	0.782	0.672
952	0.736	0.675	0.776	1.0	0.787	0.664
953	0.736	0.672	0.777	1.0	0.799	0.657
954	0.736	0.667	0.777	1.0	0.805	0.651
955	0.736	0.68	0.778	1.0	0.807	0.646
956	0.736	0.709	0.779	1.0	0.813	0.642
957	0.736	0.707	0.78	1.0	0.81	0.64
958	0.736	0.704	0.78	1.0	0.806	0.639
959	0.736	0.699	0.781	1.0	0.814	0.638
960	0.736	0.711	0.781	1.0	0.832	0.638
961	0.736	0.715	0.782	1.0	0.828	0.639
962	0.736	0.709	0.783	1.0	0.82	0.639
963	0.736	0.689	0.784	1.0	0.808	0.639
964	0.736	0.666	0.785	1.0	0.798	0.637
965	0.736	0.658	0.785	1.0	0.792	0.633
966	0.736	0.666	0.785	1.0	0.792	0.628
967	0.736	0.666	0.786	1.0	0.794	0.623
968	0.736	0.651	0.786	1.0	0.794	0.619
969	0.736	0.625	0.787	1.0	0.79	0.615
970	0.736	0.606	0.787	1.0	0.789	0.612
971	0.736	0.614	0.787	1.0	0.789	0.611
972	0.736	0.636	0.786	1.0	0.789	0.609
973	0.736	0.667	0.787	1.0	0.79	0.607
974	0.736	0.699	0.787	1.0	0.791	0.607
975	0.736	0.714	0.788	1.0	0.79	0.608
976	0.736	0.71	0.788	1.0	0.787	0.611
977	0.736	0.717	0.788	1.0	0.775	0.614
978	0.736	0.739	0.788	1.0	0.752	0.616
979	0.736	0.775	0.788	1.0	0.75	0.616
980	0.736	0.796	0.788	1.0	0.766	0.617
981	0.736	0.801	0.788	1.0	0.761	0.62
982	0.736	0.806	0.789	1.0	0.763	0.627
983	0.736	0.805	0.789	1.0	0.774	0.636
984	0.736	0.806	0.789	1.0	0.778	0.645
985	0.736	0.808	0.789	1.0	0.781	0.653
986	0.736	0.806	0.789	1.0	0.783	0.66
987	0.736	0.807	0.789	1.0	0.796	0.666
988	0.736	0.81	0.79	1.0	0.821	0.672
989	0.736	0.81	0.79	1.0	0.825	0.677
990	0.736	0.816	0.79	1.0	0.81	0.682
991	0.736	0.817	0.79	1.0	0.814	0.683
992	0.736	0.811	0.79	1.0	0.81	0.681
993	0.736	0.802	0.79	1.0	0.799	0.675
994	0.736	0.798	0.79	1.0	0.793	0.669
995	0.736	0.798	0.79	1.0	0.789	0.664
996	0.736	0.806	0.791	1.0	0.784	0.66
997	0.736	0.81	0.791	1.0	0.776	0.657
998	0.736	0.81	0.793	1.0	0.773	0.654
999	0.736	0.8	0.794	1.0	0.774	0.651
1000	0.736	0.786	0.795	1.0	0.774	0.649
1001	0.736	0.778	0.796	1.0	0.776	0.647
1002	0.736	0.773	0.797	1.0	0.781	0.646
1003	0.736	0.773	0.799	1.0	0.776	0.645
1004	0.736	0.767	0.8	1.0	0.767	0.645
1005	0.736	0.759	0.801	1.0	0.75	0.644
1006	0.736	0.754	0.801	1.0	0.765	0.639
1007	0.736	0.747	0.802	1.0	0.783	0.635
1008	0.736	0.739	0.802	1.0	0.796	0.631
1009	0.736	0.742	0.802	1.0	0.804	0.63
1010	0.736	0.742	0.802	1.0	0.81	0.632
1011	0.736	0.742	0.802	1.0	0.811	0.635
1012	0.736	0.744	0.802	1.0	0.807	0.64
1013	0.736	0.741	0.802	1.0	0.812	0.646
1014	0.736	0.738	0.802	1.0	0.827	0.652
1015	0.736	0.736	0.802	1.0	0.849	0.659
1016	0.736	0.733	0.802	1.0	0.839	0.666
1017	0.736	0.729	0.802	1.0	0.829	0.672
1018	0.736	0.726	0.802	1.0	0.819	0.677
1019	0.736	0.711	0.802	1.0	0.809	0.681
1020	0.736	0.687	0.802	1.0	0.804	0.684
1021	0.736	0.684	0.802	1.0	0.803	0.685
1022	0.736	0.676	0.802	1.0	0.805	0.685
1023	0.736	0.671	0.801	1.0	0.805	0.685
1024	0.736	0.666	0.801	1.0	0.804	0.685
1025	0.736	0.665	0.801	1.0	0.806	0.685
1026	0.736	0.665	0.801	1.0	0.802	0.686
1027	0.736	0.666	0.801	1.0	0.801	0.687
1028	0.736	0.668	0.801	1.0	0.802	0.69
1029	0.736	0.679	0.801	1.0	0.805	0.694
1030	0.736	0.703	0.801	1.0	0.805	0.696
1031	0.736	0.707	0.801	1.0	0.8	0.699
1032	0.736	0.709	0.801	1.0	0.795	0.701
1033	0.736	0.711	0.801	1.0	0.789	0.703
1034	0.736	0.713	0.801	1.0	0.784	0.705
1035	0.736	0.71	0.8	1.0	0.779	0.707
1036	0.736	0.703	0.799	1.0	0.778	0.708
1037	0.736	0.705	0.798	1.0	0.776	0.707
1038	0.736	0.706	0.797	1.0	0.771	0.704
1039	0.736	0.706	0.796	1.0	0.768	0.697
1040	0.736	0.696	0.795	1.0	0.766	0.688
1041	0.736	0.675	0.794	1.0	0.765	0.679
1042	0.736	0.677	0.793	1.0	0.773	0.673
1043	0.736	0.679	0.791	1.0	0.78	0.667
1044	0.736	0.679	0.791	1.0	0.786	0.662
1045	0.736	0.672	0.79	1.0	0.786	0.658
1046	0.736	0.659	0.79	1.0	0.786	0.655
1047	0.736	0.63	0.79	1.0	0.789	0.652
1048	0.736	0.598	0.79	1.0	0.793	0.649
1049	0.736	0.584	0.79	1.0	0.795	0.647
1050	0.736	0.592	0.79	1.0	0.797	0.646
1051	0.736	0.618	0.79	1.0	0.803	0.645
1052	0.736	0.614	0.79	1.0	0.801	0.644
1053	0.736	0.601	0.79	1.0	0.797	0.642
1054	0.736	0.603	0.79	1.0	0.795	0.641
1055	0.736	0.613	0.79	1.0	0.781	0.64
1056	0.736	0.632	0.79	1.0	0.749	0.638
1057	0.736	0.66	0.79	1.0	0.743	0.636
1058	0.736	0.691	0.79	1.0	0.763	0.634
1059	0.736	0.708	0.79	1.0	0.773	0.636
1060	0.736	0.709	0.79	1.0	0.783	0.639
1061	0.736	0.691	0.789	1.0	0.789	0.644
1062	0.736	0.673	0.789	1.0	0.791	0.649
1063	0.736	0.697	0.788	1.0	0.79	0.653
1064	0.736	0.711	0.788	1.0	0.792	0.658
1065	0.736	0.72	0.787	1.0	0.81	0.662
1066	0.736	0.723	0.786	1.0	0.845	0.667
1067	0.736	0.713	0.785	1.0	0.855	0.674
1068	0.736	0.711	0.784	1.0	0.834	0.681
1069	0.736	0.715	0.782	1.0	0.821	0.688
1070	0.736	0.716	0.782	1.0	0.812	0.692
1071	0.736	0.729	0.782	1.0	0.804	0.696
1072	0.736	0.753	0.782	1.0	0.802	0.7
1073	0.736	0.745	0.782	1.0	0.801	0.704
1074	0.736	0.722	0.782	1.0	0.802	0.707
1075	0.736	0.689	0.782	1.0	0.805	0.709
1076	0.736	0.692	0.782	1.0	0.809	0.709
1077	0.736	0.699	0.783	1.0	0.801	0.708
1078	0.736	0.694	0.784	1.0	0.808	0.707
1079	0.736	0.692	0.784	1.0	0.819	0.702
1080	0.736	0.692	0.784	1.0	0.825	0.697
1081	0.736	0.692	0.785	1.0	0.829	0.691
1082	0.736	0.692	0.786	1.0	0.835	0.687
1083	0.736	0.696	0.786	1.0	0.846	0.684
1084	0.736	0.714	0.787	1.0	0.848	0.682
1085	0.736	0.743	0.787	1.0	0.852	0.682
1086	0.736	0.738	0.788	1.0	0.858	0.684
1087	0.736	0.741	0.788	1.0	0.872	0.687
1088	0.736	0.751	0.789	1.0	0.859	0.691
1089	0.736	0.751	0.79	1.0	0.831	0.696
1090	0.736	0.747	0.791	1.0	0.826	0.702
1091	0.736	0.738	0.791	1.0	0.845	0.708
1092	0.736	0.736	0.792	1.0	0.853	0.716
1093	0.736	0.732	0.793	1.0	0.86	0.723
1094	0.736	0.725	0.793	1.0	0.871	0.731
1095	0.736	0.722	0.794	1.0	0.876	0.738
1096	0.736	0.723	0.794	1.0	0.875	0.746
1097	0.736	0.726	0.794	1.0	0.877	0.754
1098	0.736	0.729	0.794	1.0	0.894	0.761
1099	0.736	0.712	0.794	1.0	0.925	0.769
1100	0.736	0.708	0.794	1.0	0.931	0.775
1101	0.736	0.716	0.794	1.0	0.92	0.78
1102	0.736	0.718	0.793	1.0	0.921	0.784
1103	0.736	0.721	0.793	1.0	0.919	0.788
1104	0.736	0.724	0.792	1.0	0.92	0.794
1105	0.736	0.728	0.792	1.0	0.92	0.8
1106	0.736	0.724	0.792	1.0	0.918	0.806
1107	0.736	0.716	0.792	1.0	0.915	0.812
1108	0.736	0.704	0.793	1.0	0.915	0.816
1109	0.736	0.716	0.792	1.0	0.918	0.82
1110	0.736	0.722	0.792	1.0	0.923	0.823
1111	0.736	0.72	0.792	1.0	0.923	0.827
1112	0.736	0.716	0.793	1.0	0.918	0.831
1113	0.736	0.715	0.793	1.0	0.915	0.834
1114	0.736	0.715	0.793	1.0	0.909	0.835
1115	0.736	0.709	0.793	1.0	0.896	0.834
1116	0.736	0.709	0.793	1.0	0.875	0.833
1117	0.736	0.714	0.794	1.0	0.877	0.83
1118	0.736	0.717	0.794	1.0	0.886	0.828
1119	0.736	0.718	0.795	1.0	0.893	0.827
1120	0.736	0.716	0.795	1.0	0.9	0.827
1121	0.736	0.715	0.796	1.0	0.903	0.828
1122	0.736	0.715	0.797	1.0	0.908	0.829
1123	0.736	0.713	0.797	1.0	0.911	0.831
1124	0.736	0.709	0.799	1.0	0.912	0.833
1125	0.744	0.696	0.799	1.0	0.923	0.836
1126	0.761	0.666	0.8	1.0	0.943	0.84
1127	0.778	0.656	0.8	1.0	0.945	0.844
1128	0.794	0.67	0.801	1.0	0.936	0.847
1129	0.811	0.66	0.801	1.0	0.929	0.85
1130	0.828	0.651	0.801	1.0	0.919	0.852
1131	0.844	0.639	0.801	1.0	0.916	0.853
1132	0.861	0.628	0.801	1.0	0.911	0.853
1133	0.878	0.62	0.801	1.0	0.907	0.852
1134	0.894	0.613	0.802	1.0	0.906	0.85
1135	0.903	0.628	0.803	1.0	0.902	0.848
1136	0.903	0.664	0.804	1.0	0.903	0.847
1137	0.903	0.662	0.805	1.0	0.905	0.845
1138	0.903	0.644	0.807	1.0	0.905	0.844
1139	0.903	0.654	0.81	1.0	0.903	0.843
1140	0.903	0.666	0.812	1.0	0.902	0.842
1141	0.903	0.683	0.814	1.0	0.897	0.843
1142	0.903	0.703	0.816	1.0	0.897	0.844
1143	0.903	0.717	0.819	1.0	0.901	0.845
1144	0.903	0.724	0.821	1.0	0.903	0.847
1145	0.903	0.728	0.823	1.0	0.907	0.848
1146	0.903	0.728	0.825	1.0	0.908	0.85
1147	0.903	0.748	0.826	1.0	0.905	0.852
1148	0.903	0.759	0.827	1.0	0.904	0.854
1149	0.903	0.759	0.828	1.0	0.905	0.855
1150	0.903	0.75	0.83	1.0	0.906	0.856
1151	0.903	0.75	0.831	1.0	0.917	0.857
1152	0.903	0.74	0.833	1.0	0.915	0.857
1153	0.903	0.729	0.835	1.0	0.912	0.857
1154	0.903	0.729	0.836	1.0	0.91	0.857
1155	0.903	0.721	0.838	1.0	0.911	0.857
1156	0.903	0.703	0.84	1.0	0.905	0.856
1157	0.903	0.697	0.841	1.0	0.908	0.856
1158	0.903	0.684	0.843	1.0	0.908	0.855
1159	0.903	0.667	0.845	1.0	0.909	0.855
1160	0.903	0.668	0.848	1.0	0.912	0.854
1161	0.903	0.665	0.849	1.0	0.896	0.853
1162	0.903	0.659	0.851	1.0	0.877	0.851
1163	0.903	0.659	0.853	1.0	0.89	0.848
1164	0.903	0.654	0.854	1.0	0.9	0.845
1165	0.903	0.66	0.856	1.0	0.909	0.843
1166	0.903	0.673	0.858	1.0	0.916	0.841
1167	0.903	0.675	0.86	1.0	0.905	0.84
1168	0.903	0.681	0.862	1.0	0.902	0.84
1169	0.903	0.687	0.864	1.0	0.908	0.84
1170	0.903	0.672	0.866	1.0	0.908	0.841
1171	0.903	0.664	0.867	1.0	0.919	0.842
1172	0.903	0.678	0.869	1.0	0.941	0.844
1173	0.903	0.693	0.871	1.0	0.929	0.846
1174	0.903	0.714	0.873	1.0	0.919	0.849
1175	0.903	0.722	0.874	1.0	0.911	0.85
1176	0.903	0.723	0.875	1.0	0.908	0.851
1177	0.903	0.716	0.876	1.0	0.918	0.851
1178	0.903	0.722	0.876	1.0	0.925	0.85
1179	0.903	0.739	0.876	1.0	0.918	0.849
1180	0.903	0.768	0.876	1.0	0.917	0.848
1181	0.903	0.782	0.876	1.0	0.916	0.846
1182	0.903	0.78	0.876	1.0	0.917	0.846
1183	0.903	0.772	0.876	1.0	0.916	0.845
1184	0.903	0.755	0.876	1.0	0.913	0.845
1185	0.903	0.733	0.876	1.0	0.912	0.845
1186	0.903	0.705	0.876	1.0	0.913	0.845
1187	0.903	0.716	0.876	1.0	0.911	0.846
1188	0.903	0.712	0.876	1.0	0.908	0.846
1189	0.903	0.709	0.876	1.0	0.909	0.845
1190	0.903	0.705	0.876	1.0	0.906	0.845
1191	0.903	0.703	0.876	1.0	0.902	0.844
1192	0.903	0.709	0.876	1.0	0.901	0.843
1193	0.903	0.72	0.876	1.0	0.901	0.842
1194	0.903	0.737	0.875	1.0	0.903	0.841
1195	0.903	0.763	0.876	1.0	0.9	0.839
1196	0.903	0.797	0.876	1.0	0.903	0.838
1197	0.903	0.801	0.877	1.0	0.904	0.837
1198	0.903	0.811	0.877	1.0	0.902	0.837
1199	0.903	0.819	0.877	1.0	0.904	0.837
1200	0.903	0.826	0.878	1.0	0.909	0.837
1201	0.903	0.829	0.878	1.0	0.91	0.837
1202	0.903	0.825	0.879	1.0	0.908	0.837
1203	0.903	0.818	0.879	1.0	0.908	0.837
1204	0.903	0.813	0.88	1.0	0.909	0.837
1205	0.903	0.799	0.88	1.0	0.91	0.837
1206	0.903	0.789	0.88	1.0	0.906	0.837
1207	0.903	0.778	0.88	1.0	0.907	0.837
1208	0.903	0.777	0.88	1.0	0.908	0.837
1209	0.903	0.773	0.881	1.0	0.903	0.837
1210	0.903	0.772	0.881	1.0	0.896	0.836
1211	0.903	0.773	0.881	1.0	0.888	0.835
1212	0.903	0.766	0.881	1.0	0.885	0.834
1213	0.903	0.771	0.881	1.0	0.884	0.833
1214	0.903	0.772	0.881	1.0	0.887	0.833
1215	0.903	0.784	0.881	1.0	0.889	0.833
1216	0.903	0.793	0.881	1.0	0.884	0.833
1217	0.903	0.8	0.881	1.0	0.884	0.832
1218	0.903	0.797	0.881	1.0	0.883	0.831
1219	0.903	0.797	0.881	1.0	0.886	0.831
1220	0.903	0.795	0.881	1.0	0.893	0.832
1221	0.903	0.797	0.881	1.0	0.9	0.834
1222	0.903	0.809	0.881	1.0	0.903	0.837
1223	0.903	0.809	0.881	1.0	0.902	0.839
1224	0.903	0.811	0.881	1.0	0.903	0.841
1225	0.903	0.809	0.881	1.0	0.907	0.843
1226	0.903	0.811	0.882	1.0	0.912	0.844
1227	0.903	0.811	0.882	1.0	0.913	0.846
1228	0.903	0.813	0.883	1.0	0.916	0.847
1229	0.903	0.813	0.884	1.0	0.916	0.848
1230	0.903	0.811	0.884	1.0	0.915	0.848
1231	0.903	0.791	0.885	1.0	0.915	0.848
1232	0.903	0.759	0.885	1.0	0.915	0.847
1233	0.903	0.758	0.886	1.0	0.922	0.846
1234	0.903	0.753	0.888	1.0	0.921	0.845
1235	0.903	0.75	0.889	1.0	0.92	0.845
1236	0.903	0.743	0.889	1.0	0.922	0.844
1237	0.903	0.745	0.89	1.0	0.922	0.844
1238	0.903	0.747	0.891	1.0	0.921	0.843
1239	0.903	0.748	0.891	1.0	0.922	0.843
1240	0.903	0.757	0.892	1.0	0.926	0.843
1241	0.903	0.773	0.892	1.0	0.934	0.843
1242	0.903	0.803	0.893	1.0	0.934	0.843
1243	0.903	0.797	0.894	1.0	0.931	0.843
1244	0.903	0.793	0.894	1.0	0.933	0.843
1245	0.903	0.79	0.894	1.0	0.932	0.842
1246	0.903	0.791	0.895	1.0	0.929	0.842
1247	0.903	0.787	0.895	1.0	0.927	0.841
1248	0.903	0.784	0.896	1.0	0.928	0.841
1249	0.903	0.785	0.897	1.0	0.928	0.84
1250	0.903	0.778	0.897	1.0	0.925	0.839
1251	0.903	0.771	0.898	1.0	0.92	0.839
1252	0.903	0.774	0.897	1.0	0.922	0.838
1253	0.903	0.779	0.897	1.0	0.92	0.838
1254	0.903	0.784	0.896	1.0	0.916	0.837
1255	0.903	0.791	0.895	1.0	0.915	0.837
1256	0.903	0.796	0.895	1.0	0.906	0.836
1257	0.903	0.789	0.894	1.0	0.886	0.836
1258	0.903	0.792	0.893	1.0	0.897	0.834
1259	0.903	0.791	0.891	1.0	0.906	0.834
1260	0.903	0.791	0.89	1.0	0.911	0.833
1261	0.903	0.802	0.889	1.0	0.914	0.833
1262	0.903	0.802	0.889	1.0	0.914	0.834
1263	0.903	0.796	0.888	1.0	0.914	0.836
1264	0.903	0.785	0.888	1.0	0.918	0.839
1265	0.903	0.792	0.887	1.0	0.923	0.841
1266	0.903	0.794	0.886	1.0	0.936	0.844
1267	0.903	0.801	0.886	1.0	0.96	0.846
1268	0.903	0.801	0.886	1.0	0.95	0.85
1269	0.903	0.804	0.886	1.0	0.939	0.853
1270	0.903	0.804	0.886	1.0	0.933	0.855
1271	0.903	0.792	0.886	1.0	0.933	0.857
1272	0.903	0.786	0.886	1.0	0.934	0.858
1273	0.903	0.792	0.886	1.0	0.934	0.857
1274	0.903	0.804	0.887	1.0	0.929	0.856
1275	0.903	0.801	0.888	1.0	0.923	0.855
1276	0.903	0.803	0.888	1.0	0.921	0.854
1277	0.903	0.803	0.888	1.0	0.922	0.853
1278	0.903	0.796	0.888	1.0	0.917	0.852
1279	0.903	0.794	0.888	1.0	0.919	0.851
1280	0.903	0.79	0.888	1.0	0.921	0.85
1281	0.903	0.784	0.888	1.0	0.92	0.849
1282	0.903	0.789	0.889	1.0	0.92	0.848
1283	0.903	0.792	0.889	1.0	0.919	0.847
1284	0.903	0.787	0.889	1.0	0.921	0.846
1285	0.903	0.771	0.888	1.0	0.922	0.845
1286	0.903	0.745	0.888	1.0	0.922	0.844
1287	0.903	0.747	0.889	1.0	0.916	0.843
1288	0.903	0.755	0.889	1.0	0.918	0.842
1289	0.903	0.759	0.889	1.0	0.915	0.841
1290	0.903	0.765	0.889	1.0	0.91	0.841
1291	0.903	0.778	0.889	1.0	0.903	0.84
1292	0.903	0.776	0.889	1.0	0.9	0.84
1293	0.903	0.767	0.888	1.0	0.901	0.841
1294	0.903	0.771	0.889	1.0	0.9	0.841
1295	0.903	0.78	0.889	1.0	0.897	0.841
1296	0.903	0.806	0.89	1.0	0.893	0.842
1297	0.903	0.803	0.89	1.0	0.892	0.842
1298	0.903	0.793	0.89	1.0	0.891	0.841
1299	0.903	0.79	0.89	1.0	0.891	0.84
1300	0.903	0.79	0.89	1.0	0.888	0.838
1301	0.903	0.79	0.891	1.0	0.885	0.834
1302	0.903	0.791	0.891	1.0	0.88	0.83
1303	0.903	0.796	0.892	1.0	0.873	0.825
1304	0.903	0.794	0.892	1.0	0.87	0.819
1305	0.903	0.797	0.892	1.0	0.867	0.813
1306	0.903	0.796	0.892	1.0	0.86	0.806
1307	0.903	0.8	0.892	1.0	0.857	0.8
1308	0.903	0.809	0.892	1.0	0.854	0.795
1309	0.903	0.81	0.892	1.0	0.85	0.79
1310	0.903	0.811	0.892	1.0	0.848	0.786
1311	0.903	0.809	0.892	1.0	0.843	0.782
1312	0.903	0.811	0.892	1.0	0.845	0.778
1313	0.903	0.815	0.892	1.0	0.84	0.774
1314	0.903	0.816	0.892	1.0	0.833	0.771
1315	0.903	0.817	0.892	1.0	0.829	0.769
1316	0.903	0.817	0.893	1.0	0.836	0.767
1317	0.903	0.814	0.893	1.0	0.837	0.764
1318	0.903	0.817	0.894	1.0	0.832	0.76
1319	0.903	0.817	0.895	1.0	0.826	0.756
1320	0.903	0.818	0.895	1.0	0.829	0.751
1321	0.903	0.82	0.896	1.0	0.829	0.746
1322	0.903	0.822	0.896	1.0	0.827	0.742
1323	0.903	0.815	0.897	1.0	0.84	0.736
1324	0.903	0.814	0.899	1.0	0.845	0.729
1325	0.903	0.813	0.899	1.0	0.84	0.721
1326	0.903	0.798	0.9	1.0	0.819	0.711
1327	0.903	0.774	0.901	1.0	0.826	0.7
1328	0.903	0.776	0.901	1.0	0.834	0.688
1329	0.903	0.769	0.902	1.0	0.842	0.676
1330	0.903	0.769	0.902	1.0	0.841	0.665
1331	0.903	0.773	0.903	1.0	0.84	0.655
1332	0.903	0.777	0.903	1.0	0.838	0.646
1333	0.903	0.789	0.902	1.0	0.825	0.637
1334	0.903	0.786	0.901	1.0	0.816	0.627
1335	0.903	0.788	0.901	1.0	0.815	0.616
1336	0.903	0.806	0.9	1.0	0.777	0.605
1337	0.903	0.838	0.9	1.0	0.744	0.593
1338	0.903	0.84	0.899	1.0	0.746	0.58
1339	0.903	0.852	0.899	1.0	0.747	0.564
1340	0.903	0.855	0.898	1.0	0.744	0.545
1341	0.903	0.859	0.898	1.0	0.744	0.525
1342	0.903	0.858	0.898	1.0	0.736	0.508
1343	0.903	0.852	0.898	1.0	0.734	0.495
1344	0.903	0.86	0.898	1.0	0.728	0.485
1345	0.903	0.862	0.898	1.0	0.72	0.48
1346	0.903	0.867	0.899	1.0	0.756	0.476
1347	0.903	0.87	0.899	1.0	0.761	0.475
1348	0.903	0.88	0.899	1.0	0.737	0.476
1349	0.903	0.873	0.9	1.0	0.718	0.477
1350	0.903	0.871	0.901	1.0	0.706	0.478
1351	0.903	0.866	0.901	1.0	0.693	0.478
1352	0.903	0.866	0.902	1.0	0.682	0.478
1353	0.903	0.866	0.902	1.0	0.671	0.476
1354	0.903	0.861	0.902	1.0	0.668	0.474
1355	0.903	0.86	0.902	1.0	0.656	0.471
1356	0.903	0.855	0.902	1.0	0.65	0.468
1357	0.903	0.848	0.903	1.0	0.648	0.465
1358	0.903	0.838	0.902	1.0	0.643	0.464
1359	0.903	0.843	0.902	1.0	0.638	0.463
1360	0.903	0.842	0.901	1.0	0.633	0.463
1361	0.903	0.835	0.901	1.0	0.627	0.463
1362	0.903	0.834	0.901	1.0	0.625	0.463
1363	0.903	0.827	0.901	1.0	0.62	0.463
1364	0.903	0.828	0.901	1.0	0.609	0.464
1365	0.874	0.829	0.901	1.0	0.609	0.463
1366	0.816	0.829	0.901	1.0	0.603	0.463
1367	0.759	0.836	0.901	1.0	0.592	0.463
1368	0.701	0.84	0.902	1.0	0.585	0.461
1369	0.644	0.834	0.902	1.0	0.578	0.46
1370	0.586	0.836	0.902	1.0	0.572	0.458
1371	0.528	0.842	0.901	1.0	0.571	0.458
1372	0.471	0.841	0.901	1.0	0.559	0.458
1373	0.413	0.841	0.901	1.0	0.543	0.458
1374	0.356	0.842	0.9	1.0	0.521	0.457
1375	0.327	0.849	0.899	1.0	0.528	0.454
1376	0.327	0.859	0.899	1.0	0.537	0.452
1377	0.327	0.861	0.898	1.0	0.548	0.451
1378	0.327	0.856	0.898	1.0	0.549	0.453
1379	0.327	0.858	0.898	1.0	0.551	0.456
1380	0.327	0.843	0.898	1.0	0.552	0.459
1381	0.327	0.815	0.898	1.0	0.551	0.463
1382	0.327	0.818	0.898	1.0	0.558	0.465
1383	0.327	0.816	0.897	1.0	0.568	0.469
1384	0.327	0.809	0.897	1.0	0.585	0.472
1385	0.327	0.796	0.896	1.0	0.577	0.478
1386	0.327	0.782	0.895	1.0	0.571	0.482
1387	0.327	0.772	0.894	1.0	0.562	0.485
1388	0.327	0.765	0.893	1.0	0.557	0.485
1389	0.327	0.759	0.891	1.0	0.549	0.483
1390	0.327	0.774	0.89	1.0	0.54	0.481
1391	0.327	0.793	0.888	1.0	0.533	0.478
1392	0.327	0.784	0.886	1.0	0.527	0.474
1393	0.327	0.784	0.885	1.0	0.523	0.47
1394	0.327	0.782	0.884	1.0	0.52	0.465
1395	0.327	0.77	0.882	1.0	0.518	0.46
1396	0.327	0.742	0.88	1.0	0.518	0.455
1397	0.327	0.747	0.878	1.0	0.516	0.45
1398	0.327	0.756	0.876	1.0	0.513	0.446
1399	0.327	0.762	0.873	1.0	0.514	0.443
1400	0.327	0.759	0.871	1.0	0.514	0.439
1401	0.327	0.766	0.869	1.0	0.512	0.437
1402	0.327	0.772	0.866	1.0	0.507	0.436
1403	0.327	0.773	0.864	1.0	0.508	0.436
1404	0.327	0.776	0.861	1.0	0.511	0.437
1405	0.327	0.788	0.859	1.0	0.508	0.439
1406	0.327	0.797	0.857	1.0	0.501	0.442
1407	0.327	0.779	0.855	1.0	0.498	0.445
1408	0.327	0.766	0.853	1.0	0.494	0.448
1409	0.327	0.758	0.852	1.0	0.486	0.45
1410	0.327	0.758	0.85	1.0	0.482	0.452
1411	0.327	0.758	0.848	1.0	0.482	0.454
1412	0.327	0.756	0.847	1.0	0.488	0.455
1413	0.327	0.758	0.845	1.0	0.486	0.457
1414	0.327	0.755	0.844	1.0	0.483	0.459
1415	0.327	0.754	0.843	1.0	0.485	0.461
1416	0.327	0.768	0.843	1.0	0.484	0.462
1417	0.327	0.775	0.842	1.0	0.485	0.463
1418	0.327	0.78	0.84	1.0	0.492	0.462
1419	0.327	0.782	0.836	1.0	0.502	0.461
1420	0.327	0.778	0.832	1.0	0.507	0.461
1421	0.327	0.773	0.828	1.0	0.505	0.46
1422	0.327	0.768	0.824	1.0	0.504	0.458
1423	0.327	0.761	0.818	1.0	0.51	0.456
1424	0.327	0.759	0.812	1.0	0.513	0.454
1425	0.327	0.75	0.805	1.0	0.516	0.454
1426	0.327	0.747	0.798	1.0	0.519	0.454
1427	0.327	0.754	0.791	1.0	0.511	0.455
1428	0.327	0.754	0.786	1.0	0.503	0.456
1429	0.327	0.752	0.78	1.0	0.498	0.456
1430	0.327	0.747	0.776	1.0	0.493	0.454
1431	0.327	0.747	0.771	1.0	0.494	0.451
1432	0.327	0.748	0.767	1.0	0.491	0.447
1433	0.327	0.748	0.764	1.0	0.489	0.443
1434	0.327	0.747	0.761	1.0	0.484	0.437
1435	0.327	0.75	0.759	1.0	0.473	0.431
1436	0.327	0.744	0.756	1.0	0.466	0.424
1437	0.327	0.728	0.753	1.0	0.468	0.416
1438	0.327	0.727	0.751	1.0	0.451	0.41
1439	0.327	0.726	0.747	1.0	0.444	0.406
1440	0.327	0.729	0.745	1.0	0.452	0.403
1441	0.327	0.729	0.742	1.0	0.456	0.403
1442	0.327	0.714	0.739	1.0	0.463	0.405
1443	0.327	0.686	0.737	1.0	0.467	0.409
1444	0.327	0.647	0.734	1.0	0.472	0.415
1445	0.327	0.648	0.731	1.0	0.48	0.421
1446	0.327	0.655	0.728	1.0	0.481	0.427
1447	0.327	0.667	0.726	1.0	0.473	0.433
1448	0.327	0.647	0.724	1.0	0.475	0.436
1449	0.327	0.634	0.723	1.0	0.481	0.436
1450	0.327	0.625	0.722	1.0	0.49	0.437
1451	0.327	0.62	0.721	1.0	0.493	0.439
1452	0.327	0.632	0.72	1.0	0.493	0.443
1453	0.327	0.656	0.718	1.0	0.489	0.447
1454	0.327	0.691	0.717	1.0	0.48	0.452
1455	0.327	0.684	0.715	1.0	0.485	0.457
1456	0.327	0.681	0.714	1.0	0.493	0.46
1457	0.327	0.676	0.712	1.0	0.506	0.462
1458	0.327	0.693	0.71	1.0	0.522	0.464
1459	0.327	0.706	0.709	1.0	0.522	0.465
1460	0.327	0.711	0.707	1.0	0.504	0.464
1461	0.327	0.712	0.705	1.0	0.496	0.46
1462	0.327	0.709	0.704	1.0	0.49	0.453
1463	0.327	0.709	0.702	1.0	0.485	0.442
1464	0.327	0.709	0.701	1.0	0.482	0.43
1465	0.327	0.709	0.699	1.0	0.47	0.42
1466	0.327	0.709	0.698	1.0	0.461	0.414
1467	0.327	0.703	0.697	1.0	0.455	0.414
1468	0.327	0.695	0.696	1.0	0.447	0.419
1469	0.327	0.688	0.695	1.0	0.444	0.427
1470	0.327	0.685	0.694	1.0	0.445	0.437
1471	0.327	0.684	0.694	1.0	0.452	0.447
1472	0.327	0.681	0.693	1.0	0.453	0.455
1473	0.327	0.678	0.692	1.0	0.456	0.464
1474	0.327	0.678	0.691	1.0	0.458	0.47
1475	0.327	0.68	0.691	1.0	0.454	0.473
1476	0.327	0.674	0.69	1.0	0.446	0.47
1477	0.327	0.671	0.689	1.0	0.446	0.463
1478	0.327	0.667	0.688	1.0	0.458	0.454
1479	0.327	0.659	0.687	1.0	0.475	0.446
1480	0.327	0.661	0.686	1.0	0.487	0.441
1481	0.327	0.666	0.684	1.0	0.489	0.442
1482	0.327	0.676	0.684	1.0	0.487	0.445
1483	0.327	0.679	0.683	1.0	0.49	0.45
1484	0.327	0.678	0.682	1.0	0.498	0.456
1485	0.327	0.674	0.68	1.0	0.509	0.461
1486	0.327	0.677	0.68	1.0	0.525	0.465
1487	0.327	0.678	0.679	1.0	0.532	0.47
1488	0.327	0.682	0.678	1.0	0.531	0.474
1489	0.327	0.697	0.678	1.0	0.522	0.475
1490	0.327	0.695	0.678	1.0	0.515	0.473
1491	0.327	0.684	0.678	1.0	0.499	0.468
1492	0.327	0.68	0.677	1.0	0.492	0.459
1493	0.327	0.703	0.677	1.0	0.485	0.45
1494	0.327	0.722	0.677	1.0	0.476	0.441
1495	0.327	0.737	0.677	1.0	0.467	0.434
1496	0.327	0.746	0.677	1.0	0.457	0.427
1497	0.327	0.756	0.677	1.0	0.444	0.421
1498	0.327	0.766	0.677	1.0	0.427	0.414
1499	0.327	0.766	0.677	1.0	0.404	0.407
1500	0.327	0.778	0.677	1.0	0.375	0.401
1501	0.327	0.797	0.676	1.0	0.393	0.398
1502	0.327	0.804	0.676	1.0	0.413	0.399
1503	0.327	0.791	0.676	1.0	0.434	0.405
1504	0.327	0.789	0.676	1.0	0.443	0.415
1505	0.327	0.778	0.676	1.0	0.445	0.427
1506	0.327	0.774	0.676	1.0	0.45	0.441
1507	0.327	0.774	0.676	1.0	0.458	0.453
1508	0.327	0.766	0.676	1.0	0.483	0.466
1509	0.327	0.762	0.676	1.0	0.507	0.476
1510	0.327	0.757	0.676	1.0	0.531	0.485
1511	0.327	0.759	0.676	1.0	0.52	0.491
1512	0.327	0.759	0.676	1.0	0.508	0.493
1513	0.327	0.763	0.675	1.0	0.495	0.491
1514	0.327	0.757	0.675	1.0	0.495	0.486
1515	0.327	0.762	0.675	1.0	0.499	0.479
1516	0.327	0.751	0.675	1.0	0.501	0.473
1517	0.327	0.723	0.675	1.0	0.5	0.467
1518	0.327	0.694	0.675	1.0	0.481	0.462
1519	0.327	0.723	0.675	1.0	0.466	0.46
1520	0.327	0.732	0.676	1.0	0.449	0.458
1521	0.327	0.728	0.676	1.0	0.421	0.458
1522	0.327	0.735	0.676	1.0	0.405	0.456
1523	0.327	0.74	0.677	1.0	0.399	0.452
1524	0.327	0.747	0.677	1.0	0.412	0.447
1525	0.327	0.741	0.677	1.0	0.42	0.441
1526	0.327	0.753	0.677	1.0	0.421	0.434
1527	0.327	0.772	0.677	1.0	0.422	0.428
1528	0.327	0.8	0.677	1.0	0.427	0.422
1529	0.327	0.768	0.676	1.0	0.44	0.416
1530	0.327	0.756	0.675	1.0	0.459	0.41
1531	0.327	0.73	0.674	1.0	0.486	0.406
1532	0.327	0.678	0.673	1.0	0.501	0.405
1533	0.327	0.649	0.672	1.0	0.506	0.408
1534	0.327	0.642	0.671	1.0	0.489	0.414
1535	0.327	0.649	0.669	1.0	0.48	0.422
1536	0.327	0.649	0.668	1.0	0.477	0.43
1537	0.327	0.653	0.667	1.0	0.471	0.439
1538	0.327	0.647	0.666	1.0	0.463	0.449
1539	0.327	0.641	0.665	1.0	0.455	0.459
1540	0.327	0.635	0.664	1.0	0.453	0.468
1541	0.327	0.653	0.664	1.0	0.466	0.477
1542	0.327	0.684	0.664	1.0	0.474	0.485
1543	0.327	0.69	0.664	1.0	0.478	0.492
1544	0.327	0.663	0.664	1.0	0.48	0.497
1545	0.327	0.631	0.664	1.0	0.482	0.501
1546	0.327	0.588	0.665	1.0	0.481	0.503
1547	0.327	0.567	0.665	1.0	0.482	0.504
1548	0.327	0.584	0.665	1.0	0.505	0.502
1549	0.327	0.597	0.665	1.0	0.517	0.499
1550	0.327	0.603	0.665	1.0	0.526	0.497
1551	0.327	0.601	0.665	1.0	0.522	0.496
1552	0.327	0.601	0.665	1.0	0.526	0.495
1553	0.327	0.601	0.665	1.0	0.534	0.496
1554	0.327	0.608	0.665	1.0	0.545	0.498
1555	0.327	0.637	0.665	1.0	0.558	0.501
1556	0.327	0.678	0.666	1.0	0.573	0.506
1557	0.327	0.697	0.666	1.0	0.593	0.513
1558	0.327	0.691	0.666	1.0	0.597	0.52
1559	0.327	0.686	0.666	1.0	0.608	0.528
1560	0.327	0.682	0.666	1.0	0.601	0.535
1561	0.327	0.682	0.666	1.0	0.574	0.539
1562	0.327	0.684	0.666	1.0	0.565	0.542
1563	0.327	0.691	0.666	1.0	0.578	0.544
1564	0.327	0.698	0.666	1.0	0.593	0.545
1565	0.327	0.684	0.666	1.0	0.609	0.547
1566	0.327	0.658	0.666	1.0	0.625	0.551
1567	0.327	0.62	0.666	1.0	0.637	0.556
1568	0.327	0.585	0.665	1.0	0.653	0.564
1569	0.327	0.554	0.665	1.0	0.669	0.575
1570	0.327	0.527	0.665	1.0	0.699	0.587
1571	0.327	0.518	0.665	1.0	0.746	0.601
1572	0.327	0.513	0.665	1.0	0.767	0.617
1573	0.327	0.511	0.665	1.0	0.768	0.633
1574	0.327	0.503	0.665	1.0	0.764	0.647
1575	0.327	0.495	0.665	1.0	0.753	0.658
1576	0.327	0.503	0.664	1.0	0.762	0.665
1577	0.327	0.529	0.664	1.0	0.768	0.669
1578	0.327	0.555	0.664	1.0	0.762	0.67
1579	0.327	0.578	0.664	1.0	0.754	0.669
1580	0.327	0.597	0.664	1.0	0.753	0.666
1581	0.327	0.595	0.664	1.0	0.758	0.662
1582	0.327	0.589	0.664	1.0	0.763	0.658
1583	0.327	0.584	0.664	1.0	0.763	0.654
1584	0.327	0.594	0.663	1.0	0.756	0.651
1585	0.327	0.609	0.662	1.0	0.743	0.647
1586	0.327	0.62	0.662	1.0	0.723	0.644
1587	0.327	0.625	0.662	1.0	0.72	0.642
1588	0.327	0.651	0.662	1.0	0.739	0.642
1589	0.327	0.673	0.661	1.0	0.752	0.644
1590	0.327	0.682	0.659	1.0	0.757	0.648
1591	0.327	0.675	0.658	1.0	0.76	0.653
1592	0.327	0.676	0.657	1.0	0.762	0.659
1593	0.327	0.679	0.656	1.0	0.762	0.665
1594	0.327	0.683	0.656	1.0	0.775	0.671
1595	0.327	0.684	0.655	1.0	0.794	0.677
1596	0.327	0.678	0.655	1.0	0.804	0.684
1597	0.327	0.67	0.654	1.0	0.807	0.691
1598	0.327	0.637	0.653	1.0	0.786	0.697
1599	0.327	0.615	0.653	1.0	0.777	0.701
1600	0.327	0.607	0.653	1.0	0.781	0.704
1601	0.327	0.614	0.653	1.0	0.776	0.706
1602	0.327	0.616	0.653	1.0	0.777	0.707
1603	0.327	0.612	0.653	1.0	0.779	0.709
1604	0.327	0.605	0.653	1.0	0.779	0.71
1605	0.347	0.598	0.653	1.0	0.783	0.712
1606	0.388	0.591	0.653	1.0	0.784	0.713
1607	0.429	0.591	0.652	1.0	0.779	0.713
1608	0.47	0.596	0.651	1.0	0.788	0.713
1609	0.511	0.596	0.651	1.0	0.785	0.714
1610	0.552	0.597	0.65	1.0	0.771	0.714
1611	0.593	0.602	0.65	1.0	0.772	0.715
1612	0.634	0.605	0.649	1.0	0.769	0.716
1613	0.675	0.607	0.649	1.0	0.766	0.716
1614	0.715	0.609	0.648	1.0	0.763	0.715
1615	0.736	0.619	0.649	1.0	0.762	0.715
1616	0.736	0.628	0.649	1.0	0.762	0.714
1617	0.736	0.623	0.651	1.0	0.763	0.712
1618	0.736	0.635	0.652	1.0	0.743	0.711
1619	0.736	0.661	0.655	1.0	0.711	0.71
1620	0.736	0.673	0.658	1.0	0.72	0.709
1621	0.736	0.668	0.662	1.0	0.717	0.707
1622	0.736	0.679	0.666	1.0	0.712	0.707
1623	0.736	0.689	0.671	1.0	0.713	0.71
1624	0.736	0.696	0.675	1.0	0.719	0.713
1625	0.736	0.703	0.679	1.0	0.728	0.715
1626	0.736	0.718	0.683	1.0	0.737	0.718
1627	0.736	0.74	0.687	1.0	0.744	0.721
1628	0.736	0.738	0.691	1.0	0.767	0.725
1629	0.736	0.726	0.694	1.0	0.801	0.728
1630	0.736	0.715	0.697	1.0	0.796	0.731
1631	0.736	0.704	0.698	1.0	0.798	0.734
1632	0.736	0.681	0.699	1.0	0.804	0.735
1633	0.736	0.663	0.701	1.0	0.804	0.733
1634	0.736	0.643	0.702	1.0	0.798	0.728
1635	0.736	0.619	0.703	1.0	0.789	0.724
1636	0.736	0.596	0.704	1.0	0.782	0.718
1637	0.736	0.576	0.705	1.0	0.775	0.71
1638	0.736	0.566	0.705	1.0	0.771	0.702
1639	0.736	0.561	0.705	1.0	0.77	0.693
1640	0.736	0.567	0.705	1.0	0.771	0.683
1641	0.736	0.587	0.705	1.0	0.767	0.674
1642	0.736	0.603	0.705	1.0	0.749	0.665
1643	0.736	0.617	0.705	1.0	0.733	0.656
1644	0.736	0.632	0.707	1.0	0.72	0.649
1645	0.736	0.647	0.711	1.0	0.703	0.642
1646	0.736	0.653	0.715	1.0	0.721	0.635
1647	0.736	0.665	0.72	1.0	0.729	0.631
1648	0.736	0.674	0.724	1.0	0.733	0.63
1649	0.736	0.669	0.729	1.0	0.735	0.632
1650	0.736	0.667	0.733	1.0	0.741	0.635
1651	0.736	0.666	0.738	1.0	0.746	0.639
1652	0.736	0.662	0.742	1.0	0.761	0.644
1653	0.736	0.653	0.747	1.0	0.771	0.649
1654	0.736	0.637	0.751	1.0	0.775	0.654
1655	0.736	0.613	0.753	1.0	0.772	0.659
1656	0.736	0.609	0.756	1.0	0.729	0.664
1657	0.736	0.609	0.76	1.0	0.73	0.666
1658	0.736	0.609	0.763	1.0	0.737	0.667
1659	0.736	0.616	0.766	1.0	0.749	0.667
1660	0.736	0.622	0.77	1.0	0.751	0.668
1661	0.736	0.623	0.773	1.0	0.756	0.669
1662	0.736	0.628	0.777	1.0	0.763	0.669
1663	0.736	0.637	0.782	1.0	0.77	0.67
1664	0.736	0.655	0.785	1.0	0.784	0.671
1665	0.736	0.688	0.788	1.0	0.801	0.673
1666	0.736	0.71	0.79	1.0	0.822	0.675
1667	0.736	0.722	0.792	1.0	0.813	0.677
1668	0.736	0.716	0.794	1.0	0.8	0.678
1669	0.736	0.717	0.795	1.0	0.784	0.676
1670	0.736	0.728	0.797	1.0	0.777	0.673
1671	0.736	0.738	0.799	1.0	0.771	0.67
1672	0.736	0.739	0.8	1.0	0.766	0.666
1673	0.736	0.738	0.801	1.0	0.754	0.663
1674	0.736	0.736	0.801	1.0	0.748	0.658
1675	0.736	0.731	0.801	1.0	0.751	0.653
1676	0.736	0.724	0.801	1.0	0.755	0.648
1677	0.736	0.716	0.801	1.0	0.755	0.644
1678	0.736	0.721	0.801	1.0	0.754	0.641
1679	0.736	0.722	0.801	1.0	0.75	0.639
1680	0.736	0.721	0.802	1.0	0.734	0.639
1681	0.736	0.717	0.803	1.0	0.708	0.639
1682	0.736	0.721	0.803	1.0	0.704	0.638
1683	0.736	0.723	0.804	1.0	0.712	0.637
1684	0.736	0.727	0.804	1.0	0.715	0.637
1685	0.736	0.723	0.805	1.0	0.718	0.639
1686	0.736	0.722	0.805	1.0	0.722	0.642
1687	0.736	0.722	0.806	1.0	0.725	0.646
1688	0.736	0.712	0.807	1.0	0.725	0.65
1689	0.736	0.688	0.807	1.0	0.73	0.654
1690	0.736	0.679	0.807	1.0	0.745	0.658
1691	0.736	0.683	0.807	1.0	0.767	0.661
1692	0.736	0.697	0.807	1.0	0.768	0.665
1693	0.736	0.69	0.807	1.0	0.769	0.67
1694	0.736	0.66	0.807	1.0	0.769	0.674
1695	0.736	0.671	0.807	1.0	0.75	0.677
1696	0.736	0.678	0.807	1.0	0.721	0.679
1697	0.736	0.681	0.807	1.0	0.724	0.68
1698	0.736	0.694	0.807	1.0	0.734	0.68
1699	0.736	0.717	0.807	1.0	0.749	0.681
1700	0.736	0.721	0.806	1.0	0.754	0.682
1701	0.736	0.722	0.805	1.0	0.754	0.683
1702	0.736	0.707	0.805	1.0	0.75	0.683
1703	0.736	0.713	0.804	1.0	0.754	0.683
1704	0.736	0.741	0.804	1.0	0.76	0.683
1705	0.736	0.735	0.804	1.0	0.778	0.683
1706	0.736	0.734	0.804	1.0	0.792	0.683
1707	0.736	0.735	0.804	1.0	0.786	0.686
1708	0.736	0.732	0.804	1.0	0.786	0.688
1709	0.736	0.736	0.804	1.0	0.781	0.689
1710	0.736	0.734	0.805	1.0	0.779	0.689
1711	0.736	0.721	0.805	1.0	0.783	0.688
1712	0.736	0.722	0.806	1.0	0.787	0.687
1713	0.736	0.715	0.806	1.0	0.784	0.683
1714	0.736	0.699	0.807	1.0	0.779	0.678
1715	0.736	0.672	0.807	1.0	0.774	0.672
1716	0.736	0.679	0.807	1.0	0.785	0.664
1717	0.736	0.679	0.807	1.0	0.78	0.655
1718	0.736	0.68	0.807	1.0	0.768	0.645
1719	0.736	0.668	0.807	1.0	0.76	0.636
1720	0.736	0.666	0.807	1.0	0.748	0.627
1721	0.736	0.671	0.807	1.0	0.756	0.621
1722	0.736	0.669	0.807	1.0	0.694	0.618
1723	0.736	0.672	0.807	1.0	0.73	0.618
1724	0.736	0.678	0.807	1.0	0.75	0.621
1725	0.736	0.686	0.806	1.0	0.753	0.625
1726	0.736	0.652	0.806	1.0	0.752	0.628
1727	0.736	0.65	0.805	1.0	0.756	0.629
1728	0.736	0.65	0.805	1.0	0.755	0.629
1729	0.736	0.652	0.804	1.0	0.757	0.629
1730	0.736	0.643	0.803	1.0	0.766	0.629
1731	0.736	0.638	0.803	1.0	0.754	0.629
1732	0.736	0.636	0.802	1.0	0.817	0.63
1733	0.736	0.647	0.802	1.0	0.78	0.631
1734	0.736	0.662	0.801	1.0	0.756	0.633
1735	0.736	0.679	0.801	1.0	0.75	0.635
1736	0.736	0.698	0.801	1.0	0.753	0.639
1737	0.736	0.693	0.801	1.0	0.758	0.646
1738	0.736	0.692	0.801	1.0	0.763	0.656
1739	0.736	0.694	0.801	1.0	0.754	0.666
1740	0.736	0.713	0.801	1.0	0.75	0.676
1741	0.736	0.725	0.801	1.0	0.752	0.684
1742	0.736	0.73	0.801	1.0	0.749	0.689
1743	0.736	0.716	0.801	1.0	0.748	0.693
1744	0.736	0.709	0.801	1.0	0.745	0.696
1745	0.736	0.71	0.801	1.0	0.738	0.697
1746	0.736	0.719	0.801	1.0	0.73	0.696
1747	0.736	0.724	0.801	1.0	0.726	0.695
1748	0.736	0.726	0.801	1.0	0.727	0.693
1749	0.736	0.728	0.801	1.0	0.735	0.691
1750	0.736	0.711	0.801	1.0	0.738	0.689
1751	0.736	0.691	0.801	1.0	0.736	0.689
1752	0.736	0.683	0.801	1.0	0.691	0.689
1753	0.736	0.688	0.801	1.0	0.673	0.689
1754	0.736	0.691	0.801	1.0	0.686	0.687
1755	0.736	0.692	0.801	1.0	0.699	0.685
1756	0.736	0.688	0.8	1.0	0.702	0.682
1757	0.736	0.681	0.799	1.0	0.723	0.676
1758	0.736	0.678	0.799	1.0	0.731	0.669
1759	0.736	0.677	0.798	1.0	0.733	0.661
1760	0.736	0.684	0.798	1.0	0.741	0.653
1761	0.736	0.698	0.797	1.0	0.747	0.646
1762	0.736	0.702	0.797	1.0	0.796	0.64
1763	0.736	0.702	0.797	1.0	0.823	0.637
1764	0.736	0.705	0.797	1.0	0.818	0.635
1765	0.736	0.694	0.797	1.0	0.813	0.636
1766	0.736	0.676	0.798	1.0	0.811	0.637
1767	0.736	0.693	0.799	1.0	0.795	0.637
1768	0.736	0.698	0.799	1.0	0.783	0.638
1769	0.736	0.691	0.8	1.0	0.774	0.638
1770	0.736	0.683	0.8	1.0	0.756	0.635
1771	0.736	0.678	0.801	1.0	0.734	0.63
1772	0.736	0.676	0.801	1.0	0.744	0.624
1773	0.736	0.683	0.801	1.0	0.747	0.617
1774	0.736	0.682	0.801	1.0	0.75	0.613
1775	0.736	0.69	0.801	1.0	0.76	0.611
1776	0.736	0.726	0.801	1.0	0.769	0.612
1777	0.736	0.722	0.801	1.0	0.763	0.617
1778	0.736	0.721	0.801	1.0	0.759	0.625
1779	0.736	0.738	0.796	1.0	0.758	0.634
1780	0.736	0.751	0.791	1.0	0.765	0.644
1781	0.736	0.758	0.786	1.0	0.782	0.653
1782	0.736	0.759	0.781	1.0	0.768	0.661
1783	0.736	0.759	0.777	1.0	0.76	0.667
1784	0.736	0.764	0.773	1.0	0.757	0.67
1785	0.736	0.77	0.769	1.0	0.752	0.671
1786	0.736	0.758	0.766	1.0	0.749	0.669
1787	0.736	0.749	0.762	1.0	0.749	0.666
1788	0.736	0.751	0.759	1.0	0.748	0.663
1789	0.736	0.746	0.761	1.0	0.761	0.659
1790	0.736	0.751	0.763	1.0	0.77	0.656
1791	0.736	0.751	0.767	1.0	0.777	0.656
1792	0.736	0.789	0.77	1.0	0.788	0.658
1793	0.736	0.796	0.772	1.0	0.793	0.663
1794	0.736	0.798	0.775	1.0	0.798	0.668
1795	0.736	0.799	0.777	1.0	0.802	0.675
1796	0.736	0.792	0.778	1.0	0.808	0.681
1797	0.736	0.792	0.78	1.0	0.807	0.686
1798	0.736	0.792	0.782	1.0	0.798	0.69
1799	0.736	0.794	0.784	1.0	0.767	0.693
1800	0.736	0.785	0.784	1.0	0.763	0.695
1801	0.736	0.784	0.784	1.0	0.781	0.696
1802	0.736	0.742	0.784	1.0	0.794	0.697
1803	0.736	0.728	0.784	1.0	0.805	0.701
1804	0.736	0.719	0.785	1.0	0.808	0.706
1805	0.736	0.716	0.786	1.0	0.804	0.712
1806	0.736	0.724	0.787	1.0	0.81	0.72
1807	0.736	0.73	0.788	1.0	0.821	0.728
1808	0.736	0.734	0.789	1.0	0.838	0.736
1809	0.736	0.727	0.79	1.0	0.875	0.745
1810	0.736	0.724	0.791	1.0	0.888	0.755
1811	0.736	0.726	0.793	1.0	0.874	0.764
1812	0.736	0.731	0.795	1.0	0.862	0.772
1813	0.736	0.734	0.796	1.0	0.857	0.778
1814	0.736	0.734	0.797	1.0	0.858	0.783
1815	0.736	0.727	0.799	1.0	0.867	0.788
1816	0.736	0.715	0.799	1.0	0.865	0.792
1817	0.736	0.706	0.8	1.0	0.865	0.793
1818	0.736	0.701	0.8	1.0	0.868	0.793
1819	0.736	0.708	0.801	1.0	0.867	0.793
1820	0.736	0.714	0.801	1.0	0.862	0.793
1821	0.736	0.719	0.801	1.0	0.858	0.793
1822	0.736	0.709	0.801	1.0	0.858	0.793
1823	0.736	0.703	0.801	1.0	0.86	0.792
1824	0.736	0.703	0.801	1.0	0.865	0.79
1825	0.736	0.698	0.801	1.0	0.87	0.788
1826	0.736	0.686	0.801	1.0	0.876	0.786
1827	0.736	0.687	0.801	1.0	0.88	0.785
1828	0.736	0.683	0.801	1.0	0.885	0.787
1829	0.736	0.671	0.801	1.0	0.885	0.789
1830	0.736	0.667	0.801	1.0	0.886	0.789
1831	0.736	0.663	0.801	1.0	0.888	0.787
1832	0.736	0.677	0.801	1.0	0.882	0.784
1833	0.736	0.684	0.801	1.0	0.881	0.781
1834	0.736	0.691	0.801	1.0	0.881	0.777
1835	0.736	0.706	0.801	1.0	0.883	0.773
1836	0.736	0.728	0.801	1.0	0.877	0.77
1837	0.736	0.73	0.801	1.0	0.879	0.768
1838	0.736	0.731	0.801	1.0	0.883	0.768
1839	0.736	0.731	0.801	1.0	0.886	0.769
1840	0.736	0.712	0.801	1.0	0.888	0.77
1841	0.736	0.684	0.801	1.0	0.892	0.77
1842	0.736	0.678	0.801	1.0	0.902	0.77
1843	0.736	0.674	0.801	1.0	0.902	0.771
1844	0.736	0.666	0.801	1.0	0.899	0.771
1845	0.753	0.661	0.801	1.0	0.894	0.771
1846	0.769	0.663	0.801	1.0	0.894	0.771
1847	0.786	0.675	0.802	1.0	0.892	0.771
1848	0.803	0.684	0.803	1.0	0.891	0.77
1849	0.819	0.694	0.804	1.0	0.891	0.771
1850	0.836	0.715	0.805	1.0	0.892	0.771
1851	0.853	0.746	0.807	1.0	0.883	0.771
1852	0.869	0.744	0.809	1.0	0.879	0.771
1853	0.886	0.747	0.81	1.0	0.879	0.771
1854	0.903	0.753	0.812	1.0	0.882	0.773
1855	0.903	0.755	0.814	1.0	0.888	0.776
1856	0.903	0.757	0.815	1.0	0.894	0.78
1857	0.903	0.747	0.816	1.0	0.899	0.783
1858	0.903	0.736	0.817	1.0	0.904	0.787
1859	0.903	0.74	0.818	1.0	0.911	0.79
1860	0.903	0.747	0.818	1.0	0.912	0.793
1861	0.903	0.748	0.818	1.0	0.921	0.797
1862	0.903	0.755	0.818	1.0	0.911	0.799
1863	0.903	0.76	0.818	1.0	0.887	0.8
1864	0.903	0.762	0.82	1.0	0.896	0.8
1865	0.903	0.766	0.822	1.0	0.905	0.798
1866	0.903	0.766	0.823	1.0	0.913	0.796
1867	0.903	0.772	0.825	1.0	0.916	0.795
1868	0.903	0.768	0.827	1.0	0.912	0.793
1869	0.903	0.737	0.828	1.0	0.908	0.793
1870	0.903	0.719	0.83	1.0	0.91	0.792
1871	0.903	0.722	0.832	1.0	0.912	0.792
1872	0.903	0.722	0.834	1.0	0.923	0.794
1873	0.903	0.713	0.836	1.0	0.942	0.796
1874	0.903	0.696	0.837	1.0	0.929	0.798
1875	0.903	0.702	0.838	1.0	0.919	0.801
1876	0.903	0.709	0.839	1.0	0.907	0.803
1877	0.903	0.709	0.84	1.0	0.903	0.804
1878	0.903	0.718	0.841	1.0	0.904	0.806
1879	0.903	0.758	0.843	1.0	0.904	0.807
1880	0.903	0.764	0.844	1.0	0.906	0.807
1881	0.903	0.76	0.845	1.0	0.9	0.807
1882	0.903	0.766	0.846	1.0	0.906	0.804
1883	0.903	0.78	0.847	1.0	0.914	0.802
1884	0.903	0.804	0.847	1.0	0.916	0.8
1885	0.903	0.799	0.847	1.0	0.907	0.799
1886	0.903	0.782	0.847	1.0	0.908	0.797
1887	0.903	0.762	0.847	1.0	0.909	0.795
1888	0.903	0.776	0.848	1.0	0.904	0.793
1889	0.903	0.771	0.849	1.0	0.899	0.792
1890	0.903	0.78	0.849	1.0	0.896	0.79
1891	0.903	0.78	0.85	1.0	0.906	0.789
1892	0.903	0.782	0.85	1.0	0.905	0.788
1893	0.903	0.778	0.851	1.0	0.905	0.788
1894	0.903	0.777	0.851	1.0	0.908	0.787
1895	0.903	0.784	0.852	1.0	0.91	0.788
1896	0.903	0.796	0.852	1.0	0.901	0.788
1897	0.903	0.818	0.852	1.0	0.901	0.789
1898	0.903	0.815	0.852	1.0	0.906	0.789
1899	0.903	0.817	0.852	1.0	0.908	0.789
1900	0.903	0.823	0.852	1.0	0.91	0.79
1901	0.903	0.827	0.852	1.0	0.907	0.79
1902	0.903	0.82	0.855	1.0	0.904	0.792
1903	0.903	0.83	0.857	1.0	0.908	0.793
1904	0.903	0.829	0.859	1.0	0.894	0.794
1905	0.903	0.817	0.861	1.0	0.893	0.794
1906	0.903	0.824	0.864	1.0	0.909	0.793
1907	0.903	0.828	0.867	1.0	0.913	0.793
1908	0.903	0.831	0.87	1.0	0.911	0.794
1909	0.903	0.831	0.873	1.0	0.915	0.795
1910	0.903	0.828	0.876	1.0	0.894	0.798
1911	0.903	0.831	0.878	1.0	0.876	0.801
1912	0.903	0.843	0.879	1.0	0.861	0.804
1913	0.903	0.828	0.88	1.0	0.868	0.805
1914	0.903	0.827	0.88	1.0	0.891	0.807
1915	0.903	0.841	0.881	1.0	0.903	0.809
1916	0.903	0.835	0.881	1.0	0.898	0.812
1917	0.903	0.823	0.881	1.0	0.9	0.815
1918	0.903	0.822	0.881	1.0	0.908	0.819
1919	0.903	0.815	0.881	1.0	0.91	0.823
1920	0.903	0.803	0.882	1.0	0.934	0.827
1921	0.903	0.792	0.882	1.0	0.955	0.831
1922	0.903	0.791	0.883	1.0	0.98	0.835
1923	0.903	0.803	0.883	1.0	0.972	0.84
1924	0.903	0.808	0.884	1.0	0.966	0.846
1925	0.903	0.801	0.884	1.0	0.96	0.85
1926	0.903	0.799	0.885	1.0	0.96	0.854
1927	0.903	0.815	0.886	1.0	0.956	0.858
1928	0.903	0.819	0.886	1.0	0.95	0.86
1929	0.903	0.828	0.886	1.0	0.947	0.862
1930	0.903	0.841	0.886	1.0	0.946	0.862
1931	0.903	0.853	0.886	1.0	0.941	0.862
1932	0.903	0.838	0.886	1.0	0.933	0.862
1933	0.903	0.807	0.886	1.0	0.928	0.862
1934	0.903	0.814	0.888	1.0	0.928	0.862
1935	0.903	0.812	0.889	1.0	0.927	0.863
1936	0.903	0.809	0.89	1.0	0.929	0.864
1937	0.903	0.799	0.891	1.0	0.932	0.866
1938	0.903	0.795	0.892	1.0	0.937	0.867
1939	0.903	0.795	0.893	1.0	0.934	0.868
1940	0.903	0.8	0.894	1.0	0.938	0.869
1941	0.903	0.803	0.895	1.0	0.938	0.869
1942	0.903	0.815	0.897	1.0	0.939	0.87
1943	0.903	0.834	0.898	1.0	0.944	0.871
1944	0.903	0.827	0.898	1.0	0.948	0.87
1945	0.903	0.841	0.898	1.0	0.949	0.87
1946	0.903	0.852	0.898	1.0	0.943	0.869
1947	0.903	0.864	0.898	1.0	0.931	0.868
1948	0.903	0.875	0.898	1.0	0.9	0.866
1949	0.903	0.887	0.898	1.0	0.919	0.864
1950	0.903	0.877	0.898	1.0	0.928	0.863
1951	0.903	0.872	0.898	1.0	0.944	0.861
1952	0.903	0.878	0.898	1.0	0.956	0.861
1953	0.903	0.892	0.898	1.0	0.963	0.86
1954	0.903	0.894	0.898	1.0	0.962	0.861
1955	0.903	0.889	0.898	1.0	0.959	0.862
1956	0.903	0.894	0.898	1.0	0.961	0.863
1957	0.903	0.899	0.898	1.0	0.969	0.865
1958	0.903	0.898	0.898	1.0	0.993	0.867
1959	0.903	0.886	0.898	1.0	0.974	0.87
1960	0.903	0.898	0.898	1.0	0.959	0.873
1961	0.903	0.897	0.898	1.0	0.947	0.875
1962	0.903	0.897	0.898	1.0	0.937	0.876
1963	0.903	0.903	0.898	1.0	0.93	0.877
1964	0.903	0.914	0.898	1.0	0.922	0.877
1965	0.903	0.921	0.898	1.0	0.924	0.876
1966	0.903	0.909	0.898	1.0	0.923	0.876
1967	0.903	0.907	0.898	1.0	0.925	0.874
1968	0.903	0.91	0.898	1.0	0.933	0.872
1969	0.903	0.912	0.898	1.0	0.918	0.869
1970	0.903	0.917	0.898	1.0	0.897	0.865
1971	0.903	0.925	0.898	1.0	0.874	0.861
1972	0.903	0.925	0.898	1.0	0.892	0.857
1973	0.903	0.922	0.898	1.0	0.91	0.853
1974	0.903	0.88	0.898	1.0	0.931	0.85
1975	0.903	0.862	0.899	1.0	0.943	0.848
1976	0.903	0.876	0.899	1.0	0.956	0.846
1977	0.903	0.874	0.9	1.0	0.958	0.847
1978	0.903	0.874	0.901	1.0	0.958	0.85
1979	0.903	0.878	0.901	1.0	0.981	0.853
1980	0.903	0.872	0.902	1.0	1.005	0.857
1981	0.903	0.855	0.902	1.0	1.029	0.862
1982	0.903	0.826	0.903	1.0	1.013	0.867
1983	0.903	0.809	0.903	1.0	0.996	0.871
1984	0.903	0.827	0.903	1.0	0.978	0.873
1985	0.903	0.826	0.903	1.0	0.968	0.875
1986	0.903	0.802	0.903	1.0	0.957	0.876
1987	0.903	0.8	0.903	1.0	0.954	0.876
1988	0.903	0.798	0.903	1.0	0.952	0.874
1989	0.903	0.795	0.903	1.0	0.943	0.872
1990	0.903	0.791	0.903	1.0	0.946	0.87
1991	0.903	0.801	0.903	1.0	0.947	0.868
1992	0.903	0.823	0.903	1.0	0.946	0.867
1993	0.903	0.834	0.903	1.0	0.947	0.865
1994	0.903	0.834	0.903	1.0	0.95	0.864
1995	0.903	0.838	0.903	1.0	0.951	0.863
1996	0.903	0.848	0.903	1.0	0.955	0.862
1997	0.903	0.841	0.903	1.0	0.956	0.862
1998	0.903	0.829	0.903	1.0	0.955	0.862
1999	0.903	0.821	0.904	1.0	0.958	0.862
2000	0.903	0.81	0.904	1.0	0.955	0.863
2001	0.903	0.812	0.905	1.0	0.96	0.863
2002	0.903	0.817	0.905	1.0	0.961	0.864
2003	0.903	0.822	0.906	1.0	0.964	0.865
2004	0.903	0.831	0.907	1.0	0.965	0.866
2005	0.903	0.841	0.907	1.0	0.966	0.867
2006	0.903	0.847	0.908	1.0	0.965	0.867
2007	0.903	0.85	0.908	1.0	0.965	0.868
2008	0.903	0.848	0.909	1.0	0.964	0.869
2009	0.903	0.857	0.909	1.0	0.966	0.87
2010	0.903	0.874	0.909	1.0	0.964	0.871
2011	0.903	0.876	0.909	1.0	0.957	0.872
2012	0.903	0.875	0.909	1.0	0.954	0.873
2013	0.903	0.872	0.909	1.0	0.95	0.874
2014	0.903	0.87	0.909	1.0	0.941	0.875
2015	0.903	0.868	0.909	1.0	0.937	0.876
2016	0.903	0.858	0.909	1.0	0.936	0.877
2017	0.903	0.839	0.91	1.0	0.939	0.877
2018	0.903	0.82	0.911	1.0	0.939	0.877
2019	0.903	0.822	0.912	1.0	0.937	0.876
2020	0.903	0.816	0.913	1.0	0.936	0.874
2021	0.903	0.815	0.914	1.0	0.933	0.871
2022	0.903	0.812	0.916	1.0	0.926	0.867
2023	0.903	0.816	0.917	1.0	0.924	0.861
2024	0.903	0.816	0.918	1.0	0.913	0.854
2025	0.903	0.814	0.919	1.0	0.92	0.847
2026	0.903	0.823	0.92	1.0	0.925	0.838
2027	0.903	0.844	0.92	1.0	0.92	0.831
2028	0.903	0.868	0.915	1.0	0.897	0.823
2029	0.903	0.866	0.909	1.0	0.901	0.815
2030	0.903	0.861	0.904	1.0	0.902	0.808
2031	0.903	0.866	0.899	1.0	0.906	0.803
2032	0.903	0.87	0.894	1.0	0.913	0.8
2033	0.903	0.865	0.889	1.0	0.908	0.798
2034	0.903	0.877	0.884	1.0	0.918	0.798
2035	0.903	0.885	0.878	1.0	0.908	0.799
2036	0.903	0.862	0.873	1.0	0.899	0.799
2037	0.903	0.847	0.868	1.0	0.893	0.8
2038	0.903	0.844	0.869	1.0	0.91	0.801
2039	0.903	0.818	0.872	1.0	0.899	0.803
2040	0.903	0.797	0.875	1.0	0.892	0.804
2041	0.903	0.768	0.878	1.0	0.877	0.805
2042	0.903	0.763	0.881	1.0	0.87	0.805
2043	0.903	0.759	0.885	1.0	0.869	0.805
2044	0.903	0.741	0.888	1.0	0.866	0.804
2045	0.903	0.731	0.891	1.0	0.857	0.802
2046	0.903	0.759	0.895	1.0	0.853	0.799
2047	0.903	0.78	0.898	1.0	0.847	0.796
2048	0.903	0.787	0.902	1.0	0.843	0.792
2049	0.903	0.811	0.903	1.0	0.838	0.787
2050	0.903	0.838	0.905	1.0	0.83	0.782
2051	0.903	0.867	0.907	1.0	0.831	0.777
2052	0.903	0.867	0.908	1.0	0.824	0.771
2053	0.903	0.878	0.909	1.0	0.816	0.765
2054	0.903	0.884	0.91	1.0	0.808	0.758
2055	0.903	0.887	0.911	1.0	0.799	0.752
2056	0.903	0.884	0.912	1.0	0.787	0.745
2057	0.903	0.872	0.914	1.0	0.78	0.737
2058	0.903	0.862	0.915	1.0	0.772	0.728
2059	0.903	0.864	0.915	1.0	0.762	0.718
2060	0.903	0.861	0.915	1.0	0.755	0.706
2061	0.903	0.858	0.915	1.0	0.743	0.69
2062	0.903	0.86	0.915	1.0	0.733	0.67
2063	0.903	0.852	0.915	1.0	0.723	0.647
2064	0.903	0.855	0.915	1.0	0.713	0.619
2065	0.903	0.847	0.915	1.0	0.704	0.59
2066	0.903	0.848	0.915	1.0	0.694	0.562
2067	0.903	0.851	0.916	1.0	0.677	0.537
2068	0.903	0.859	0.916	1.0	0.661	0.514
2069	0.903	0.859	0.917	1.0	0.65	0.496
2070	0.903	0.857	0.918	1.0	0.64	0.482
2071	0.903	0.86	0.918	1.0	0.636	0.473
2072	0.903	0.865	0.919	1.0	0.634	0.468
2073	0.903	0.87	0.921	1.0	0.63	0.467
2074	0.903	0.869	0.923	1.0	0.628	0.467
2075	0.903	0.872	0.924	1.0	0.631	0.468
2076	0.903	0.869	0.926	1.0	0.624	0.47
2077	0.903	0.878	0.927	1.0	0.606	0.473
2078	0.903	0.882	0.928	1.0	0.604	0.474
2079	0.903	0.884	0.93	1.0	0.614	0.474
2080	0.903	0.891	0.932	1.0	0.615	0.472
2081	0.903	0.889	0.934	1.0	0.613	0.47
2082	0.903	0.888	0.935	1.0	0.608	0.469
2083	0.903	0.888	0.935	1.0	0.603	0.469
2084	0.903	0.899	0.936	1.0	0.593	0.47
2085	0.903	0.904	0.936	1.0	0.583	0.473
2086	0.845	0.903	0.937	1.0	0.586	0.475
2087	0.787	0.901	0.938	1.0	0.603	0.478
2088	0.73	0.909	0.938	1.0	0.601	0.483
2089	0.672	0.91	0.938	1.0	0.58	0.488
2090	0.615	0.9	0.938	1.0	0.568	0.49
2091	0.557	0.897	0.938	1.0	0.558	0.491
2092	0.5	0.894	0.938	1.0	0.553	0.488
2093	0.442	0.894	0.938	1.0	0.549	0.484
2094	0.385	0.899	0.938	1.0	0.548	0.477
2095	0.327	0.906	0.938	1.0	0.544	0.47
2096	0.327	0.909	0.938	1.0	0.54	0.464
2097	0.327	0.895	0.938	1.0	0.533	0.458
2098	0.327	0.857	0.938	1.0	0.532	0.453
2099	0.327	0.849	0.938	1.0	0.533	0.45
2100	0.327	0.848	0.938	1.0	0.531	0.448
2101	0.327	0.84	0.938	1.0	0.528	0.448
2102	0.327	0.828	0.938	1.0	0.525	0.449
2103	0.327	0.821	0.938	1.0	0.524	0.45
2104	0.327	0.801	0.938	1.0	0.521	0.451
2105	0.327	0.789	0.938	1.0	0.52	0.452
2106	0.327	0.786	0.939	1.0	0.517	0.453
2107	0.327	0.784	0.939	1.0	0.514	0.454
2108	0.327	0.801	0.94	1.0	0.51	0.454
2109	0.327	0.797	0.94	1.0	0.504	0.454
2110	0.327	0.8	0.94	1.0	0.501	0.455
2111	0.327	0.805	0.94	1.0	0.501	0.456
2112	0.327	0.812	0.94	1.0	0.499	0.458
2113	0.327	0.813	0.94	1.0	0.494	0.459
2114	0.327	0.814	0.939	1.0	0.489	0.461
2115	0.327	0.817	0.939	1.0	0.477	0.461
2116	0.327	0.817	0.938	1.0	0.463	0.459
2117	0.327	0.821	0.938	1.0	0.46	0.456
2118	0.327	0.824	0.938	1.0	0.472	0.452
2119	0.327	0.828	0.938	1.0	0.483	0.449
2120	0.327	0.828	0.938	1.0	0.49	0.448
2121	0.327	0.828	0.938	1.0	0.497	0.448
2122	0.327	0.829	0.938	1.0	0.504	0.45
2123	0.327	0.828	0.938	1.0	0.512	0.452
2124	0.327	0.825	0.938	1.0	0.519	0.455
2125	0.327	0.827	0.936	1.0	0.53	0.458
2126	0.327	0.818	0.934	1.0	0.542	0.463
2127	0.327	0.827	0.926	1.0	0.544	0.468
2128	0.327	0.831	0.918	1.0	0.53	0.473
2129	0.327	0.831	0.91	1.0	0.52	0.476
2130	0.327	0.831	0.902	1.0	0.514	0.476
2131	0.327	0.829	0.894	1.0	0.503	0.474
2132	0.327	0.831	0.886	1.0	0.491	0.47
2133	0.327	0.832	0.878	1.0	0.486	0.465
2134	0.327	0.832	0.87	1.0	0.482	0.46
2135	0.327	0.822	0.864	1.0	0.48	0.456
2136	0.327	0.808	0.857	1.0	0.482	0.452
2137	0.327	0.765	0.856	1.0	0.486	0.45
2138	0.327	0.777	0.856	1.0	0.488	0.45
2139	0.327	0.778	0.855	1.0	0.488	0.451
2140	0.327	0.779	0.855	1.0	0.49	0.455
2141	0.327	0.781	0.854	1.0	0.494	0.459
2142	0.327	0.778	0.853	1.0	0.501	0.464
2143	0.327	0.775	0.853	1.0	0.48	0.467
2144	0.327	0.776	0.851	1.0	0.471	0.469
2145	0.327	0.779	0.85	1.0	0.473	0.468
2146	0.327	0.777	0.847	1.0	0.476	0.466
2147	0.327	0.768	0.844	1.0	0.483	0.462
2148	0.327	0.728	0.84	1.0	0.492	0.457
2149	0.327	0.723	0.837	1.0	0.495	0.452
2150	0.327	0.722	0.834	1.0	0.487	0.445
2151	0.327	0.721	0.828	1.0	0.486	0.438
2152	0.327	0.721	0.823	1.0	0.482	0.432
2153	0.327	0.724	0.818	1.0	0.497	0.428
2154	0.327	0.728	0.814	1.0	0.5	0.426
2155	0.327	0.728	0.811	1.0	0.494	0.428
2156	0.327	0.747	0.808	1.0	0.485	0.432
2157	0.327	0.791	0.806	1.0	0.472	0.438
2158	0.327	0.809	0.803	1.0	0.462	0.445
2159	0.327	0.798	0.801	1.0	0.463	0.452
2160	0.327	0.791	0.797	1.0	0.461	0.458
2161	0.327	0.787	0.794	1.0	0.465	0.464
2162	0.327	0.784	0.791	1.0	0.463	0.469
2163	0.327	0.778	0.788	1.0	0.455	0.472
2164	0.327	0.773	0.784	1.0	0.442	0.471
2165	0.327	0.77	0.78	1.0	0.437	0.467
2166	0.327	0.768	0.776	1.0	0.442	0.461
2167	0.327	0.761	0.773	1.0	0.461	0.454
2168	0.327	0.761	0.768	1.0	0.466	0.449
2169	0.327	0.766	0.762	1.0	0.457	0.445
2170	0.327	0.76	0.76	1.0	0.462	0.443
2171	0.327	0.761	0.757	1.0	0.458	0.442
2172	0.327	0.759	0.754	1.0	0.461	0.442
2173	0.327	0.756	0.75	1.0	0.472	0.444
2174	0.327	0.756	0.747	1.0	0.49	0.449
2175	0.327	0.751	0.743	1.0	0.496	0.457
2176	0.327	0.747	0.739	1.0	0.494	0.465
2177	0.327	0.744	0.736	1.0	0.48	0.473
2178	0.327	0.744	0.733	1.0	0.477	0.478
2179	0.327	0.747	0.73	1.0	0.493	0.481
2180	0.327	0.755	0.728	1.0	0.5	0.483
2181	0.327	0.76	0.725	1.0	0.499	0.485
2182	0.327	0.766	0.722	1.0	0.492	0.485
2183	0.327	0.763	0.72	1.0	0.484	0.484
2184	0.327	0.746	0.718	1.0	0.477	0.481
2185	0.327	0.731	0.718	1.0	0.475	0.476
2186	0.327	0.712	0.717	1.0	0.475	0.47
2187	0.327	0.707	0.716	1.0	0.476	0.464
2188	0.327	0.709	0.716	1.0	0.478	0.458
2189	0.327	0.709	0.716	1.0	0.465	0.452
2190	0.327	0.703	0.716	1.0	0.458	0.445
2191	0.327	0.69	0.716	1.0	0.457	0.438
2192	0.327	0.678	0.716	1.0	0.461	0.431
2193	0.327	0.678	0.716	1.0	0.465	0.424
2194	0.327	0.691	0.715	1.0	0.469	0.419
2195	0.327	0.708	0.715	1.0	0.469	0.415
2196	0.327	0.727	0.714	1.0	0.467	0.412
2197	0.327	0.728	0.714	1.0	0.466	0.41
2198	0.327	0.719	0.713	1.0	0.448	0.409
2199	0.327	0.71	0.712	1.0	0.438	0.411
2200	0.327	0.703	0.711	1.0	0.433	0.416
2201	0.327	0.701	0.71	1.0	0.433	0.425
2202	0.327	0.697	0.709	1.0	0.43	0.437
2203	0.327	0.693	0.708	1.0	0.426	0.451
2204	0.327	0.68	0.707	1.0	0.416	0.465
2205	0.327	0.665	0.707	1.0	0.399	0.476
2206	0.327	0.672	0.706	1.0	0.375	0.482
2207	0.327	0.677	0.705	1.0	0.385	0.483
2208	0.327	0.678	0.703	1.0	0.412	0.48
2209	0.327	0.703	0.702	1.0	0.432	0.474
2210	0.327	0.71	0.702	1.0	0.445	0.463
2211	0.327	0.721	0.701	1.0	0.45	0.451
2212	0.327	0.734	0.7	1.0	0.454	0.437
2213	0.327	0.726	0.699	1.0	0.466	0.424
2214	0.327	0.729	0.698	1.0	0.485	0.412
2215	0.327	0.745	0.697	1.0	0.508	0.405
2216	0.327	0.738	0.697	1.0	0.536	0.403
2217	0.327	0.734	0.696	1.0	0.528	0.408
2218	0.327	0.732	0.695	1.0	0.515	0.417
2219	0.327	0.703	0.695	1.0	0.505	0.429
2220	0.327	0.689	0.694	1.0	0.499	0.441
2221	0.327	0.679	0.694	1.0	0.494	0.452
2222	0.327	0.666	0.694	1.0	0.493	0.46
2223	0.327	0.671	0.693	1.0	0.484	0.466
2224	0.327	0.673	0.693	1.0	0.473	0.47
2225	0.327	0.667	0.693	1.0	0.462	0.471
2226	0.327	0.662	0.693	1.0	0.452	0.471
2227	0.327	0.668	0.693	1.0	0.45	0.468
2228	0.327	0.675	0.693	1.0	0.45	0.466
2229	0.327	0.684	0.693	1.0	0.449	0.464
2230	0.327	0.704	0.693	1.0	0.45	0.462
2231	0.327	0.709	0.693	1.0	0.449	0.461
2232	0.327	0.705	0.693	1.0	0.447	0.459
2233	0.327	0.691	0.693	1.0	0.447	0.458
2234	0.327	0.659	0.693	1.0	0.449	0.455
2235	0.327	0.644	0.693	1.0	0.452	0.452
2236	0.327	0.644	0.692	1.0	0.453	0.448
2237	0.327	0.637	0.692	1.0	0.447	0.444
2238	0.327	0.619	0.691	1.0	0.441	0.44
2239	0.327	0.59	0.691	1.0	0.438	0.435
2240	0.327	0.56	0.69	1.0	0.436	0.43
2241	0.327	0.548	0.689	1.0	0.432	0.425
2242	0.327	0.549	0.689	1.0	0.428	0.422
2243	0.327	0.564	0.688	1.0	0.428	0.42
2244	0.327	0.587	0.688	1.0	0.431	0.421
2245	0.327	0.593	0.687	1.0	0.438	0.425
2246	0.327	0.586	0.686	1.0	0.44	0.43
2247	0.327	0.583	0.686	1.0	0.442	0.437
2248	0.327	0.597	0.685	1.0	0.445	0.444
2249	0.327	0.637	0.684	1.0	0.447	0.45
2250	0.327	0.659	0.683	1.0	0.449	0.455
2251	0.327	0.665	0.682	1.0	0.45	0.458
2252	0.327	0.673	0.68	1.0	0.46	0.459
2253	0.327	0.678	0.679	1.0	0.469	0.459
2254	0.327	0.682	0.678	1.0	0.47	0.458
2255	0.327	0.691	0.678	1.0	0.465	0.457
2256	0.327	0.704	0.677	1.0	0.466	0.456
2257	0.327	0.714	0.676	1.0	0.465	0.454
2258	0.327	0.719	0.675	1.0	0.464	0.452
2259	0.327	0.707	0.675	1.0	0.459	0.449
2260	0.327	0.7	0.674	1.0	0.45	0.446
2261	0.327	0.698	0.674	1.0	0.447	0.443
2262	0.327	0.69	0.673	1.0	0.439	0.44
2263	0.327	0.682	0.672	1.0	0.436	0.436
2264	0.327	0.678	0.672	1.0	0.436	0.431
2265	0.327	0.664	0.671	1.0	0.438	0.425
2266	0.327	0.634	0.671	1.0	0.44	0.418
2267	0.327	0.593	0.67	1.0	0.442	0.411
2268	0.327	0.609	0.67	1.0	0.451	0.402
2269	0.327	0.629	0.67	1.0	0.459	0.393
2270	0.327	0.653	0.67	1.0	0.466	0.383
2271	0.327	0.672	0.669	1.0	0.472	0.373
2272	0.327	0.7	0.668	1.0	0.474	0.361
2273	0.327	0.733	0.668	1.0	0.466	0.35
2274	0.327	0.746	0.667	1.0	0.459	0.338
2275	0.327	0.751	0.667	1.0	0.454	0.326
2276	0.327	0.747	0.666	1.0	0.448	0.315
2277	0.327	0.788	0.666	1.0	0.438	0.304
2278	0.327	0.767	0.665	1.0	0.426	0.295
2279	0.327	0.745	0.665	1.0	0.417	0.286
2280	0.327	0.721	0.665	1.0	0.413	0.278
2281	0.327	0.701	0.665	1.0	0.411	0.27
2282	0.327	0.67	0.665	1.0	0.409	0.264
2283	0.327	0.639	0.665	1.0	0.394	0.259
2284	0.327	0.627	0.665	1.0	0.365	0.256
2285	0.327	0.635	0.665	1.0	0.35	0.253
2286	0.327	0.66	0.665	1.0	0.354	0.252
2287	0.327	0.648	0.665	1.0	0.352	0.252
2288	0.327	0.643	0.665	1.0	0.339	0.251
2289	0.327	0.641	0.665	1.0	0.313	0.25
2290	0.327	0.643	0.665	1.0	0.296	0.249
2291	0.327	0.647	0.665	1.0	0.292	0.249
2292	0.327	0.656	0.665	1.0	0.3	0.249
2293	0.327	0.661	0.665	1.0	0.298	0.25
2294	0.327	0.663	0.665	1.0	0.308	0.253
2295	0.327	0.661	0.665	1.0	0.3	0.256
2296	0.327	0.659	0.665	1.0	0.275	0.259
2297	0.327	0.669	0.665	1.0	0.256	0.263
2298	0.327	0.679	0.665	1.0	0.255	0.266
2299	0.327	0.69	0.665	1.0	0.271	0.269
2300	0.327	0.693	0.665	1.0	0.278	0.273
2301	0.327	0.697	0.665	1.0	0.275	0.277
2302	0.327	0.701	0.665	1.0	0.262	0.281
2303	0.327	0.696	0.665	1.0	0.268	0.286
2304	0.327	0.694	0.665	1.0	0.274	0.289
2305	0.327	0.696	0.665	1.0	0.28	0.292
2306	0.327	0.703	0.665	1.0	0.288	0.295
2307	0.327	0.691	0.665	1.0	0.298	0.297
2308	0.327	0.672	0.665	1.0	0.298	0.3
2309	0.327	0.654	0.665	1.0	0.288	0.304
2310	0.327	0.644	0.665	1.0	0.273	0.306
2311	0.327	0.634	0.665	1.0	0.258	0.306
2312	0.327	0.623	0.665	1.0	0.246	0.304
2313	0.327	0.627	0.665	1.0	0.233	0.301
2314	0.327	0.631	0.665	1.0	0.218	0.295
2315	0.327	0.636	0.665	1.0	0.202	0.288
2316	0.327	0.633	0.665	1.0	0.191	0.279
2317	0.327	0.633	0.665	1.0	0.184	0.267
2318	0.327	0.636	0.665	1.0	0.185	0.255
2319	0.327	0.637	0.665	1.0	0.191	0.241
2320	0.327	0.635	0.665	1.0	0.197	0.229
2321	0.327	0.633	0.665	1.0	0.197	0.219
2322	0.327	0.636	0.665	1.0	0.2	0.21
2323	0.327	0.64	0.665	1.0	0.212	0.203
2324	0.327	0.639	0.665	1.0	0.237	0.198
2325	0.327	0.633	0.665	1.0	0.275	0.194
2326	0.327	0.629	0.665	1.0	0.302	0.192
2327	0.311	0.625	0.665	0.95	0.318	0.192
2328	0.278	0.62	0.665	0.85	0.322	0.191
2329	0.245	0.618	0.665	0.75	0.315	0.191
2330	0.213	0.62	0.665	0.65	0.304	0.188
2331	0.18	0.616	0.665	0.55	0.297	0.184
2332	0.147	0.601	0.665	0.45	0.286	0.179
2333	0.114	0.597	0.665	0.35	0.271	0.174
2334	0.082	0.594	0.665	0.25	0.249	0.169
2335	0.049	0.591	0.665	0.15	0.218	0.165
2336	0.016	0.591	0.665	0.05	0.19	0.162
2337	0.0	0.595	0.665	0.0	0.163	0.16
2338	0.0	0.605	0.665	0.0	0.152	0.161
2339	0.0	0.608	0.665	0.0	0.154	0.164
2340	0.0	0.603	0.665	0.0	0.168	0.169
2341	0.0	0.606	0.665	0.0	0.18	0.175
2342	0.0	0.618	0.665	0.0	0.19	0.181
2343	0.0	0.615	0.665	0.0	0.199	0.186
2344	0.0	0.614	0.665	0.0	0.204	0.189
2345	0.0	0.616	0.665	0.0	0.206	0.19
2346	0.0	0.616	0.665	0.0	0.212	0.189
2347	0.0	0.616	0.665	0.0	0.223	0.187
2348	0.0	0.609	0.665	0.0	0.222	0.184
2349	0.0	0.603	0.665	0.0	0.213	0.181
2350	0.0	0.603	0.665	0.0	0.217	0.177
2351	0.0	0.603	0.662	0.0	0.213	0.173
2352	0.0	0.601	0.658	0.0	0.2	0.17
2353	0.0	0.606	0.653	0.0	0.187	0.169
2354	0.0	0.619	0.649	0.0	0.176	0.168
2355	0.0	0.612	0.644	0.0	0.176	0.169
2356	0.0	0.587	0.64	0.0	0.185	0.171
2357	0.0	0.565	0.635	0.0	0.187	0.172
2358	0.0	0.547	0.631	0.0	0.184	0.173
2359	0.0	0.535	0.626	0.0	0.184	0.173
2360	0.0	0.528	0.622	0.0	0.167	0.171
2361	0.0	0.528	0.619	0.0	0.159	0.168
2362	0.0	0.543	0.619	0.0	0.158	0.164
2363	0.0	0.547	0.619	0.0	0.16	0.16
2364	0.0	0.53	0.619	0.0	0.165	0.155
2365	0.0	0.522	0.619	0.0	0.163	0.15
2366	0.0	0.521	0.619	0.0	0.148	0.144
2367	0.0	0.507	0.619	0.0	0.134	0.14
2368	0.0	0.511	0.619	0.0	0.129	0.136
2369	0.0	0.534	0.619	0.0	0.123	0.134
2370	0.0	0.547	0.619	0.0	0.117	0.132
2371	0.0	0.553	0.619	0.0	0.112	0.132
2372	0.0	0.544	0.619	0.0	0.108	0.132
2373	0.0	0.539	0.619	0.0	0.106	0.133
2374	0.0	0.545	0.619	0.0	0.104	0.134
2375	0.0	0.56	0.619	0.0	0.103	0.135
2376	0.0	0.585	0.619	0.0	0.11	0.136
2377	0.0	0.623	0.619	0.0	0.118	0.137
2378	0.0	0.633	0.619	0.0	0.123	0.138
2379	0.0	0.616	0.619	0.0	0.124	0.14
